{
    "parent": "item/generated",
    "textures": {
        "layer0": "futurepack:items/tools/e_scanner"
    },
	"overrides": [
        {
            "predicate": {
                "color": 1
            },
            "model": "futurepack:item/escanner_s"
        }
    ]
}
