{
	"loader": "forge:separate-perspective",
	"base": {
		"parent": "futurepack:item/grenade_launcher_item_pulling_2"
	},
	"perspectives": {
		"thirdperson_righthand": {
            "parent": "futurepack:item/grenade_launcher_3d_pulling_2"
        },
        "thirdperson_lefthand": {
            "parent": "futurepack:item/grenade_launcher_3d_pulling_2"
        },
        "firstperson_righthand": {
             "parent": "futurepack:item/grenade_launcher_3d_pulling_2"
        },
        "firstperson_lefthand": {
             "parent": "futurepack:item/grenade_launcher_3d_pulling_2"
        }
	},
	"gui_light": "front"
}