{
  "parent": "forge:item/default",
  "loader": "forge:bucket",
  "fluid": "futurepack:hydrogen",
  "textures": {
    "base": "forge:items/bucket_base_upsidedown",
    "fluid": "forge:items/bucket_fluid_upsidedown"
  }
}