{
  "variants": {
    "type=bottom": {
      "model": "futurepack:block/color_gitter_slab_blue_slab"
    },
    "type=top": {
      "model": "futurepack:block/color_gitter_slab_blue_slab_top"
    },
    "type=double": {
      "model": "futurepack:block/color_gitter_slab_blue"
    }
  }
}