{
  "multipart": [
    {
      "apply": {
        "model": "futurepack:block/color_gitter_pane_green_post"
      }
    },
    {
      "when": {
        "north": true
      },
      "apply": {
        "model": "futurepack:block/color_gitter_pane_green_side"
      }
    },
    {
      "when": {
        "east": true
      },
      "apply": {
        "model": "futurepack:block/color_gitter_pane_green_side",
        "y": 90
      }
    },
    {
      "when": {
        "south": true
      },
      "apply": {
        "model": "futurepack:block/color_gitter_pane_green_side_alt"
      }
    },
    {
      "when": {
        "west": true
      },
      "apply": {
        "model": "futurepack:block/color_gitter_pane_green_side_alt",
        "y": 90
      }
    },
    {
      "when": {
        "north": false
      },
      "apply": {
        "model": "futurepack:block/color_gitter_pane_green_noside"
      }
    },
    {
      "when": {
        "east": false
      },
      "apply": {
        "model": "futurepack:block/color_gitter_pane_green_noside_alt"
      }
    },
    {
      "when": {
        "south": false
      },
      "apply": {
        "model": "futurepack:block/color_gitter_pane_green_noside_alt",
        "y": 90
      }
    },
    {
      "when": {
        "west": false
      },
      "apply": {
        "model": "futurepack:block/color_gitter_pane_green_noside",
        "y": 270
      }
    }
  ]
}