{
    "variants": {
        "activated=true,facing=north": { "model": "futurepack:block/gasturbine_w_an", "y":0 },
        "activated=true,facing=east": { "model": "futurepack:block/gasturbine_w_an", "y":90 },
        "activated=true,facing=south": { "model": "futurepack:block/gasturbine_w_an", "y":180 },
        "activated=true,facing=west": { "model": "futurepack:block/gasturbine_w_an", "y":270 },
		"activated=false,facing=north": { "model": "futurepack:block/gasturbine_w_aus", "y":0 },
        "activated=false,facing=east": { "model": "futurepack:block/gasturbine_w_aus", "y":90 },
        "activated=false,facing=south": { "model": "futurepack:block/gasturbine_w_aus", "y":180 },
        "activated=false,facing=west": { "model": "futurepack:block/gasturbine_w_aus", "y":270 }
    }
}
