{
  "variants": {
    "facing=north": {
      "model": "futurepack:block/ironladder_model"
    },
    "facing=east": {
      "model": "futurepack:block/ironladder_model",
      "y": 90
    },
    "facing=south": {
      "model": "futurepack:block/ironladder_model",
      "y": 180
    },
    "facing=west": {
      "model": "futurepack:block/ironladder_model",
      "y": 270
    }
  }
}