{
  "variants": {
    "": [
      {
        "model": "futurepack:block/meteor_rock_model_0"
      },
      {
        "model": "futurepack:block/meteor_rock_model_1"
      },
      {
        "model": "futurepack:block/meteor_rock_model_2"
      },
      {
        "model": "futurepack:block/meteor_rock_model_3"
      },
      {
        "model": "futurepack:block/meteor_rock_model_4"
      },
      {
        "model": "futurepack:block/meteor_rock_model_5"
      }
    ]
  }
}