{
    "variants":
	{
        "facing=north,on=false":  { "model": "futurepack:block/scanner_block_g_off", "y":0 },
        "facing=east,on=false":  { "model": "futurepack:block/scanner_block_g_off", "y":90 },
        "facing=south,on=false":  { "model": "futurepack:block/scanner_block_g_off", "y":180 },
        "facing=west,on=false":  { "model": "futurepack:block/scanner_block_g_off", "y":270 },

        "facing=north,on=true":  { "model": "futurepack:block/scanner_block_g_on", "y":0 },
        "facing=east,on=true":  { "model": "futurepack:block/scanner_block_g_on", "y":90 },
        "facing=south,on=true":  { "model": "futurepack:block/scanner_block_g_on", "y":180 },
        "facing=west,on=true":  { "model": "futurepack:block/scanner_block_g_on", "y":270 }
    }
}
