{
    "parent": "block/half_slab",
    "textures": {
        "bottom": "futurepack:blocks/luftung_0",
        "top": "futurepack:blocks/luftung_0",
        "side": "futurepack:blocks/color_iron_0"
    }
}
