{
    "parent": "block/upper_slab",
    "textures": {
        "bottom": "futurepack:blocks/color_iron_11",
        "top": "futurepack:blocks/color_iron_11",
        "side": "futurepack:blocks/color_iron_11"
    }
}
