{
    "parent": "block/inner_stairs",
    "textures": {
        "bottom": "futurepack:blocks/gitter_13",
        "top": "futurepack:blocks/gitter_13",
        "side": "futurepack:blocks/gitter_13"
    }
}
