{
    "parent": "block/half_slab",
    "textures": {
        "bottom": "futurepack:blocks/luftung_15",
        "top": "futurepack:blocks/luftung_15",
        "side": "futurepack:blocks/luftung_15"
    }
}
