{
    "textures": {
        "all": "futurepack:blocks/invisible",
        "particle": "futurepack:blocks/invisible"
    },
	"elements":[
	{   "from": [8, 8, 8 ],   "to": [ 8, 8, 8 ],
		"faces": {
			"down":  { "texture": "#all"},
			"up":    { "texture": "#all"},
			"north": { "texture": "#all"},
			"south": { "texture": "#all"},
			"west":  { "texture": "#all"},
			"east":  { "texture": "#all"}  
		}
	}


	]

}
