{
    "parent": "futurepack:block/mushroom",
    "textures": {
        "up": "futurepack:blocks/pilz_front",
		"north": "futurepack:blocks/pilz_front",
		"west": "futurepack:blocks/pilz_front"
    }
}
