{
	"_version": 1.13,
    "pools": 
    [
		{
            "name":"common_chip",
            "rolls": 1,
            "entries": 
            [
		        {
                    "type": "item",
                    "name": "futurepack:toasted_chip",
                    "weight":30,
					"functions":
					[
                        {
                            "function": "futurepack:fp_setup_chip",
							"toasted": true,
							"chipid": ["futurepack:chip_logic"],
							"power": {
                                "min":2,
                                "max":4
                            }
                        }
                    ]
                },
                {
                    "type":"empty",
                    "weight":70
                }
			]
		},
		{
            "name":"common_chip",
            "rolls": 1,
            "entries": 
            [
		        {
                    "type": "item",
                    "name": "futurepack:toasted_chip",
                    "weight":30,
					"functions":
					[
                        {
                            "function": "futurepack:fp_setup_chip",
							"toasted": true,
							"chipid": ["futurepack:chip_industrie"],
							"power": {
                                "min":2,
                                "max":4
                            }
                        }
                    ]
                },
                {
                    "type":"empty",
                    "weight":70
                }
			]
		},
		{
            "name":"common_core",
            "rolls": 1,
            "entries": 
            [
		        {
                    "type": "item",
                    "name": "futurepack:toasted_core",
                    "weight":45,
					"functions":
					[
                        {
                            "function": "futurepack:fp_setup_core",
							"toasted": true,
							"coreid": ["futurepack:core_a1", "futurepack:core_p2"],
							"core": {
                                "min":2,
                                "max":4
                            }
                        }
                    ]
                },
                {
                    "type":"empty",
                    "weight":55
                }
			]
		},
		{
            "name":"common_ram",
            "rolls": 1,
            "entries": 
            [
		        {
                    "type": "item",
                    "name": "futurepack:toasted_ram",
                    "weight":45,
					"functions":
					[
                        {
                            "function": "futurepack:fp_setup_ram",
							"toasted": true,
							"ramid": ["futurepack:ram_a", "futurepack:ram_p"],
							"ram": {
                                "min":2,
                                "max":4
                            }
                        }
                    ]
                },
                {
                    "type":"empty",
                    "weight":55
                }
			]
		}
    ]
}