{
    "pools": 
    [
		{
            "name":"ingots",
            "rolls": 
            {
                "min": 1,
                "max": 3
            },
            "entries": 
            [
                {
                    "type": "item",
                    "name": "futurepack:block_crystal_neon",
                    "weight": 40,
                    "functions": 
                    [
                        {
                            "function": "set_count",
                            "count": 
                            {
                                "min": 1,
                                "max": 2
                            }
                        }
                    ]
                },
				{
                    "type": "item",
                    "name": "futurepack:crystal_neon",
                    "weight": 40,
                    "functions": 
                    [
                        {
                            "function": "set_count",
                            "count": 
                            {
                                "min": 1,
                                "max": 3
                            }
                        }
                    ]
                },
				{
                    "type": "item",
                    "name": "futurepack:sand_neon",
                    "weight": 19,
                    "functions": 
                    [
                        {
                            "function": "set_count",
                            "count": 
                            {
                                "min": 1,
                                "max": 3
                            }
                        }
                    ]
                },
				{
                    "type": "item",
                    "name": "futurepack:sword_neon",
                    "weight": 1
                }
            ]
        },
		{
            "name":"ingots",
            "rolls": 
            {
                "min": 1,
                "max": 3
            },
            "entries": 
            [
                {
                    "type": "item",
                    "name": "futurepack:block_crystal_alutin",
                    "weight": 40,
                    "functions": 
                    [
                        {
                            "function": "set_count",
                            "count": 
                            {
                                "min": 1,
                                "max": 2
                            }
                        }
                    ]
                },
				{
                    "type": "item",
                    "name": "futurepack:crystal_alutin",
                    "weight": 40,
                    "functions": 
                    [
                        {
                            "function": "set_count",
                            "count": 
                            {
                                "min": 1,
                                "max": 3
                            }
                        }
                    ]
                },
				{
                    "type": "item",
                    "name": "futurepack:sand_alutin",
                    "weight": 20,
                    "functions": 
                    [
                        {
                            "function": "set_count",
                            "count": 
                            {
                                "min": 1,
                                "max": 3
                            }
                        }
                    ]
                }
            ]
        }
    ]
}