{
	"_version": 1.13,
    "pools": 
    [
        {
            "name":"green_lenses",
            "rolls": 3,
            "entries": 
            [
                 {
                    "type": "item",
                    "name": "futurepack:lense_green",
                    "weight": 100
                }    
            ]
        }
    ]
}