{
  "type": "futurepack:research_shaped",
  "group": "futurepack",
  "pattern": [
    "KZK",
    "NZN",
    "LFL"
  ],
  "key": {
    "K": {
      "item": "futurepack:coil_copper"
    },
    "N": {
      "item": "futurepack:coil_neon"
    },
    "Z": {
      "item": "futurepack:metal_fence"
    },
    "L": {
      "item": "futurepack:chip_logic"
    },
    "F": {
      "item": "futurepack:color_iron_white"
    }
  },
  "result": {
    "item": "futurepack:antenna_white"
  }
}