{
  "type": "futurepack:research_shaped",
  "group": "futurepack",
  "pattern": [
    "AWA",
    "RPR",
    "ADA"
  ],
  "key": {
    "A": {
      "tag": "forge:ingots/aluminum"
    },
    "D": {
      "item": "minecraft:dispenser"
    },
    "P": {
      "item": "minecraft:piston"
    },
    "R": {
      "tag": "forge:dusts/redstone"
    },
    "W": [
      {
        "item": "futurepack:wardrobe_white_normal_1"
      },
      {
        "item": "futurepack:wardrobe_white_normal_2"
      },
      {
        "item": "futurepack:wardrobe_white_large_1"
      },
      {
        "item": "futurepack:wardrobe_white_large_2"
      },
      {
        "item": "futurepack:wardrobe_light_gray_normal_1"
      },
      {
        "item": "futurepack:wardrobe_light_gray_normal_2"
      },
      {
        "item": "futurepack:wardrobe_light_gray_large_1"
      },
      {
        "item": "futurepack:wardrobe_light_gray_large_2"
      },
      {
        "item": "futurepack:wardrobe_black_normal_1"
      },
      {
        "item": "futurepack:wardrobe_black_normal_2"
      },
      {
        "item": "futurepack:wardrobe_black_large_1"
      },
      {
        "item": "futurepack:wardrobe_black_large_2"
      }
    ]
  },
  "result": {
    "item": "futurepack:block_placer"
  }
}