{
  "type": "futurepack:research_shaped",
  "group": "futurepack",
  "pattern": [
    " C ",
    "SWS",
    " M "
  ],
  "key": {
    "M": {
      "tag": "forge:mushrooms"
    },
    "C": {
      "item": "minecraft:spider_eye"
    },
    "W": {
      "item": "minecraft:water_bucket"
    },
    "S": {
      "item": "minecraft:sugar"
    }
  },
  "result": {
    "item": "futurepack:chemicals_b",
    "count": 32
  }
}