{
  "type": "futurepack:research_shaped",
  "group": "futurepack",
  "pattern": [
    "GMG",
    "DID",
    "GMG"
  ],
  "key": {
    "M": {
      "tag": "forge:ingots/magnetite"
    },
    "G": {
      "item": "futurepack:color_glass_light_gray"
    },
    "D": {
      "tag": "forge:dusts/glowstone"
    },
    "I": {
      "tag": "forge:ingots/glowtite"
    }
  },
  "result": {
    "item": "futurepack:color_plasma_lamp_light_gray",
    "count": 4
  }
}