{
  "type": "futurepack:research_shaped",
  "group": "futurepack",
  "pattern": [
    "PNP",
    "RSR",
    "PNP"
  ],
  "key": {
    "R": {
      "tag": "forge:dusts/redstone"
    },
    "P": {
      "item": "futurepack:color_glass_blue"
    },
    "N": {
      "tag": "forge:dusts/neon"
    },
    "S": {
      "item": "futurepack:coil_neon"
    }
  },
  "result": {
    "item": "futurepack:color_neon_lamp_blue",
    "count": 4
  }
}