{
  "type": "minecraft:crafting_shaped",
  "group": "wooden_door",
  "pattern": [
    "##",
    "##",
    "##"
  ],
  "key": {
    "#": {
      "item": "futurepack:planks_tyros"
    }
  },
  "result": {
    "item": "futurepack:door_tyros",
    "count": 3
  }
}