{
  "type": "minecraft:crafting_shapeless",
  "group": "futurepack",
  "ingredients": [
    {
      "item": "futurepack:mendel_flower"
    }
  ],
  "result": {
    "item": "minecraft:pink_dye",
    "count": 2
  }
}