{
  "type": "futurepack:research_shaped",
  "group": "futurepack",
  "pattern": [
    "S S",
    "SSS",
    "S S"
  ],
  "key": {
    "S": {
      "tag": "forge:rods/iron"
    }
  },
  "result": {
    "item": "futurepack:ironladder",
    "count": 3
  }
}