{
  "type": "futurepack:maschin_shaped",
  "group": "futurepack",
  "pattern": [
    "ARR",
    " S ",
    "BFM"
  ],
  "key": {
    "R": {
      "item": "futurepack:pipe_redstone"
    },
    "S": {
      "tag": "forge:rods/iron"
    },
    "B": {
      "item": "futurepack:battery_neon"
    },
    "M": {
      "item": "futurepack:maschineboard"
    },
    "A": {
      "tag": "forge:ingots/aluminum"
    },
    "F": {
      "item": "futurepack:color_iron_slab_white"
    }
  },
  "result": {
    "item": "futurepack:rocket_launcher"
  }
}