{
  "type": "futurepack:research_shaped",
  "group": "futurepack",
  "pattern": [
    "ITI",
    "G G",
    "ITI"
  ],
  "key": {
    "I": {
      "tag": "forge:ingots/iron"
    },
    "T": {
      "item": "futurepack:fluid_tube"
    },
    "G": {
      "item": "futurepack:color_gitter_pane_white"
    }
  },
  "result": {
    "count": 1,
    "item": "futurepack:fluid_intake"
  }
}