{
  "type": "futurepack:research_shaped",
  "group": "futurepack",
  "pattern": [
    " CS",
    "CAC",
    "BCI"
  ],
  "key": {
    "C": {
      "tag": "forge:ingots/aluminum"
    },
    "S": {
      "tag": "forge:slimeballs"
    },
    "B": {
      "item": "futurepack:battery_n"
    },
    "A": {
      "item": "minecraft:fishing_rod"
    },
    "I": {
      "tag": "forge:rods/iron"
    }
  },
  "result": {
    "item": "futurepack:grappling_hook"
  }
}