{
  "type": "futurepack:research_shaped",
  "group": "futurepack",
  "pattern": [
    "EFE",
    "MAM",
    "PFP"
  ],
  "key": {
    "E": [{
      "item": "futurepack:blueshroom"
    },
    {
      "item": "futurepack:bubbleshroom"
    },
    {
      "item": "futurepack:peakhead"
    }],
    "F": {
      "item": "futurepack:glowmelo"
    },
    "M": {
      "item": "futurepack:grillhufsteak"
    },
    "A": {
      "item": "futurepack:astrofood_empty"
    },
    "P": {
      "item": "futurepack:topinambur_potato"
    }
  },
  "result": {
    "item": "futurepack:astrofood4"
  }
}