{
  "type": "futurepack:research_shaped",
  "group": "futurepack",
  "pattern": [
    "EHE",
    "NAN",
    "ERE"
  ],
  "key": {
    "E": {
      "item": "futurepack:mendel_berry"
    },
    "H": {
      "item": "minecraft:rabbit_stew"
    },
    "R": {
      "item": "minecraft:beetroot_soup"
    },
    "A": {
      "item": "futurepack:astrofood_empty"
    },
    "N": {
      "tag": "forge:crops/netherwart"
    }
  },
  "result": {
    "item": "futurepack:astrofood2"
  }
}