{
  "type": "futurepack:research_shaped",
  "group": "futurepack",
  "pattern": [
    "CIC",
    "P P"
  ],
  "key": {
    "P": {
      "item": "futurepack:gravity_pulser"
    },
    "C": {
      "item": "futurepack:composite_metal"
    },
    "I": {
      "item": "futurepack:chip_industrie"
    }
  },
  "result": {
    "item": "futurepack:modul_gravity"
  }
}