{
  "type": "futurepack:maschin_shaped",
  "group": "futurepack",
  "pattern": [
    "CPC",
    "WFW",
    "OMO"
  ],
  "key": {
    "C": {
      "tag": "forge:workbenchs"
    },
    "P": {
      "item": "minecraft:piston"
    },
    "W": {
      "tag": "forge:ingots/neon"
    },
    "F": {
      "item": "futurepack:color_iron_black"
    },
    "O": {
      "item": "futurepack:composite_metal"
    },
    "M": {
      "item": "futurepack:maschineboard"
    }
  },
  "result": {
    "item": "futurepack:opti_bench_black"
  }
}