{
  "type": "futurepack:maschin_shaped",
  "group": "futurepack",
  "pattern": [
    "SSS",
    "CFC",
    "IMI"
  ],
  "key": {
    "S": {
      "item": "futurepack:ingot_silicon"
    },
    "C": {
      "tag": "forge:ingots/neon"
    },
    "I": {
      "item": "futurepack:composite_metal"
    },
    "M": {
      "item": "futurepack:maschineboard"
    },
    "F": {
      "item": "futurepack:color_iron_black"
    }
  },
  "result": {
    "item": "futurepack:solar_panel_black"
  }
}