{
  "type": "futurepack:research_shaped",
  "group": "futurepack",
  "pattern": [
    "BGB",
    "BRB",
    "BGB"
  ],
  "key": {
    "B": {
      "tag": "forge:ingots/bitripentium"
    },
    "G": {
      "tag": "forge:gunpowder"
    },
    "R": {
      "item": "minecraft:blaze_rod"
    }
  },
  "result": {
    "item": "futurepack:fuel_rods",
    "count": 8
  }
}