{
  "type": "futurepack:research_shaped",
  "group": "futurepack",
  "pattern": [
    "AN ",
    "GDG",
    "AN "
  ],
  "key": {
    "N": {
      "item": "futurepack:coil_neon"
    },
    "A": {
      "tag": "forge:ingots/aluminum"
    },
    "G": {
      "tag": "forge:glass_panes"
    },
    "D": {
      "tag": "forge:gems/diamond"
    }
  },
  "result": {
    "item": "futurepack:laserdiode"
  }
}