{
  "type": "futurepack:research_shaped",
  "group": "futurepack",
  "pattern": [
    "ABA",
    "ADA",
    "A A"
  ],
  "key": {
    "A": {
      "tag": "forge:ingots/aluminum"
    },
    "B": {
      "item": "futurepack:color_iron_black"
    },
    "D": {
      "tag": "forge:dyes/light_gray"
    }
  },
  "result": {
    "item": "futurepack:wardrobe_black_large_1"
  }
}