{
    "variants": {
        "facing=down,type=support": {"model": "futurepack:error"},
		"facing=up,type=support": {"model": "futurepack:error"},
        "facing=north,type=support": {"model": "futurepack:error"},
		"facing=east,type=support": {"model": "futurepack:error"},
		"facing=south,type=support": {"model": "futurepack:error"},
		"facing=west,type=support": {"model": "futurepack:error"},
        "facing=down,type=neon": {"model": "futurepack:error"},
		"facing=up,type=neon": {"model": "futurepack:error"},
        "facing=north,type=neon": {"model": "futurepack:error"},
		"facing=east,type=neon": {"model": "futurepack:error"},
		"facing=south,type=neon": {"model": "futurepack:error"},
		"facing=west,type=neon": {"model": "futurepack:error"},
		"facing=east,type=neon": {"model": "futurepack:error"}			
    }
}
