{
    "variants": {
        "metadata=0": {"model": "futurepack:pipe_particle"},
		"metadata=1": {"model": "futurepack:pipe_particle"},
        "metadata=2": {"model": "futurepack:pipe_particle"},
		"metadata=3": {"model": "futurepack:pipe_particle"},
		"metadata=4": {"model": "futurepack:pipe_particle"},
		"metadata=5": {"model": "futurepack:pipe_particle"},
		"metadata=6": {"model": "futurepack:pipe_particle"}				
    }
}
