{
	"credit": "Made with Blockbench",
	"texture_size": [512, 256],
	"textures": {
		"1": "grenade_launcher_glow",
		"2": "grenade_launcher_transparent",
		"particle": "grenade_launcher_transparent"
	},
	"elements": [
		{
			"from": [7, 7.06472, -0.88822],
			"to": [9, 9.06472, 6.7161],
			"rotation": {"angle": 0, "axis": "y", "origin": [8, 7.025, 5.99417]},
			"faces": {
				"north": {"uv": [12.625, 0.9375, 12.875, 1.4375], "texture": "#2"},
				"east": {"uv": [8.9375, 3, 8, 3.5], "texture": "#2"},
				"south": {"uv": [12.625, 0.5, 12.875, 1], "texture": "#2"},
				"west": {"uv": [8, 3, 8.9375, 3.5], "texture": "#2"},
				"up": {"uv": [8, 3.5, 8.9375, 3], "rotation": 90, "texture": "#2"},
				"down": {"uv": [8.9375, 3.5, 8, 3], "rotation": 90, "texture": "#2"}
			}
		},
		{
			"from": [6.75, 6.81472, -1.69254],
			"to": [9.25, 9.31472, -0.88822],
			"rotation": {"angle": 0, "axis": "y", "origin": [8, 7.025, 5.99417]},
			"faces": {
				"north": {"uv": [0, 0, 0.625, 1.25], "texture": "#2"},
				"east": {"uv": [2.75, 8.5, 2.9375, 9.75], "texture": "#2"},
				"south": {"uv": [0, 1.5, 0.625, 2.75], "texture": "#2"},
				"west": {"uv": [2.9375, 8.5, 2.75, 9.75], "texture": "#2"},
				"up": {"uv": [4.875, 3.375, 4.25, 3], "texture": "#2"},
				"down": {"uv": [4.875, 6, 4.25, 6.375], "texture": "#2"}
			}
		},
		{
			"from": [7.3, 6.59778, 6.71106],
			"to": [8.7, 8.89778, 10.31106],
			"rotation": {"angle": 0, "axis": "y", "origin": [8, 7.025, 5.99417]},
			"faces": {
				"north": {"uv": [10, 9.25, 10.1875, 9.8125], "texture": "#2"},
				"east": {"uv": [11.8125, 6.25, 11.375, 6.8125], "texture": "#2"},
				"south": {"uv": [10.5, 9.25, 10.6875, 9.8125], "texture": "#2"},
				"west": {"uv": [11.375, 6.25, 11.8125, 6.8125], "texture": "#2"},
				"up": {"uv": [9.9375, 9.875, 9.75, 9], "texture": "#2"},
				"down": {"uv": [9.9375, 9, 9.75, 9.875], "texture": "#2"}
			}
		},
		{
			"from": [7.5, 6.81472, 0.3661],
			"to": [8.5, 7.16472, 7.22041],
			"rotation": {"angle": 0, "axis": "y", "origin": [8, 7.025, 5.99417]},
			"faces": {
				"north": {"uv": [13.25, 2.75, 13.40625, 2.8125], "rotation": 180, "texture": "#2"},
				"east": {"uv": [12.875, 8.5, 13.71875, 8.5625], "rotation": 180, "texture": "#2"},
				"south": {"uv": [13.25, 2.75, 13.40625, 2.8125], "rotation": 180, "texture": "#2"},
				"west": {"uv": [13.71875, 8.5, 12.875, 8.5625], "rotation": 180, "texture": "#2"},
				"up": {"uv": [10.625, 8.4375, 10.5, 6.75], "rotation": 180, "texture": "#2"},
				"down": {"uv": [10.625, 8.4375, 10.5, 6.75], "rotation": 180, "texture": "#2"}
			}
		},
		{
			"from": [6.9, 8.89778, 4.38174],
			"to": [9.1, 9.44778, 10.31106],
			"rotation": {"angle": 0, "axis": "y", "origin": [8, 7.025, 5.99417]},
			"faces": {
				"north": {"uv": [13, 4, 13.28125, 4.125], "texture": "#2"},
				"east": {"uv": [13.375, 4.75, 12.625, 4.875], "texture": "#2"},
				"south": {"uv": [13, 4, 13.28125, 4.125], "texture": "#2"},
				"west": {"uv": [12.625, 4.75, 13.375, 4.875], "texture": "#2"},
				"up": {"uv": [10.65625, 1.5, 10.375, 0], "texture": "#2"},
				"down": {"uv": [10.65625, 0, 10.375, 1.5], "texture": "#2"}
			}
		},
		{
			"from": [6.5, 7.08972, 2.61178],
			"to": [9.5, 9.48972, 5.9911],
			"rotation": {"angle": 0, "axis": "y", "origin": [8, 7.025, 5.99417]},
			"faces": {
				"north": {"uv": [11.5, 0.75, 11.875, 1.375], "texture": "#2"},
				"east": {"uv": [11.8125, 3.5, 11.375, 4.125], "texture": "#2"},
				"south": {"uv": [11.5, 0.75, 11.875, 1.375], "texture": "#2"},
				"west": {"uv": [11.375, 3.5, 11.8125, 4.125], "texture": "#2"},
				"up": {"uv": [9.125, 7.375, 8.75, 6.5], "texture": "#2"},
				"down": {"uv": [9.5, 6.5, 9.125, 7.375], "texture": "#2"}
			}
		},
		{
			"from": [7.5, 9.43972, 3.0661],
			"to": [8.5, 9.78972, 9.92041],
			"rotation": {"angle": 0, "axis": "y", "origin": [8, 7.025, 5.99417]},
			"faces": {
				"north": {"uv": [13.25, 2.75, 13.40625, 2.8125], "texture": "#2"},
				"east": {"uv": [13.71875, 8.5, 12.875, 8.5625], "texture": "#2"},
				"south": {"uv": [13.25, 2.75, 13.40625, 2.8125], "texture": "#2"},
				"west": {"uv": [12.875, 8.5, 13.71875, 8.5625], "texture": "#2"},
				"up": {"uv": [10.625, 8.4375, 10.5, 6.75], "texture": "#2"},
				"down": {"uv": [10.625, 8.4375, 10.5, 6.75], "texture": "#2"}
			}
		},
		{
			"name": "trigger",
			"from": [7.8, 6.19778, 8.33606],
			"to": [8.2, 6.59778, 8.66106],
			"rotation": {"angle": 0, "axis": "y", "origin": [8, 7.025, 5.99417]},
			"faces": {
				"north": {"uv": [13.375, 10.75, 13.40625, 10.875], "texture": "#2"},
				"east": {"uv": [13.40625, 10.75, 13.375, 10.875], "texture": "#2"},
				"south": {"uv": [13.375, 10.75, 13.40625, 10.875], "texture": "#2"},
				"west": {"uv": [13.375, 10.75, 13.40625, 10.875], "texture": "#2"},
				"up": {"uv": [13.375, 10.75, 13.40625, 10.875], "texture": "#2"},
				"down": {"uv": [13.375, 10.75, 13.40625, 10.875], "texture": "#2"}
			}
		},
		{
			"from": [7.8, 5.87278, 7.28606],
			"to": [8.2, 6.59778, 7.61106],
			"rotation": {"angle": 0, "axis": "y", "origin": [8, 7.025, 5.99417]},
			"faces": {
				"north": {"uv": [13.375, 2.5, 13.40625, 2.6875], "texture": "#2"},
				"east": {"uv": [13.40625, 2.5, 13.375, 2.6875], "texture": "#2"},
				"south": {"uv": [13.375, 2.5, 13.40625, 2.6875], "texture": "#2"},
				"west": {"uv": [13.375, 2.5, 13.40625, 2.6875], "texture": "#2"},
				"up": {"uv": [13.375, 2.5, 13.40625, 2.6875], "texture": "#2"},
				"down": {"uv": [13.375, 2.5, 13.40625, 2.6875], "texture": "#2"}
			}
		},
		{
			"from": [7.8, 5.59778, 7.28606],
			"to": [8.2, 5.87278, 9.36106],
			"rotation": {"angle": 0, "axis": "y", "origin": [8, 7.025, 5.99417]},
			"faces": {
				"north": {"uv": [12.125, 10.25, 12.375, 10.3125], "texture": "#2"},
				"east": {"uv": [12.375, 10.25, 12.125, 10.3125], "texture": "#2"},
				"south": {"uv": [12.125, 10.25, 12.375, 10.3125], "texture": "#2"},
				"west": {"uv": [12.125, 10.25, 12.375, 10.3125], "texture": "#2"},
				"up": {"uv": [12.125, 10.25, 12.375, 10.3125], "texture": "#2"},
				"down": {"uv": [12.125, 10.25, 12.375, 10.3125], "texture": "#2"}
			}
		},
		{
			"from": [7.6, 3.92278, 10.03606],
			"to": [8.4, 4.24778, 11.03606],
			"rotation": {"angle": 0, "axis": "y", "origin": [8, 7.025, 5.99417]},
			"faces": {
				"north": {"uv": [8.25, 10.75, 8.375, 10.8125], "texture": "#2"},
				"east": {"uv": [8.375, 10.75, 8.25, 10.8125], "texture": "#2"},
				"south": {"uv": [8.25, 10.75, 8.375, 10.8125], "texture": "#2"},
				"west": {"uv": [8.25, 10.75, 8.375, 10.8125], "texture": "#2"},
				"up": {"uv": [8.25, 10.75, 8.375, 10.8125], "texture": "#2"},
				"down": {"uv": [8.25, 10.75, 8.375, 10.8125], "texture": "#2"}
			}
		},
		{
			"from": [7.6, 4.24778, 10.03606],
			"to": [8.4, 4.57278, 11.33606],
			"rotation": {"angle": 0, "axis": "y", "origin": [8, 7.025, 5.99417]},
			"faces": {
				"north": {"uv": [13.375, 3, 13.46875, 3.0625], "texture": "#2"},
				"east": {"uv": [11.65625, 10.5, 11.5, 10.5625], "texture": "#2"},
				"south": {"uv": [9.625, 10.75, 9.71875, 10.8125], "texture": "#2"},
				"west": {"uv": [11.5, 10.5, 11.65625, 10.5625], "texture": "#2"},
				"up": {"uv": [8.59375, 10.5625, 8.5, 10.25], "texture": "#2"},
				"down": {"uv": [13.21875, 1.5, 13.125, 1.8125], "texture": "#2"}
			}
		},
		{
			"from": [7.6, 4.57278, 10.03606],
			"to": [8.4, 4.89778, 11.63606],
			"rotation": {"angle": 0, "axis": "y", "origin": [8, 7.025, 5.99417]},
			"faces": {
				"north": {"uv": [13.375, 3.25, 13.46875, 3.3125], "texture": "#2"},
				"east": {"uv": [13.4375, 2.25, 13.25, 2.3125], "texture": "#2"},
				"south": {"uv": [9.75, 10.75, 9.84375, 10.8125], "texture": "#2"},
				"west": {"uv": [13.25, 2.25, 13.4375, 2.3125], "texture": "#2"},
				"up": {"uv": [10.34375, 10.375, 10.25, 10], "texture": "#2"},
				"down": {"uv": [10.46875, 10, 10.375, 10.375], "texture": "#2"}
			}
		},
		{
			"from": [7.6, 4.89778, 9.66106],
			"to": [8.4, 5.22278, 11.63606],
			"rotation": {"angle": 0, "axis": "y", "origin": [8, 7.025, 5.99417]},
			"faces": {
				"north": {"uv": [13.375, 3.5, 13.46875, 3.5625], "texture": "#2"},
				"east": {"uv": [13.375, 8.75, 13.125, 8.8125], "texture": "#2"},
				"south": {"uv": [9.875, 10.75, 9.96875, 10.8125], "texture": "#2"},
				"west": {"uv": [13.125, 8.75, 13.375, 8.8125], "texture": "#2"},
				"up": {"uv": [8.59375, 5, 8.5, 4.5], "texture": "#2"},
				"down": {"uv": [10.71875, 4.75, 10.625, 5.25], "texture": "#2"}
			}
		},
		{
			"from": [7.6, 5.22278, 9.36106],
			"to": [8.4, 5.54778, 11.33606],
			"rotation": {"angle": 0, "axis": "y", "origin": [8, 7.025, 5.99417]},
			"faces": {
				"north": {"uv": [13.375, 3.75, 13.46875, 3.8125], "texture": "#2"},
				"east": {"uv": [12.875, 10.25, 12.625, 10.3125], "texture": "#2"},
				"south": {"uv": [10, 10.75, 10.09375, 10.8125], "texture": "#2"},
				"west": {"uv": [12.625, 10.25, 12.875, 10.3125], "texture": "#2"},
				"up": {"uv": [11.46875, 4.75, 11.375, 4.25], "texture": "#2"},
				"down": {"uv": [10.59375, 8.5, 10.5, 9], "texture": "#2"}
			}
		},
		{
			"from": [7.6, 5.54778, 9.36106],
			"to": [8.4, 5.87278, 10.98606],
			"rotation": {"angle": 0, "axis": "y", "origin": [8, 7.025, 5.99417]},
			"faces": {
				"north": {"uv": [13.375, 4, 13.46875, 4.0625], "texture": "#2"},
				"east": {"uv": [8.21875, 10.5, 8, 10.5625], "texture": "#2"},
				"south": {"uv": [10.125, 10.75, 10.21875, 10.8125], "texture": "#2"},
				"west": {"uv": [8, 10.5, 8.21875, 10.5625], "texture": "#2"},
				"up": {"uv": [13.09375, 2.4375, 13, 2], "texture": "#2"},
				"down": {"uv": [13.09375, 2.5, 13, 2.9375], "texture": "#2"}
			}
		},
		{
			"from": [7.6, 5.87278, 9.01106],
			"to": [8.4, 6.19778, 10.68606],
			"rotation": {"angle": 0, "axis": "y", "origin": [8, 7.025, 5.99417]},
			"faces": {
				"north": {"uv": [10.25, 10.75, 10.34375, 10.8125], "texture": "#2"},
				"east": {"uv": [13.46875, 0.5, 13.25, 0.5625], "texture": "#2"},
				"south": {"uv": [13.375, 4.5, 13.46875, 4.5625], "texture": "#2"},
				"west": {"uv": [13.25, 0.5, 13.46875, 0.5625], "texture": "#2"},
				"up": {"uv": [9.84375, 10.4375, 9.75, 10], "texture": "#2"},
				"down": {"uv": [13.09375, 3.5, 13, 3.9375], "texture": "#2"}
			}
		},
		{
			"from": [7.6, 6.19778, 9.01106],
			"to": [8.4, 6.59778, 10.31106],
			"rotation": {"angle": 0, "axis": "y", "origin": [8, 7.025, 5.99417]},
			"faces": {
				"north": {"uv": [13.25, 2.5, 13.34375, 2.625], "texture": "#2"},
				"east": {"uv": [13.28125, 5.5, 13.125, 5.625], "texture": "#2"},
				"south": {"uv": [9.375, 10.5, 9.46875, 10.625], "texture": "#2"},
				"west": {"uv": [13.125, 5.5, 13.28125, 5.625], "texture": "#2"},
				"up": {"uv": [8.96875, 10.5625, 8.875, 10.25], "texture": "#2"},
				"down": {"uv": [9.09375, 10.25, 9, 10.5625], "texture": "#2"}
			}
		},
		{
			"from": [6.8, 6.23972, 2.63678],
			"to": [9.2, 7.83972, 6.9411],
			"rotation": {"angle": 0, "axis": "y", "origin": [8, 7.025, 5.99417]},
			"faces": {
				"north": {"uv": [12.625, 2, 12.9375, 2.375], "texture": "#2"},
				"east": {"uv": [12.03125, 8, 11.5, 8.375], "texture": "#2"},
				"south": {"uv": [12.625, 2.5, 12.9375, 2.875], "texture": "#2"},
				"west": {"uv": [11.5, 8, 12.03125, 8.375], "texture": "#2"},
				"up": {"uv": [8.6875, 6.5, 8.375, 7.5625], "texture": "#2"},
				"down": {"uv": [9.21875, 11.0625, 8.90625, 12.125], "texture": "#2"}
			}
		},
		{
			"from": [7.1, 5.73972, 3.53678],
			"to": [8.9, 6.23972, 6.9411],
			"rotation": {"angle": 0, "axis": "y", "origin": [8, 7.025, 5.99417]},
			"faces": {
				"north": {"uv": [9.375, 10.25, 9.59375, 10.375], "texture": "#2"},
				"east": {"uv": [13.3125, 8, 12.875, 8.125], "texture": "#2"},
				"south": {"uv": [13.125, 3, 13.34375, 3.125], "texture": "#2"},
				"west": {"uv": [12.875, 8, 13.3125, 8.125], "texture": "#2"},
				"up": {"uv": [8.21875, 9.375, 8, 8.5], "texture": "#2"},
				"down": {"uv": [9.21875, 8.5, 9, 9.375], "texture": "#2"}
			}
		},
		{
			"from": [6.83008, 7.49741, 10.98916],
			"to": [9.17004, 8.46671, 12.94208],
			"rotation": {"angle": 0, "axis": "y", "origin": [8, 7.025, 5.99417]},
			"faces": {
				"north": {"uv": [3, 1.5, 3.5625, 2], "texture": "#2"},
				"east": {"uv": [4.25, 0.5, 4.75, 1], "texture": "#2"},
				"south": {"uv": [1, 7, 1.5625, 7.5], "texture": "#2"},
				"west": {"uv": [0.5, 8.5, 1, 9], "texture": "#2"},
				"up": {"uv": [1.8125, 4.5, 1.25, 3.5], "texture": "#2"},
				"down": {"uv": [0.5625, 4, 0, 5], "texture": "#2"}
			}
		},
		{
			"from": [6.15335, 7.21709, 10.98968],
			"to": [8.49331, 8.18639, 12.94082],
			"rotation": {"angle": -45, "axis": "z", "origin": [8, 7.025, 5.99417]},
			"faces": {
				"north": {"uv": [3.5, 2, 4.0625, 2.5], "texture": "#2"},
				"east": {"uv": [4.25, 1, 4.75, 1.5], "texture": "#2"},
				"south": {"uv": [3.5, 2.5, 4.0625, 3], "texture": "#2"},
				"west": {"uv": [4.25, 2, 4.75, 2.5], "texture": "#2"},
				"up": {"uv": [2.5625, 3, 2, 2], "texture": "#2"},
				"down": {"uv": [2.5625, 3, 2, 4], "texture": "#2"}
			}
		},
		{
			"from": [7.50668, 7.2171, 10.99058],
			"to": [9.84664, 8.1864, 12.94173],
			"rotation": {"angle": 45, "axis": "z", "origin": [8, 7.025, 5.99417]},
			"faces": {
				"north": {"uv": [3.5, 3, 4.0625, 3.5], "texture": "#2"},
				"east": {"uv": [1.25, 8.5, 1.75, 9], "texture": "#2"},
				"south": {"uv": [1.75, 7, 2.3125, 7.5], "texture": "#2"},
				"west": {"uv": [4.25, 2.5, 4.75, 3], "texture": "#2"},
				"up": {"uv": [2.5625, 5, 2, 4], "texture": "#2"},
				"down": {"uv": [2.8125, 0, 2.25, 1], "texture": "#2"}
			}
		},
		{
			"from": [7.51534, 6.81201, 10.98726],
			"to": [8.48464, 9.15197, 12.94968],
			"rotation": {"angle": 0, "axis": "y", "origin": [8, 7.025, 5.99417]},
			"faces": {
				"north": {"uv": [3.5, 3.5, 3.75, 4.625], "texture": "#2"},
				"east": {"uv": [0.75, 4.5, 1.25, 5.625], "texture": "#2"},
				"south": {"uv": [2.5, 7, 2.75, 8.125], "texture": "#2"},
				"west": {"uv": [1.25, 4.5, 1.75, 5.625], "texture": "#2"},
				"up": {"uv": [2, 9.5, 1.75, 8.5], "texture": "#2"},
				"down": {"uv": [2.75, 8.5, 2.5, 9.5], "texture": "#2"}
			}
		},
		{
			"from": [6.60608, 7.60941, 10.98916],
			"to": [9.39404, 8.35471, 12.94208],
			"rotation": {"angle": 0, "axis": "y", "origin": [8, 7.025, 5.99417]},
			"faces": {
				"north": {"uv": [1.25, 8, 1.9375, 8.375], "texture": "#2"},
				"east": {"uv": [4.25, 7.5, 4.75, 7.875], "texture": "#2"},
				"south": {"uv": [4, 5, 4.6875, 5.375], "texture": "#2"},
				"west": {"uv": [4.75, 7.5, 4.25, 7.875], "texture": "#2"},
				"up": {"uv": [1.4375, 1, 0.75, 0], "texture": "#2"},
				"down": {"uv": [1.4375, 1, 0.75, 2], "texture": "#2"}
			}
		},
		{
			"from": [5.92935, 7.32909, 10.98968],
			"to": [8.71731, 8.07439, 12.94082],
			"rotation": {"angle": -45, "axis": "z", "origin": [8, 7.025, 5.99417]},
			"faces": {
				"north": {"uv": [2.75, 8, 3.4375, 8.375], "texture": "#2"},
				"east": {"uv": [4.25, 7.5, 4.75, 7.875], "texture": "#2"},
				"south": {"uv": [4, 5.5, 4.6875, 5.875], "texture": "#2"},
				"west": {"uv": [4.75, 7.5, 4.25, 7.875], "texture": "#2"},
				"up": {"uv": [1.4375, 3, 0.75, 2], "texture": "#2"},
				"down": {"uv": [0.6875, 3, 0, 4], "texture": "#2"}
			}
		},
		{
			"from": [7.28268, 7.3291, 10.99058],
			"to": [10.07064, 8.0744, 12.94173],
			"rotation": {"angle": 45, "axis": "z", "origin": [8, 7.025, 5.99417]},
			"faces": {
				"north": {"uv": [3.5, 8, 4.1875, 8.375], "texture": "#2"},
				"east": {"uv": [4.25, 7.5, 4.75, 7.875], "texture": "#2"},
				"south": {"uv": [4.25, 0, 4.9375, 0.375], "texture": "#2"},
				"west": {"uv": [4.75, 7.5, 4.25, 7.875], "texture": "#2"},
				"up": {"uv": [2.1875, 1, 1.5, 0], "texture": "#2"},
				"down": {"uv": [2.1875, 1, 1.5, 2], "texture": "#2"}
			}
		},
		{
			"from": [7.62734, 6.58801, 10.98726],
			"to": [8.37264, 9.37597, 12.94968],
			"rotation": {"angle": 0, "axis": "y", "origin": [8, 7.025, 5.99417]},
			"faces": {
				"north": {"uv": [2, 8, 2.1875, 9.375], "texture": "#2"},
				"east": {"uv": [0.75, 3, 1.25, 4.375], "texture": "#2"},
				"south": {"uv": [2.25, 8, 2.4375, 9.375], "texture": "#2"},
				"west": {"uv": [1.5, 2, 2, 3.375], "texture": "#2"},
				"up": {"uv": [4.75, 7.5, 4.25, 7.875], "rotation": 90, "texture": "#2"},
				"down": {"uv": [4.25, 7.5, 4.75, 7.875], "rotation": 90, "texture": "#2"}
			}
		},
		{
			"from": [6.53433, 7.3749, 12.93009],
			"to": [9.46583, 8.58924, 13.6202],
			"rotation": {"angle": 0, "axis": "y", "origin": [8, 7.025, 5.99417]},
			"faces": {
				"north": {"uv": [0.75, 5, 0, 5.625], "texture": "#2"},
				"east": {"uv": [0.25, 9, 0.4375, 9.625], "texture": "#2"},
				"south": {"uv": [0, 5, 0.75, 5.625], "texture": "#2"},
				"west": {"uv": [0.25, 9, 0.4375, 9.625], "texture": "#2"},
				"up": {"uv": [3.5, 7.375, 2.75, 7], "texture": "#2"},
				"down": {"uv": [4.25, 6, 3.5, 6.375], "texture": "#2"}
			}
		},
		{
			"from": [5.85758, 7.09457, 12.93074],
			"to": [8.78909, 8.30891, 13.61862],
			"rotation": {"angle": -45, "axis": "z", "origin": [8, 7.025, 5.99417]},
			"faces": {
				"north": {"uv": [3.25, 5, 2.5, 5.625], "texture": "#2"},
				"east": {"uv": [1.5, 9, 1.6875, 9.625], "texture": "#2"},
				"south": {"uv": [2.5, 5, 3.25, 5.625], "texture": "#2"},
				"west": {"uv": [1.5, 9, 1.6875, 9.625], "texture": "#2"},
				"up": {"uv": [4.25, 6.875, 3.5, 6.5], "texture": "#2"},
				"down": {"uv": [4.25, 7, 3.5, 7.375], "texture": "#2"}
			}
		},
		{
			"from": [7.2109, 7.09459, 12.93187],
			"to": [10.1424, 8.30893, 13.61975],
			"rotation": {"angle": 45, "axis": "z", "origin": [8, 7.025, 5.99417]},
			"faces": {
				"north": {"uv": [3.5, 3, 2.75, 3.625], "texture": "#2"},
				"east": {"uv": [1.5, 9, 1.6875, 9.625], "texture": "#2"},
				"south": {"uv": [2.75, 3, 3.5, 3.625], "texture": "#2"},
				"west": {"uv": [1.5, 9, 1.6875, 9.625], "texture": "#2"},
				"up": {"uv": [4.5, 1.875, 3.75, 1.5], "texture": "#2"},
				"down": {"uv": [1.75, 7.5, 1, 7.875], "texture": "#2"}
			}
		},
		{
			"from": [7.39281, 6.51623, 12.92771],
			"to": [8.60716, 9.44773, 13.62971],
			"rotation": {"angle": 0, "axis": "y", "origin": [8, 7.025, 5.99417]},
			"faces": {
				"north": {"uv": [3.3125, 0, 3, 1.5], "texture": "#2"},
				"east": {"uv": [0, 7.5, 0.1875, 9], "texture": "#2"},
				"south": {"uv": [3, 0, 3.3125, 1.5], "texture": "#2"},
				"west": {"uv": [0.25, 7.5, 0.4375, 9], "texture": "#2"},
				"up": {"uv": [4.8125, 1.875, 4.5, 1.5], "texture": "#2"},
				"down": {"uv": [4.8125, 1.875, 4.5, 1.5], "texture": "#2"}
			}
		},
		{
			"from": [6.53433, 7.3749, 10.31041],
			"to": [9.46583, 8.58924, 11.00052],
			"rotation": {"angle": 0, "axis": "y", "origin": [8, 7.025, 5.99417]},
			"faces": {
				"north": {"uv": [0.75, 5, 0, 5.625], "texture": "#2"},
				"east": {"uv": [0.25, 9, 0.4375, 9.625], "texture": "#2"},
				"south": {"uv": [0, 5, 0.75, 5.625], "texture": "#2"},
				"west": {"uv": [0.25, 9, 0.4375, 9.625], "texture": "#2"},
				"up": {"uv": [2.5, 7.875, 1.75, 7.5], "texture": "#2"},
				"down": {"uv": [4.5, 3.5, 3.75, 3.875], "texture": "#2"}
			}
		},
		{
			"from": [5.85758, 7.09457, 10.31106],
			"to": [8.78909, 8.30891, 10.99894],
			"rotation": {"angle": -45, "axis": "z", "origin": [8, 7.025, 5.99417]},
			"faces": {
				"north": {"uv": [3.25, 5, 2.5, 5.625], "texture": "#2"},
				"east": {"uv": [1.5, 9, 1.6875, 9.625], "texture": "#2"},
				"south": {"uv": [2.5, 5, 3.25, 5.625], "texture": "#2"},
				"west": {"uv": [1.5, 9, 1.6875, 9.625], "texture": "#2"},
				"up": {"uv": [4.5, 4.375, 3.75, 4], "texture": "#2"},
				"down": {"uv": [4.5, 4.5, 3.75, 4.875], "texture": "#2"}
			}
		},
		{
			"from": [7.2109, 7.09459, 10.31219],
			"to": [10.1424, 8.30893, 11.00007],
			"rotation": {"angle": 45, "axis": "z", "origin": [8, 7.025, 5.99417]},
			"faces": {
				"north": {"uv": [3.5, 3, 2.75, 3.625], "texture": "#2"},
				"east": {"uv": [1.5, 9, 1.6875, 9.625], "texture": "#2"},
				"south": {"uv": [2.75, 3, 3.5, 3.625], "texture": "#2"},
				"west": {"uv": [1.5, 9, 1.6875, 9.625], "texture": "#2"},
				"up": {"uv": [3.5, 7.875, 2.75, 7.5], "texture": "#2"},
				"down": {"uv": [4.25, 7.5, 3.5, 7.875], "texture": "#2"}
			}
		},
		{
			"from": [7.39281, 6.51623, 10.30803],
			"to": [8.60716, 9.44773, 11.01003],
			"rotation": {"angle": 0, "axis": "y", "origin": [8, 7.025, 5.99417]},
			"faces": {
				"north": {"uv": [3.3125, 0, 3, 1.5], "texture": "#2"},
				"east": {"uv": [4, 0, 4.1875, 1.5], "texture": "#2"},
				"south": {"uv": [3, 0, 3.3125, 1.5], "texture": "#2"},
				"west": {"uv": [1, 8, 1.1875, 9.5], "texture": "#2"},
				"up": {"uv": [4.8125, 1.875, 4.5, 1.5], "texture": "#2"},
				"down": {"uv": [4.8125, 1.875, 4.5, 1.5], "texture": "#2"}
			}
		},
		{
			"from": [6.75, 6.81472, -1.69254],
			"to": [9.25, 9.31472, -0.88822],
			"rotation": {"angle": 0, "axis": "y", "origin": [8, 7.025, 5.99417]},
			"faces": {
				"north": {"uv": [0, 0, 0.625, 1.25], "texture": "#1"},
				"east": {"uv": [2.75, 8.5, 2.9375, 9.75], "texture": "#1"},
				"south": {"uv": [0, 1.5, 0.625, 2.75], "texture": "#1"},
				"west": {"uv": [2.9375, 8.5, 2.75, 9.75], "texture": "#1"},
				"up": {"uv": [4.875, 3.375, 4.25, 3], "texture": "#1"},
				"down": {"uv": [4.875, 6, 4.25, 6.375], "texture": "#1"}
			}
		},
		{
			"from": [7.3, 6.59778, 6.71106],
			"to": [8.7, 8.89778, 10.31106],
			"rotation": {"angle": 0, "axis": "y", "origin": [8, 7.025, 5.99417]},
			"faces": {
				"north": {"uv": [10, 9.25, 10.1875, 9.8125], "texture": "#1"},
				"east": {"uv": [11.8125, 6.25, 11.375, 6.8125], "texture": "#1"},
				"south": {"uv": [10.5, 9.25, 10.6875, 9.8125], "texture": "#1"},
				"west": {"uv": [11.375, 6.25, 11.8125, 6.8125], "texture": "#1"},
				"up": {"uv": [9.9375, 9.875, 9.75, 9], "texture": "#1"},
				"down": {"uv": [9.9375, 9, 9.75, 9.875], "texture": "#1"}
			}
		},
		{
			"from": [7.5, 6.81472, 0.3661],
			"to": [8.5, 7.16472, 7.22041],
			"rotation": {"angle": 0, "axis": "y", "origin": [8, 7.025, 5.99417]},
			"faces": {
				"north": {"uv": [13.25, 2.75, 13.40625, 2.8125], "rotation": 180, "texture": "#1"},
				"east": {"uv": [12.875, 8.5, 13.71875, 8.5625], "rotation": 180, "texture": "#1"},
				"south": {"uv": [13.25, 2.75, 13.40625, 2.8125], "rotation": 180, "texture": "#1"},
				"west": {"uv": [13.71875, 8.5, 12.875, 8.5625], "rotation": 180, "texture": "#1"},
				"up": {"uv": [10.625, 8.4375, 10.5, 6.75], "rotation": 180, "texture": "#1"},
				"down": {"uv": [10.625, 8.4375, 10.5, 6.75], "rotation": 180, "texture": "#1"}
			}
		},
		{
			"from": [6.9, 8.89778, 4.38174],
			"to": [9.1, 9.44778, 10.31106],
			"rotation": {"angle": 0, "axis": "y", "origin": [8, 7.025, 5.99417]},
			"faces": {
				"north": {"uv": [13, 4, 13.28125, 4.125], "texture": "#1"},
				"east": {"uv": [13.375, 4.75, 12.625, 4.875], "texture": "#1"},
				"south": {"uv": [13, 4, 13.28125, 4.125], "texture": "#1"},
				"west": {"uv": [12.625, 4.75, 13.375, 4.875], "texture": "#1"},
				"up": {"uv": [10.65625, 1.5, 10.375, 0], "texture": "#1"},
				"down": {"uv": [10.65625, 0, 10.375, 1.5], "texture": "#1"}
			}
		},
		{
			"from": [6.5, 7.08972, 2.61178],
			"to": [9.5, 9.48972, 5.9911],
			"rotation": {"angle": 0, "axis": "y", "origin": [8, 7.025, 5.99417]},
			"faces": {
				"north": {"uv": [11.5, 0.75, 11.875, 1.375], "texture": "#1"},
				"east": {"uv": [11.8125, 3.5, 11.375, 4.125], "texture": "#1"},
				"south": {"uv": [11.5, 0.75, 11.875, 1.375], "texture": "#1"},
				"west": {"uv": [11.375, 3.5, 11.8125, 4.125], "texture": "#1"},
				"up": {"uv": [9.125, 7.375, 8.75, 6.5], "texture": "#1"},
				"down": {"uv": [9.5, 6.5, 9.125, 7.375], "texture": "#1"}
			}
		},
		{
			"from": [7.5, 9.43972, 3.0661],
			"to": [8.5, 9.78972, 9.92041],
			"rotation": {"angle": 0, "axis": "y", "origin": [8, 7.025, 5.99417]},
			"faces": {
				"north": {"uv": [13.25, 2.75, 13.40625, 2.8125], "texture": "#1"},
				"east": {"uv": [13.71875, 8.5, 12.875, 8.5625], "texture": "#1"},
				"south": {"uv": [13.25, 2.75, 13.40625, 2.8125], "texture": "#1"},
				"west": {"uv": [12.875, 8.5, 13.71875, 8.5625], "texture": "#1"},
				"up": {"uv": [10.625, 8.4375, 10.5, 6.75], "texture": "#1"},
				"down": {"uv": [10.625, 8.4375, 10.5, 6.75], "texture": "#1"}
			}
		},
		{
			"from": [6.83008, 7.49741, 10.98916],
			"to": [9.17004, 8.46671, 12.94208],
			"rotation": {"angle": 0, "axis": "y", "origin": [8, 7.025, 5.99417]},
			"faces": {
				"north": {"uv": [3, 1.5, 3.5625, 2], "texture": "#1"},
				"east": {"uv": [4.25, 0.5, 4.75, 1], "texture": "#1"},
				"south": {"uv": [1, 7, 1.5625, 7.5], "texture": "#1"},
				"west": {"uv": [0.5, 8.5, 1, 9], "texture": "#1"},
				"up": {"uv": [1.8125, 4.5, 1.25, 3.5], "texture": "#1"},
				"down": {"uv": [0.5625, 4, 0, 5], "texture": "#1"}
			}
		},
		{
			"from": [6.15335, 7.21709, 10.98968],
			"to": [8.49331, 8.18639, 12.94082],
			"rotation": {"angle": -45, "axis": "z", "origin": [8, 7.025, 5.99417]},
			"faces": {
				"north": {"uv": [3.5, 2, 4.0625, 2.5], "texture": "#1"},
				"east": {"uv": [4.25, 1, 4.75, 1.5], "texture": "#1"},
				"south": {"uv": [3.5, 2.5, 4.0625, 3], "texture": "#1"},
				"west": {"uv": [4.25, 2, 4.75, 2.5], "texture": "#1"},
				"up": {"uv": [2.5625, 3, 2, 2], "texture": "#1"},
				"down": {"uv": [2.5625, 3, 2, 4], "texture": "#1"}
			}
		},
		{
			"from": [7.50668, 7.2171, 10.99058],
			"to": [9.84664, 8.1864, 12.94173],
			"rotation": {"angle": 45, "axis": "z", "origin": [8, 7.025, 5.99417]},
			"faces": {
				"north": {"uv": [3.5, 3, 4.0625, 3.5], "texture": "#1"},
				"east": {"uv": [1.25, 8.5, 1.75, 9], "texture": "#1"},
				"south": {"uv": [1.75, 7, 2.3125, 7.5], "texture": "#1"},
				"west": {"uv": [4.25, 2.5, 4.75, 3], "texture": "#1"},
				"up": {"uv": [2.5625, 5, 2, 4], "texture": "#1"},
				"down": {"uv": [2.8125, 0, 2.25, 1], "texture": "#1"}
			}
		},
		{
			"from": [7.51534, 6.81201, 10.98726],
			"to": [8.48464, 9.15197, 12.94968],
			"rotation": {"angle": 0, "axis": "y", "origin": [8, 7.025, 5.99417]},
			"faces": {
				"north": {"uv": [3.5, 3.5, 3.75, 4.625], "texture": "#1"},
				"east": {"uv": [0.75, 4.5, 1.25, 5.625], "texture": "#1"},
				"south": {"uv": [2.5, 7, 2.75, 8.125], "texture": "#1"},
				"west": {"uv": [1.25, 4.5, 1.75, 5.625], "texture": "#1"},
				"up": {"uv": [2, 9.5, 1.75, 8.5], "texture": "#1"},
				"down": {"uv": [2.75, 8.5, 2.5, 9.5], "texture": "#1"}
			}
		},
		{
			"from": [6.60608, 7.60941, 10.98916],
			"to": [9.39404, 8.35471, 12.94208],
			"rotation": {"angle": 0, "axis": "y", "origin": [8, 7.025, 5.99417]},
			"faces": {
				"north": {"uv": [1.25, 8, 1.9375, 8.375], "texture": "#1"},
				"east": {"uv": [4.25, 7.5, 4.75, 7.875], "texture": "#1"},
				"south": {"uv": [4, 5, 4.6875, 5.375], "texture": "#1"},
				"west": {"uv": [4.75, 7.5, 4.25, 7.875], "texture": "#1"},
				"up": {"uv": [1.4375, 1, 0.75, 0], "texture": "#1"},
				"down": {"uv": [1.4375, 1, 0.75, 2], "texture": "#1"}
			}
		},
		{
			"from": [5.92935, 7.32909, 10.98968],
			"to": [8.71731, 8.07439, 12.94082],
			"rotation": {"angle": -45, "axis": "z", "origin": [8, 7.025, 5.99417]},
			"faces": {
				"north": {"uv": [2.75, 8, 3.4375, 8.375], "texture": "#1"},
				"east": {"uv": [4.25, 7.5, 4.75, 7.875], "texture": "#1"},
				"south": {"uv": [4, 5.5, 4.6875, 5.875], "texture": "#1"},
				"west": {"uv": [4.75, 7.5, 4.25, 7.875], "texture": "#1"},
				"up": {"uv": [1.4375, 3, 0.75, 2], "texture": "#1"},
				"down": {"uv": [0.6875, 3, 0, 4], "texture": "#1"}
			}
		},
		{
			"from": [7.28268, 7.3291, 10.99058],
			"to": [10.07064, 8.0744, 12.94173],
			"rotation": {"angle": 45, "axis": "z", "origin": [8, 7.025, 5.99417]},
			"faces": {
				"north": {"uv": [3.5, 8, 4.1875, 8.375], "texture": "#1"},
				"east": {"uv": [4.25, 7.5, 4.75, 7.875], "texture": "#1"},
				"south": {"uv": [4.25, 0, 4.9375, 0.375], "texture": "#1"},
				"west": {"uv": [4.75, 7.5, 4.25, 7.875], "texture": "#1"},
				"up": {"uv": [2.1875, 1, 1.5, 0], "texture": "#1"},
				"down": {"uv": [2.1875, 1, 1.5, 2], "texture": "#1"}
			}
		},
		{
			"from": [7.62734, 6.58801, 10.98726],
			"to": [8.37264, 9.37597, 12.94968],
			"rotation": {"angle": 0, "axis": "y", "origin": [8, 7.025, 5.99417]},
			"faces": {
				"north": {"uv": [2, 8, 2.1875, 9.375], "texture": "#1"},
				"east": {"uv": [0.75, 3, 1.25, 4.375], "texture": "#1"},
				"south": {"uv": [2.25, 8, 2.4375, 9.375], "texture": "#1"},
				"west": {"uv": [1.5, 2, 2, 3.375], "texture": "#1"},
				"up": {"uv": [4.75, 7.5, 4.25, 7.875], "rotation": 90, "texture": "#1"},
				"down": {"uv": [4.25, 7.5, 4.75, 7.875], "rotation": 90, "texture": "#1"}
			}
		},
		{
			"from": [6.53433, 7.3749, 12.93009],
			"to": [9.46583, 8.58924, 13.6202],
			"rotation": {"angle": 0, "axis": "y", "origin": [8, 7.025, 5.99417]},
			"faces": {
				"north": {"uv": [0.75, 5, 0, 5.625], "texture": "#1"},
				"east": {"uv": [0.25, 9, 0.4375, 9.625], "texture": "#1"},
				"south": {"uv": [0, 5, 0.75, 5.625], "texture": "#1"},
				"west": {"uv": [0.25, 9, 0.4375, 9.625], "texture": "#1"},
				"up": {"uv": [3.5, 7.375, 2.75, 7], "texture": "#1"},
				"down": {"uv": [4.25, 6, 3.5, 6.375], "texture": "#1"}
			}
		},
		{
			"from": [7.39281, 6.51623, 12.92771],
			"to": [8.60716, 9.44773, 13.62971],
			"rotation": {"angle": 0, "axis": "y", "origin": [8, 7.025, 5.99417]},
			"faces": {
				"north": {"uv": [3.3125, 0, 3, 1.5], "texture": "#1"},
				"east": {"uv": [0, 7.5, 0.1875, 9], "texture": "#1"},
				"south": {"uv": [3, 0, 3.3125, 1.5], "texture": "#1"},
				"west": {"uv": [0.25, 7.5, 0.4375, 9], "texture": "#1"},
				"up": {"uv": [4.8125, 1.875, 4.5, 1.5], "texture": "#1"},
				"down": {"uv": [4.8125, 1.875, 4.5, 1.5], "texture": "#1"}
			}
		},
		{
			"from": [6.53433, 7.3749, 10.31041],
			"to": [9.46583, 8.58924, 11.00052],
			"rotation": {"angle": 0, "axis": "y", "origin": [8, 7.025, 5.99417]},
			"faces": {
				"north": {"uv": [0.75, 5, 0, 5.625], "texture": "#1"},
				"east": {"uv": [0.25, 9, 0.4375, 9.625], "texture": "#1"},
				"south": {"uv": [0, 5, 0.75, 5.625], "texture": "#1"},
				"west": {"uv": [0.25, 9, 0.4375, 9.625], "texture": "#1"},
				"up": {"uv": [2.5, 7.875, 1.75, 7.5], "texture": "#1"},
				"down": {"uv": [4.5, 3.5, 3.75, 3.875], "texture": "#1"}
			}
		},
		{
			"from": [7.39281, 6.51623, 10.30803],
			"to": [8.60716, 9.44773, 11.01003],
			"rotation": {"angle": 0, "axis": "y", "origin": [8, 7.025, 5.99417]},
			"faces": {
				"north": {"uv": [3.3125, 0, 3, 1.5], "texture": "#1"},
				"east": {"uv": [4, 0, 4.1875, 1.5], "texture": "#1"},
				"south": {"uv": [3, 0, 3.3125, 1.5], "texture": "#1"},
				"west": {"uv": [1, 8, 1.1875, 9.5], "texture": "#1"},
				"up": {"uv": [4.8125, 1.875, 4.5, 1.5], "texture": "#1"},
				"down": {"uv": [4.8125, 1.875, 4.5, 1.5], "texture": "#1"}
			}
		}
	],
	"display": {
		"thirdperson_righthand": {
			"translation": [-1.75, 0, -1.25]
		},
		"thirdperson_lefthand": {
			"rotation": [67, 0, 0],
			"translation": [-1.75, 3.25, 2.5]
		},
		"firstperson_righthand": {
			"translation": [-3, 2, 0.75],
			"scale": [1.4, 1.4, 1.4]
		},
		"firstperson_lefthand": {
			"translation": [-3, 2, 0.75],
			"scale": [1.4, 1.4, 1.4]
		},
		"ground": {
			"translation": [0, 1.25, 0]
		},
		"gui": {
			"rotation": [159.18, -42.16, -176.01],
			"translation": [-1.25, 0, 0],
			"scale": [1.05, 1.05, 1.05]
		},
		"fixed": {
			"rotation": [0, 90, 0],
			"translation": [4, 0, -1.25],
			"scale": [2, 2, 2]
		}
	},
	"groups": [
		{
			"name": "grenade_launcher",
			"origin": [8, 6.30403, 11.36106],
			"color": 0,
			"children": [
				{
					"name": "barrel",
					"origin": [8, 6.30403, 11.36106],
					"color": 0,
					"children": [0, 1]
				},
				{
					"name": "inner_body",
					"origin": [8, 5.90403, 11.36106],
					"color": 0,
					"children": [2, 3]
				},
				{
					"name": "body_cover",
					"origin": [7.66545, 7.92897, 3.46394],
					"color": 0,
					"children": [4, 5]
				},
				{
					"name": "rail",
					"origin": [7.66545, 7.47897, 2.84325],
					"color": 0,
					"children": [6]
				},
				{
					"name": "trigger_guard",
					"origin": [8, 5.54778, 5.08606],
					"color": 0,
					"children": [7, 8, 9]
				},
				{
					"name": "handle",
					"origin": [8, 6.19778, 4.71106],
					"color": 8,
					"children": [10, 11, 12, 13, 14, 15, 16, 17]
				},
				{
					"name": "grip",
					"origin": [7.66545, 6.32897, 3.46394],
					"color": 0,
					"children": [18, 19]
				},
				{
					"name": "coil",
					"origin": [8.49295, 7.17903, 10.61106],
					"color": 0,
					"children": [
						{
							"name": "cylinder",
							"origin": [5.3827, 14.43617, 31.87716],
							"color": 1,
							"children": [20, 21, 22, 23, 24, 25, 26, 27]
						},
						{
							"name": "cover",
							"origin": [5.13388, 15.01674, 34.81845],
							"color": 1,
							"children": [28, 29, 30, 31]
						},
						{
							"name": "cover",
							"origin": [4.59643, 16.27078, 41.47563],
							"color": 1,
							"children": [32, 33, 34, 35]
						}
					]
				}
			]
		},
		{
			"name": "grenade_launcher_glow",
			"origin": [8, 6.30403, 11.36106],
			"color": 0,
			"children": [
				{
					"name": "barrel",
					"origin": [8, 6.30403, 11.36106],
					"color": 0,
					"children": [36]
				},
				{
					"name": "inner_body",
					"origin": [8, 5.90403, 11.36106],
					"color": 0,
					"children": [37, 38]
				},
				{
					"name": "body_cover",
					"origin": [7.66545, 7.92897, 3.46394],
					"color": 0,
					"children": [39, 40]
				},
				{
					"name": "rail",
					"origin": [7.66545, 7.47897, 2.84325],
					"color": 0,
					"children": [41]
				},
				{
					"name": "coil",
					"origin": [8.49295, 7.17903, 10.61106],
					"color": 0,
					"children": [
						{
							"name": "cylinder",
							"origin": [5.3827, 14.43617, 31.87716],
							"color": 1,
							"children": [42, 43, 44, 45, 46, 47, 48, 49]
						},
						{
							"name": "cover",
							"origin": [5.13388, 15.01674, 34.81845],
							"color": 1,
							"children": [50, 51]
						},
						{
							"name": "cover",
							"origin": [4.59643, 16.27078, 41.47563],
							"color": 1,
							"children": [52, 53]
						}
					]
				}
			]
		}
	]
}