[
  {
    "id": "energy.generator",
    "page": "production",
    "x": -4,
    "y": 3,
    "parents": [
      "energieerzeugung"
    ],
    "aspects": [],
    "level": 0,
    "time": 0,
    "need": [],
    "icon": {
      "name": "futurepack:t0_generator"
    },
    "enables": [
      {
        "name": "futurepack:t0_generator"
      }
    ]
  },
  {
    "id": "energy.neonmotor",
    "page": "production",
    "x": -3,
    "y": 4,
    "parents": [
      "upgradeT1",
      "energy.generator",
      "log.cable"
    ],
    "aspects": [
      "morphologie",
      "hydraulic",
      "neonenergie"
    ],
    "level": 1,
    "time": 800,
    "neon": 1200,
    "need": [
      {
        "size": 2,
        "name": "minecraft:piston"
      },
      {
        "size": 2,
        "name": "futurepack:wire_normal"
      }
    ],
    "icon": {
      "name": "futurepack:neon_engine"
    },
    "enables": [
      {
        "name": "futurepack:neon_engine"
      }
    ],
	"rewards":
	[
	  {
        "size": 1,
        "name": "futurepack:neon_engine"
      }
	]
  },
  {
    "id": "energy.fluxtransformer",
    "page": "production",
    "x": -3,
    "y": 5,
    "parents": [
      "energy.neonmotor",
      "upgradeT2"
    ],
    "aspects": [
      "metallurgie",
      "energieverbindung",
      "neonenergie"
    ],
    "level": 2,
    "time": 1200,
    "neon": 57600,
    "support": 20,
    "need": [
      {
        "size": 1,
        "name": "minecraft:redstone_block"
      },
      {
        "size": 4,
        "name": "futurepack:wire_normal"
      },
      {
        "size": 8,
        "tag": "forge:ingots/neon"
      }
    ],
    "icon": {
      "name": "futurepack:rf2ne_converter_white"
    },
    "enables": [
      {
        "name": "futurepack:rf2ne_converter_white"
      },
      {
        "name": "futurepack:rf2ne_converter_gray"
      },
      {
        "name": "futurepack:rf2ne_converter_black"
      }
    ],
	"rewards":
	[
	  {
        "size": 1,
        "name": "futurepack:rf2ne_converter_white"
      }
	]
  },
  {
    "id": "energy.fermentation",
    "page": "production",
    "x": -2,
    "y": 4,
    "parents": [
      "energy.generator",
      "recycling",
      "fluidlogistik"
    ],
    "aspects": [
      "morphologie",
      "hydraulic",
      "biologie"
    ],
    "level": 1,
    "time": 800,
    "neon": 1200,
    "need": [
      {
        "size": 8,
        "name": "futurepack:kompost"
      },
      {
        "size": 2,
        "name": "futurepack:fluid_tube"
      }
    ],
    "icon": {
      "name": "futurepack:fermentation_barrel"
    },
    "enables": [
      {
        "name": "futurepack:fermentation_barrel"
      }
    ],
	"rewards":
	[
	  {
        "size": 1,
        "name": "futurepack:fermentation_barrel"
      },
	  {
        "size": 1,
        "name": "futurepack:gas_turbine_white"
      }
	]
  },
  {
    "id": "energy.gasturbine",
    "page": "production",
    "x": -2,
    "y": 5,
    "parents": [
      "energy.fermentation"
    ],
    "aspects": [],
    "level": 0,
    "time": 0,
    "need": [],
    "icon": {
      "name": "futurepack:gas_turbine_white"
    },
    "enables": [
      {
        "name": "futurepack:gas_turbine_white"
      },
      {
        "name": "futurepack:gas_turbine_gray"
      },
      {
        "name": "futurepack:gas_turbine_black"
      }
    ]
  },
  {
    "id": "energy.wasser_turbine",
    "page": "production",
    "x": -1,
    "y": 3,
    "parents": [
      "erneuerbare",
      "energy.generator"
    ],
    "aspects": [],
    "level": 0,
    "time": 0,
    "need": [],
    "icon": {
      "name": "futurepack:water_turbine_white"
    },
    "enables": [
      {
        "name": "futurepack:water_turbine_white"
      },
      {
        "name": "futurepack:water_turbine_gray"
      },
      {
        "name": "futurepack:water_turbine_black"
      }
    ]
  },
  {
    "id": "energy.solar",
    "page": "production",
    "x": 0,
    "y": 4,
    "parents": [
      "energy.wasser_turbine",
      "production3"
    ],
    "aspects": [
      "neonenergie",
      "biologie",
      "maschinenbau"
    ],
    "level": 2,
    "time": 4800,
    "neon": 57600,
    "support": 100,
    "need": [
      {
        "size": 8,
        "name": "futurepack:wire_normal"
      },
      {
        "size": 16,
        "name": "futurepack:ingot_silicon"
      },
      {
        "size": 16,
        "name": "minecraft:oak_sapling"
      }
    ],
    "icon": {
      "name": "futurepack:solar_panel_white"
    },
    "enables": [
      {
        "name": "futurepack:solar_panel_white"
      },
      {
        "name": "futurepack:solar_panel_gray"
      },
      {
        "name": "futurepack:solar_panel_black"
      }
    ],
	"rewards":
	[
	  {
        "size": 4,
        "name": "minecraft:glowstone"
      }
	]
  },
  {
    "id": "energy.ionen",
    "page": "production",
    "x": 0,
    "y": 5,
    "parents": [
      "erneuerbare",
      "energy.solar",
      "ionentechnik"
    ],
    "aspects": [],
    "level": 0,
    "time": 0,
    "need": [],
    "icon": {
      "name": "futurepack:ion_collector_white"
    },
    "enables": [
      {
        "name": "futurepack:ion_collector_white"
      },
      {
        "name": "futurepack:ion_collector_gray"
      },
      {
        "name": "futurepack:ion_collector_black"
      }
    ]
  },
  {
    "id": "energy.infusion",
    "page": "production",
    "x": 1,
    "y": 3,
    "parents": [
      "energy.wasser_turbine",
      "menelaus"
    ],
    "aspects": [
      "neonenergie",
      "morphologie"
    ],
    "level": 2,
    "time": 1200,
    "neon": 76800,
    "support": 40,
    "need": [
      {
        "size": 32,
        "name": "futurepack:crystal_neon"
      },
      {
        "size": 32,
        "name": "futurepack:erse"
      },
      {
        "size": 4,
        "name": "futurepack:iron_stick"
      }
    ],
    "icon": {
      "name": "futurepack:infusion_generator_black"
    },
    "enables": [
      {
        "name": "futurepack:infusion_generator_white"
      },
      {
        "name": "futurepack:infusion_generator_gray"
      },
      {
        "name": "futurepack:infusion_generator_black"
      }
    ]
  }
]