{
	"type": "minecraft:block",
	"pools": [
		{
			"rolls": 1.0,
			"entries": [
				{
					"type": "minecraft:item",
					"conditions": [
						{
							"condition": "minecraft:block_state_property",
							"block": "futurepack:topinambur",
							"properties": {
								"top": true
							}
						},
						{
							"condition": "minecraft:alternative",
							"terms": [
								{
									"condition": "minecraft:block_state_property",
									"block": "futurepack:topinambur",
									"properties": {
										"age": 6
									}
								},
								{
									"condition": "minecraft:block_state_property",
									"block": "futurepack:topinambur",
									"properties": {
										"age": 7
									}
								}
							]
						}
					],
					"functions": [
						{
							"function": "minecraft:apply_bonus",
							"enchantment": "minecraft:fortune",
							"formula": "minecraft:binomial_with_bonus_count",
							"parameters": {
								"extra": 3,
								"probability": 0.5714286
							}
						}
					],
					"name": "futurepack:topinambur_flower"
				}
			]
		},
		{
			"rolls": 1.0,
			"entries": [
				{
					"type": "minecraft:item",
					"conditions": [
						{
							"condition": "minecraft:block_state_property",
							"block": "futurepack:topinambur",
							"properties": {
								"top": false
							}
						}
					],
					"name": "futurepack:topinambur_potato"
				}
			]
		},
		{
			"rolls": 1.0,
			"entries": [
				{
					"type": "minecraft:item",
					"conditions": [
						{
							"condition": "minecraft:block_state_property",
							"block": "futurepack:topinambur",
							"properties": {
								"top": false,
								"age": 6
							}
						}
					],
					"functions": [
						{
							"function": "minecraft:apply_bonus",
							"enchantment": "minecraft:fortune",
							"formula": "minecraft:binomial_with_bonus_count",
							"parameters": {
								"extra": 4,
								"probability": 0.5714286
							}
						}
					],
					"name": "futurepack:topinambur_potato"
				}
			]
		},
		{
			"rolls": 1.0,
			"entries": [
				{
					"type": "minecraft:group",
					"conditions": [
						{
							"condition": "minecraft:block_state_property",
							"block": "futurepack:topinambur",
							"properties": {
								"age": 7
							}
						}
					],
					"children": [
						{
							"type": "minecraft:item",
							"functions": [
								{
									"function": "minecraft:apply_bonus",
									"enchantment": "minecraft:fortune",
									"formula": "minecraft:binomial_with_bonus_count",
									"parameters": {
										"extra": 4,
										"probability": 0.5714286
									}
								}
							],
							"name": "futurepack:kompost"
						},
						{
							"type": "minecraft:item",
							"functions": [
								{
									"function": "minecraft:apply_bonus",
									"enchantment": "minecraft:fortune",
									"formula": "minecraft:binomial_with_bonus_count",
									"parameters": {
										"extra": 3,
										"probability": 0.5714286
									}
								}
							],
							"conditions": [
								{
									"condition": "minecraft:block_state_property",
									"block": "futurepack:topinambur",
									"properties": {
										"top": false
									}
								}
							],
							"name": "futurepack:kompost"
						}
					],
					"name": "futurepack:topinambur_potato"
				}
			]
		},
		{
			"rolls": 1.0,
			"entries": [
				{
					"type": "minecraft:item",
					"conditions": [
						{
							"condition": "minecraft:alternative",
							"terms": [
								{
									"condition": "minecraft:block_state_property",
									"block": "futurepack:topinambur",
									"properties": {
										"age": 3
									}
								},
								{
									"condition": "minecraft:block_state_property",
									"block": "futurepack:topinambur",
									"properties": {
										"age": 4
									}
								},
								{
									"condition": "minecraft:block_state_property",
									"block": "futurepack:topinambur",
									"properties": {
										"age": 5
									}
								},
								{
									"condition": "minecraft:block_state_property",
									"block": "futurepack:topinambur",
									"properties": {
										"age": 6
									}
								}
							]
						}
					],
					"functions": [
						{
							"function": "minecraft:apply_bonus",
							"enchantment": "minecraft:fortune",
							"formula": "minecraft:binomial_with_bonus_count",
							"parameters": {
								"extra": 2,
								"probability": 0.5714286
							}
						}
					],
					"name": "futurepack:fibers"
				}
			]
		}
	],
	"functions": [
		{
			"function": "minecraft:explosion_decay"
		}
	]
}
