{
	"ultrawarm": false,
	"natural": true,
	"coordinate_scale": 1.0,
	"has_skylight": false,
	"has_ceiling": false,
	"ambient_light": 0.1,
	"bed_works": true,
	"respawn_anchor_works": true,
	"has_raids": false,
	"logical_height": 256,
	"infiniburn": "minecraft:infiniburn_overworld",
	"effects": "futurepack:envia",
	"piglin_safe": false,
	"height": 256,
	"min_y": 0
}
