{
  "type": "tconstruct:material",
    "conditions": [
        {
            "type": "forge:mod_loaded",
            "modid": "tconstruct"
        }
    ],
  "ingredient": {
    "item": "futurepack:metal_block"
  },
  "value": 4,
  "needed": 1,
  "material": "futurepack:composite_metal",
  "leftover": {
    "tag": "forge:ingots/composite_metal"
  }
}