{
  "type": "tconstruct:damagable_melting",
  "conditions": [
        {
            "type": "forge:mod_loaded",
            "modid": "tconstruct"
        }
    ],
    
  "ingredient": [ {
    "item": "futurepack:composite_spade"
  },{
    "item": "futurepack:composite_fishing_rod"
  }],
  "result": {
    "fluid": "futurepack:molten_composite_metal",
    "amount": 144
  },
  "temperature": 1450,
  "time": 79
}