{
  "replace": false,
  "values": [
    "futurepack:sand_m",
    "futurepack:gravel_m",
    "futurepack:dirt_m",
    "futurepack:grass_t",
    "futurepack:sand_neon",
    "futurepack:sand_alutin",
    "futurepack:sand_retium",
    "futurepack:sand_glowtite",
    "futurepack:sand_bioterium",
    "futurepack:huge_mycel"
  ]
}