{
  "replace": false,
  "values": [
    "futurepack:lack_tank_empty",
    "futurepack:lack_tank_black",
    "futurepack:lack_tank_blue",
    "futurepack:lack_tank_brown",
    "futurepack:lack_tank_cyan",
    "futurepack:lack_tank_gray",
    "futurepack:lack_tank_green",
    "futurepack:lack_tank_light_blue",
    "futurepack:lack_tank_light_gray",
    "futurepack:lack_tank_lime",
    "futurepack:lack_tank_magenta",
    "futurepack:lack_tank_orange",
    "futurepack:lack_tank_pink",
    "futurepack:lack_tank_purple",
    "futurepack:lack_tank_red",
    "futurepack:lack_tank_white",
    "futurepack:lack_tank_yellow"
  ]
}