{
  "replace": false,
  "values": [
	"futurepack:ram_standart",
	"futurepack:ram_a",
	"futurepack:ram_p",
	"futurepack:ram_tct",
	"futurepack:ram_master",
	"futurepack:ram_non",
	"futurepack:ram_dungeon",
	"futurepack:ram_torus",
	"futurepack:ram_zombie",
	"futurepack:ram_entronium"
  ]
}