{
	"config": {
		"feature": {
			"type": "minecraft:decorated",
			"config": {
				"feature": "futurepack:tree_menelaus_mushroom",
				"decorator": {
					"config": {
						"heightmap": "WORLD_SURFACE_WG"
					},
					"type": "minecraft:heightmap"
				}
			}
		},
		"decorator": {
			"config": {
				"chance": 3
			},
			"type": "minecraft:chance"
		}
	},
	"type": "minecraft:decorated"
}
