{
  "config": {
    "can_replace": false,
    "project": false,
    "need_water": false,
    "xspread": 7,
    "yspread": 3,
    "zspread": 7,
    "whitelist": [],
    "blacklist": [],
    "tries": 64,
    "state_provider": {
      "state": {
        "Name": "futurepack:crawler_hive"
      },
      "type": "minecraft:simple_state_provider"
    },
    "block_placer": {
      "type": "minecraft:simple_block_placer"
    }
  },
  "type": "minecraft:random_patch"
}