{
	"config": {
		"feature": {
			"type": "minecraft:decorated",
			"config": {
				"feature": {
					"config": {
						
					},
					"type": "futurepack:dead_tree"
				},
				"decorator": {
					"config": {
					 	"heightmap": "WORLD_SURFACE_WG"
					},
					"type": "minecraft:heightmap"
				}
			}
		},
		"decorator": {
			"config": {
				"chance": 12
			},
			"type": "minecraft:chance"
		}
	},
	"type": "minecraft:decorated"
}
