{
  "type": "smelting",
  "ingredient": [
  	{
  	  "item": "futurepack:dust_iron", "count": 1
  	}
  ],
  "result": { "item": "minecraft:iron_ingot", "count": 1},
  "experience": 0.7,
  "cookingtime": 200
}