{
	"precipitation": "none",
	"category": "mushroom",
	"depth": 0.8,
	"scale": 0.7,
	"temperature": 2.0,
	"downfall": 0.0,
	"temperature_modifier": "none",
	"effects": {
		"fog_color": 16744243,
		"-foliage_color": "will be calculated",
		"-grass_color": "will be calculated",
		"sky_color": 15623748,
		"water_color": 8158287,
		"water_fog_color": 329011,
		"grass_color_modifier": "none",
		"-particle": {
		},
		"-ambient_sound": "",
		"-additions_sound": {
		},
		"-music": {
		},
		"mood_sound": {
			"sound": "minecraft:ambient.cave",
			"tick_delay": 6000,
			"block_search_extent": 8,
			"offset": 2.0
		}
	},
	"surface_builder": "futurepack:menelaus_sea_sand_sandstone_gravel",
	"carvers": {
		"air": [
			"minecraft:canyon",
			"minecraft:cave",
			"futurepack:larger_vanilla_caves"
		],
		"liquid": [
			"futurepack:menelaus_cave"
		]
	},
	"features": [
		[
		],
		[
			"minecraft:lake_lava_underground","minecraft:lake_lava_surface"
		],
		[
			"futurepack:crater"
		],
		[


			"minecraft:monster_room"
		],
		[
			"futurepack:bend"
		],
		[
		],
		[
			"minecraft:ore_dirt",
			"minecraft:ore_gravel",
			"minecraft:ore_granite_upper", "minecraft:ore_granite_lower",
			"minecraft:ore_diorite_upper", "minecraft:ore_diorite_lower",
			"minecraft:ore_andesite_upper", "minecraft:ore_andesite_lower",
			"minecraft:ore_coal_upper", "minecraft:ore_coal_lower",
			"minecraft:ore_iron_upper","minecraft:ore_iron_middle","minecraft:ore_iron_small",
			"minecraft:ore_gold",
			"minecraft:ore_redstone",
			"minecraft:ore_diamond",
			"minecraft:ore_lapis",
			"minecraft:ore_copper",
			"minecraft:disk_sand",
			"minecraft:disk_clay",
			"minecraft:disk_gravel"
		],
		[
			"futurepack:mycel"
		],
		[
			"minecraft:flower_default",
			"minecraft:patch_grass_badlands",
			"minecraft:patch_dead_bush_2",
			"minecraft:brown_mushroom_taiga",
      		"minecraft:red_mushroom_taiga",
			"minecraft:brown_mushroom_normal",
			"minecraft:red_mushroom_normal",
			"minecraft:patch_sugar_cane_desert",
			"minecraft:patch_pumpkin",
			"minecraft:patch_cactus_desert",
			"minecraft:spring_water",
			"minecraft:spring_lava",
			"futurepack:menelaus_special_mushrooms"
		],
		[
			"minecraft:freeze_top_layer"
		]
	],
	"starts": [
	],
	"spawners": {
		"monster": [
			{
				"type": "minecraft:slime",
				"weight": 100,
				"minCount": 4,
				"maxCount": 6
			},
			{
				"type": "minecraft:husk",
				"weight": 80,
				"minCount": 4,
				"maxCount": 6
			}
		],
		"creature": [
			{
				"type": "minecraft:rabbit",
				"weight": 4,
				"minCount": 2,
				"maxCount": 3
			},
			{
				"type": "minecraft:moshroom",
				"weight": 12,
				"minCount": 4,
				"maxCount": 8
			}
		],
		"ambient": [
			{
				"type": "minecraft:bat",
				"weight": 10,
				"minCount": 8,
				"maxCount": 8
			}
		],
		"water_creature": [
		],
		"water_ambient": [
		],
		"misc": [
		]
	},
	"player_spawn_friendly": true,
	"-parent": "",
	"spawn_costs": {}
}
