{
    "coolDown":100,
    "entrys":
	[
		{ "id":"minecraft:stray", "count":1, "data":"{CustomName:\"\\\"The Scientist\\\"\",CustomNameVisible:1,LeftHanded:1,Attributes:[{Name:\"generic.knockbackResistance\",Base:0.33f},{Name:\"generic.attackDamage\",Base:11}],HandItems:[{id:\"futurepack:sword_retium\",Count:1},{}],HandDropChances:[0.02F,0F]}" }
    ],
    "message":{"translate":"dungeon.message.the_scientist","text":"A Energy-Sword ?!?"}
}
 