{
    "parent": "block/block",
	"textures": {
		"texture": "futurepack:blocks/misc/claime",
		"particle": "futurepack:blocks/misc/claime"
	},
	"elements": [
		{
			"from": [ 6.5, 8.0, 6.5 ],
			"to": [ 9.5, 10.0, 9.5 ],
			"faces": {
				"down":	{ "uv": [ 3.0, 3.0, 4.5, 4.5  ], "texture": "#texture"},
				"up":	{ "uv": [ 1.5, 3.0, 3.0, 4.5  ], "texture": "#texture"},
				"north":{ "uv": [ 4.5, 4.5, 6.0, 5.5  ], "texture": "#texture"},
				"south":{ "uv": [ 1.5, 4.5, 3.0, 5.5  ], "texture": "#texture"},
				"west":	{ "uv": [ 0.0, 4.5, 1.5, 5.5  ], "texture": "#texture"},
				"east":	{ "uv": [ 3.0, 4.5, 4.5, 5.5  ], "texture": "#texture"}
			}
		},
		{
			"from": [ 6.0, 4.0, 6.0 ],
			"to": [ 10.0, 8.0, 10.0 ],
			"faces": {
				"down":	{ "uv": [ 4.0, 5.5, 6.0, 7.5  ], "texture": "#texture"},
				"up":	{ "uv": [ 2.0, 5.5, 4.0, 7.5  ], "texture": "#texture"},
				"north":{ "uv": [ 6.0, 7.5, 8.0, 9.5  ], "texture": "#texture"},
				"south":{ "uv": [ 2.0, 7.5, 4.0, 9.5  ], "texture": "#texture"},
				"west":	{ "uv": [ 0.0, 7.5, 2.0, 9.5  ], "texture": "#texture"},
				"east":	{ "uv": [ 4.0, 7.5, 6.0, 9.5  ], "texture": "#texture"}
			}
		},
		{
			"from": [ 7.0, 2.0, 7.0 ],
			"to": [ 9.0, 4.0, 9.0 ],
			"faces": {
				"down":	{ "uv": [ 2.0, 9.5, 3.0, 10.5  ], "texture": "#texture"},
				"up":	{ "uv": [ 1.0, 9.5, 2.0, 10.5  ], "texture": "#texture"},
				"north":{ "uv": [ 3.0, 10.5, 4.0, 11.5  ], "texture": "#texture"},
				"south":{ "uv": [ 1.0, 10.5, 2.0, 11.5  ], "texture": "#texture"},
				"west":	{ "uv": [ 0.0, 10.5, 1.0, 11.5  ], "texture": "#texture"},
				"east":	{ "uv": [ 2.0, 10.5, 3.0, 11.5  ], "texture": "#texture"}
			}
		},
		{
			"from": [ 7.5, -5.0, 7.5 ],
			"to": [ 8.5, 2.0, 8.5 ],
			"faces": {
				"down":	{ "uv": [ 9.0, 0.0, 9.5, 0.5  ], "texture": "#texture"},
				"up":	{ "uv": [ 8.5, 0.0, 9.0, 0.5  ], "texture": "#texture"},
				"north":{ "uv": [ 9.5, 0.5, 10.0, 4.0  ], "texture": "#texture"},
				"south":{ "uv": [ 8.5, 0.5, 9.0, 4.0  ], "texture": "#texture"},
				"west":	{ "uv": [ 8.0, 0.5, 8.5, 4.0  ], "texture": "#texture"},
				"east":	{ "uv": [ 9.0, 0.5, 9.5, 4.0  ], "texture": "#texture"}
			}
		},
		{
			"from": [ 6.0, 10.0, 6.0 ],
			"to": [ 10.0, 12.0, 10.0 ],
			"faces": {
				"down":	{ "uv": [ 4.0, 0.0, 6.0, 2.0  ], "texture": "#texture"},
				"up":	{ "uv": [ 2.0, 0.0, 4.0, 2.0  ], "texture": "#texture"},
				"north":{ "uv": [ 6.0, 2.0, 8.0, 3.0  ], "texture": "#texture"},
				"south":{ "uv": [ 2.0, 2.0, 4.0, 3.0  ], "texture": "#texture"},
				"west":	{ "uv": [ 0.0, 2.0, 2.0, 3.0  ], "texture": "#texture"},
				"east":	{ "uv": [ 4.0, 2.0, 6.0, 3.0  ], "texture": "#texture"}
			}
		}
	]
}