{
  "parent": "block/outer_stairs",
  "textures": {
    "bottom": "futurepack:blocks/terrain/stone_cobble_m",
    "top": "futurepack:blocks/terrain/stone_cobble_m",
    "side": "futurepack:blocks/terrain/stone_cobble_m"
  }
}