{
  "parent": "block/slab_top",
  "textures": {
    "bottom": "futurepack:blocks/deko/gitter_red",
    "top": "futurepack:blocks/deko/gitter_red",
    "side": "futurepack:blocks/deko/gitter_red"
  }
}