{
  "parent": "block/slab_top",
  "textures": {
    "bottom": "futurepack:blocks/deko/color_iron_yellow",
    "top": "futurepack:blocks/deko/color_iron_yellow",
    "side": "futurepack:blocks/deko/color_iron_yellow"
  }
}