{
    "parent": "block/block",
    "elements": [
        {   "from": [ 1, 1, 1 ],
            "to": [ 15, 15, 15 ],
            "faces": {
                "north": { "texture": "#front", "uv": [ 1, 1, 15, 15 ], "cullface": "north" },
                "south": { "texture": "#sides", "uv": [ 1, 1, 15, 15 ], "cullface": "south" },
                "west":  { "texture": "#sides", "uv": [ 1, 1, 15, 15 ], "cullface": "west" },
                "east":  { "texture": "#sides", "uv": [ 1, 1, 15, 15 ], "cullface": "east" },
				"down":  { "texture": "#top",  "uv": [ 1, 1, 15, 15 ],  "cullface": "down" },
				"up":    { "texture": "#top",  "uv": [ 1, 1, 15, 15 ],  "cullface": "up" }
            }
        },
		{   "from": [ 7, 9, 0 ],
            "to": [ 9, 13, 1 ],
            "faces": {
                "north": { "texture": "#front", "uv": [ 6.85714, 2.285714, 9.142857, 6.85714 ], "cullface": "north" },
                "south": { "texture": "#front", "uv": [ 6.85714, 2.285714, 9.142857, 6.85714 ], "cullface": "south" },
                "west":  { "texture": "#front", "uv": [ 6.85714, 2.285714, 9.142857, 6.85714 ], "cullface": "west" },
                "east":  { "texture": "#front", "uv": [ 6.85714, 2.285714, 9.142857, 6.85714 ], "cullface": "east" },
				"down":  { "texture": "#front", "uv": [ 6.85714, 2.285714, 9.142857, 6.85714 ],  "cullface": "down" },
				"up":    { "texture": "#front", "uv": [ 6.85714, 2.285714, 9.142857, 6.85714 ],  "cullface": "up" }
            }
        }
    ],
    "textures": {
        "sides": "futurepack:blocks/logistic/composite_chest_side",
		"front": "futurepack:blocks/logistic/composite_chest_front",
		"top": "futurepack:blocks/logistic/composite_chest_top"
    }
}
