{
	"parent": "block/block",
	"textures": {
		"texture0": "futurepack:blocks/misc/fp_button0",
		"texture1": "futurepack:blocks/misc/fp_button1",
		"texture2": "futurepack:blocks/misc/fp_button2",
		"transparent": "futurepack:blocks/transparent",
		"particle": "futurepack:blocks/misc/fp_button0"
	},
	"elements": [
		{
			"from": [ 1.0, 0.0, 1.0 ],
			"to": [ 15.0, 2.0, 15.0 ],
			"faces": {
				"down":	{ "uv": [ 0, 0, 14, 14  ], "texture": "#texture1", "rotation": 180},
				"up":	{ "uv": [ 0, 2, 14, 16  ], "texture": "#texture0", "rotation": 0},
				"north":{ "uv": [ 0, 0, 14, 2  ], "texture": "#texture0"},
				"south":{ "uv": [ 0, 0, 14, 2  ], "texture": "#texture0"},
				"west":	{ "uv": [ 0, 0, 14, 2  ], "texture": "#texture0"},
				"east":	{ "uv": [ 0, 0, 14, 2  ], "texture": "#texture0"}
			}
		},
		{
			"from": [ 5.0, 2.0, 4.5 ],
			"to": [ 11.0, 4.0, 11.5 ],
			"faces": {
				"down":	{ "texture": "#transparent" },
				"up":	{ "uv": [ 0, 0, 7, 6  ], "texture": "#texture2", "rotation": 90},
				"north":{ "uv": [ 7, 14, 13, 16  ], "texture": "#texture1"},
				"south":{ "uv": [ 7, 14, 13, 16  ], "texture": "#texture1"},
				"west":	{ "uv": [ 0, 14, 7, 16  ], "texture": "#texture1"},
				"east":	{ "uv": [ 0, 14, 7, 16  ], "texture": "#texture1"}
			}
		},
		{
			"from": [ 4.0, 2.0, 5.5 ],
			"to": [ 5.0, 4.0, 10.5 ],
			"faces": {
				"down":	{ "uv": [ 0, 9, 5, 10  ], "texture": "#texture2", "rotation": 270},
				"up":	{ "uv": [ 0, 8, 5, 9  ], "texture": "#texture2", "rotation": 90},
				"north":{ "uv": [ 14, 0, 15, 2  ], "texture": "#texture0"},
				"south":{ "uv": [ 14, 0, 15, 2  ], "texture": "#texture0"},
				"west":	{ "uv": [ 0, 6, 5, 8  ], "texture": "#texture2"},
				"east":	{ "uv": [ 0, 6, 5, 8  ], "texture": "#texture2"}
			}
		},
		{
			"from": [ 11.0, 2.0, 5.5 ],
			"to": [ 12.0, 4.0, 10.5 ],
			"faces": {
				"down":	{ "uv": [ 0, 9, 5, 10  ], "texture": "#texture2", "rotation": 270},
				"up":	{ "uv": [ 0, 8, 5, 9  ], "texture": "#texture2", "rotation": 90},
				"north":{ "uv": [ 14, 0, 15, 2  ], "texture": "#texture0"},
				"south":{ "uv": [ 14, 0, 15, 2  ], "texture": "#texture0"},
				"west":	{ "uv": [ 0, 6, 5, 8  ], "texture": "#texture2"},
				"east":	{ "uv": [ 0, 6, 5, 8  ], "texture": "#texture2"}
			}
		}
	]
}