{
	"parent": "futurepack:block/ftl_drive_base",
	"textures": {
	"down":"futurepack:blocks/multiblocks/ftl_drive_bottom_5",
	"north":"futurepack:blocks/multiblocks/ftl_drive_left_4",
	"east":"futurepack:blocks/multiblocks/ftl_drive_front_4"
	}
}
