{
	"parent": "futurepack:block/ftl_drive_base",
	"textures": {	
	"up":"futurepack:blocks/multiblocks/ftl_drive_top_2",	
	"east":"futurepack:blocks/multiblocks/ftl_drive_front_1", 	
	"south":"futurepack:blocks/multiblocks/ftl_drive_left_3" 	
	}
}
