{
    "parent": "block/block",
	"textures": {
        "particle": "futurepack:blocks/terrain/glowmelo_6",
		"side": "futurepack:blocks/terrain/glowmelo_6",
		"top": "futurepack:blocks/terrain/glowmelo_top_6"
    },
	"elements": [
        {   "from": [ 1, 0, 1 ],
            "to": [ 15, 16, 15 ],
            "faces": {
                "down":  { "texture": "#top"},
                "up":    { "texture": "#top"},
                "north": { "texture": "#side"},
                "south": { "texture": "#side"},
                "west":  { "texture": "#side"},
                "east":  { "texture": "#side"}
            }
        }
    ]
}
