{
	"parent": "futurepack:block/modul_base",
	"textures":
	{
		"metal":"futurepack:blocks/deko/color_iron_light_gray",
		"server":"futurepack:blocks/inventory/recheneinheit_g_front",
		"modul":"futurepack:blocks/deko/color_iron_light_gray",
		"lufter":"futurepack:blocks/inventory/recheneinheit_g_hinten"
	}
}
