{
	"parent": "block/cube",
	"textures": {
	"particle":"futurepack:blocks/machines/plasma_gen_front_w_0",
	"down":"futurepack:blocks/deko/color_iron_white",
	"up":"futurepack:blocks/machines/plasma_gen_top_w_0",
	"north":"futurepack:blocks/machines/plasma_gen_front_w_0",
	"east":"futurepack:blocks/deko/color_iron_white",
	"south":"futurepack:blocks/machines/plasma_gen_back_w_0",
	"west":"futurepack:blocks/deko/color_iron_white"
	}
}
