{
	"parent": "block/cube",
	"textures": {
	"particle":"futurepack:blocks/machines/plasma_gen_front_g_0",
	"down":"futurepack:blocks/deko/color_iron_light_gray",
	"up":"futurepack:blocks/machines/plasma_gen_top_g_0",
	"north":"futurepack:blocks/machines/plasma_gen_front_g_0",
	"east":"futurepack:blocks/deko/color_iron_light_gray",
	"south":"futurepack:blocks/machines/plasma_gen_back_g_0",
	"west":"futurepack:blocks/deko/color_iron_light_gray"
	}
}
