{
    "parent": "block/cube",
    "textures": {
        "down": "futurepack:blocks/machines/wasserturbine_top_w",
		"up": "futurepack:blocks/machines/wasserturbine_top_w",
		"north": "futurepack:blocks/machines/wasserturbine_side_w",
		"east": "futurepack:blocks/machines/wasserturbine_side_w",
		"west": "futurepack:blocks/machines/wasserturbine_side_w",
		"south": "futurepack:blocks/machines/wasserturbine_side_w",
		"particle": "futurepack:blocks/machines/wasserturbine_side_w"
    }
}
