{
  "data": {
    "0-1-4": "0",
    "0-1-8": "0",
    "0-2-4": "0",
    "0-2-8": "0",
    "0-3-4": "0",
    "0-3-8": "0",
    "1-0-2": "1",
    "1-0-3": "1",
    "1-0-4": "2",
    "1-0-5": "1",
    "1-0-6": "1",
    "1-0-7": "1",
    "1-0-8": "2",
    "1-0-9": "1",
    "1-0-10": "1",
    "1-1-2": "1",
    "1-1-3": "1",
    "1-1-4": "3",
    "1-1-5": "1",
    "1-1-6": "1",
    "1-1-7": "1",
    "1-1-8": "3",
    "1-1-9": "1",
    "1-1-10": "1",
    "1-2-2": "4",
    "1-2-3": "2",
    "1-2-4": "3",
    "1-2-5": "2",
    "1-2-6": "4",
    "1-2-7": "2",
    "1-2-8": "3",
    "1-2-9": "2",
    "1-2-10": "4",
    "1-3-2": "1",
    "1-3-3": "1",
    "1-3-4": "3",
    "1-3-5": "1",
    "1-3-6": "1",
    "1-3-7": "1",
    "1-3-8": "3",
    "1-3-9": "1",
    "1-3-10": "1",
    "1-4-2": "1",
    "1-4-3": "1",
    "1-4-4": "2",
    "1-4-5": "1",
    "1-4-6": "1",
    "1-4-7": "1",
    "1-4-8": "2",
    "1-4-9": "1",
    "1-4-10": "1",
    "2-0-2": "1",
    "2-0-3": "5",
    "2-0-4": "2",
    "2-0-5": "6",
    "2-0-6": "7",
    "2-0-7": "8",
    "2-0-8": "2",
    "2-0-9": "5",
    "2-0-10": "1",
    "2-1-2": "1",
    "2-1-3": "9",
    "2-1-4": "a",
    "2-1-5": "9",
    "2-1-6": "b",
    "2-1-7": "9",
    "2-1-8": "a",
    "2-1-9": "9",
    "2-1-10": "1",
    "2-2-2": "4",
    "2-2-3": "a",
    "2-2-4": "a",
    "2-2-5": "c",
    "2-2-6": "d",
    "2-2-7": "a",
    "2-2-8": "a",
    "2-2-9": "a",
    "2-2-10": "4",
    "2-3-2": "1",
    "2-3-3": "e",
    "2-3-4": "a",
    "2-3-5": "e",
    "2-3-6": "b",
    "2-3-7": "e",
    "2-3-8": "a",
    "2-3-9": "e",
    "2-3-10": "1",
    "2-4-2": "1",
    "2-4-3": "5",
    "2-4-4": "2",
    "2-4-5": "6",
    "2-4-6": "f",
    "2-4-7": "8",
    "2-4-8": "2",
    "2-4-9": "5",
    "2-4-10": "1",
    "3-0-0": "1",
    "3-0-1": "10",
    "3-0-2": "1",
    "3-0-3": "11",
    "3-0-4": "2",
    "3-0-5": "2",
    "3-0-6": "2",
    "3-0-7": "2",
    "3-0-8": "2",
    "3-0-9": "11",
    "3-0-10": "1",
    "3-0-11": "10",
    "3-0-12": "1",
    "3-1-0": "1",
    "3-1-1": "10",
    "3-1-2": "1",
    "3-1-3": "a",
    "3-1-4": "a",
    "3-1-5": "a",
    "3-1-6": "a",
    "3-1-7": "a",
    "3-1-8": "a",
    "3-1-9": "a",
    "3-1-10": "1",
    "3-1-11": "10",
    "3-1-12": "1",
    "3-2-0": "4",
    "3-2-1": "10",
    "3-2-2": "4",
    "3-2-3": "a",
    "3-2-4": "a",
    "3-2-5": "a",
    "3-2-6": "a",
    "3-2-7": "a",
    "3-2-8": "a",
    "3-2-9": "a",
    "3-2-10": "4",
    "3-2-11": "10",
    "3-2-12": "4",
    "3-3-0": "1",
    "3-3-1": "10",
    "3-3-2": "1",
    "3-3-3": "a",
    "3-3-4": "a",
    "3-3-5": "a",
    "3-3-6": "a",
    "3-3-7": "a",
    "3-3-8": "a",
    "3-3-9": "a",
    "3-3-10": "1",
    "3-3-11": "10",
    "3-3-12": "1",
    "3-4-0": "1",
    "3-4-1": "10",
    "3-4-2": "1",
    "3-4-3": "11",
    "3-4-4": "2",
    "3-4-5": "2",
    "3-4-6": "2",
    "3-4-7": "2",
    "3-4-8": "2",
    "3-4-9": "11",
    "3-4-10": "1",
    "3-4-11": "10",
    "3-4-12": "1",
    "4-0-0": "12",
    "4-0-1": "10",
    "4-0-2": "6",
    "4-0-3": "13",
    "4-0-4": "2",
    "4-0-5": "2",
    "4-0-6": "2",
    "4-0-7": "2",
    "4-0-8": "2",
    "4-0-9": "14",
    "4-0-10": "8",
    "4-0-11": "10",
    "4-0-12": "12",
    "4-1-0": "a",
    "4-1-1": "15",
    "4-1-2": "a",
    "4-1-3": "a",
    "4-1-4": "a",
    "4-1-5": "a",
    "4-1-6": "a",
    "4-1-7": "a",
    "4-1-8": "a",
    "4-1-9": "a",
    "4-1-10": "a",
    "4-1-11": "15",
    "4-1-12": "a",
    "4-2-0": "a",
    "4-2-1": "15",
    "4-2-2": "a",
    "4-2-3": "a",
    "4-2-4": "a",
    "4-2-5": "a",
    "4-2-6": "a",
    "4-2-7": "a",
    "4-2-8": "a",
    "4-2-9": "a",
    "4-2-10": "a",
    "4-2-11": "15",
    "4-2-12": "a",
    "4-3-0": "a",
    "4-3-1": "15",
    "4-3-2": "a",
    "4-3-3": "a",
    "4-3-4": "a",
    "4-3-5": "a",
    "4-3-6": "a",
    "4-3-7": "a",
    "4-3-8": "a",
    "4-3-9": "a",
    "4-3-10": "a",
    "4-3-11": "15",
    "4-3-12": "a",
    "4-4-0": "12",
    "4-4-1": "10",
    "4-4-2": "6",
    "4-4-3": "13",
    "4-4-4": "2",
    "4-4-5": "2",
    "4-4-6": "2",
    "4-4-7": "2",
    "4-4-8": "2",
    "4-4-9": "14",
    "4-4-10": "8",
    "4-4-11": "10",
    "4-4-12": "12",
    "5-0-0": "2",
    "5-0-1": "10",
    "5-0-2": "2",
    "5-0-3": "2",
    "5-0-4": "2",
    "5-0-5": "2",
    "5-0-6": "2",
    "5-0-7": "2",
    "5-0-8": "2",
    "5-0-9": "2",
    "5-0-10": "2",
    "5-0-11": "10",
    "5-0-12": "2",
    "5-1-0": "a",
    "5-1-1": "15",
    "5-1-2": "a",
    "5-1-3": "a",
    "5-1-4": "a",
    "5-1-5": "a",
    "5-1-6": "a",
    "5-1-7": "a",
    "5-1-8": "a",
    "5-1-9": "a",
    "5-1-10": "a",
    "5-1-11": "15",
    "5-1-12": "a",
    "5-2-0": "a",
    "5-2-1": "15",
    "5-2-2": "a",
    "5-2-3": "a",
    "5-2-4": "a",
    "5-2-5": "a",
    "5-2-6": "a",
    "5-2-7": "a",
    "5-2-8": "a",
    "5-2-9": "a",
    "5-2-10": "a",
    "5-2-11": "15",
    "5-2-12": "a",
    "5-3-0": "a",
    "5-3-1": "15",
    "5-3-2": "a",
    "5-3-3": "a",
    "5-3-4": "a",
    "5-3-5": "a",
    "5-3-6": "a",
    "5-3-7": "a",
    "5-3-8": "a",
    "5-3-9": "a",
    "5-3-10": "a",
    "5-3-11": "15",
    "5-3-12": "a",
    "5-4-0": "2",
    "5-4-1": "10",
    "5-4-2": "2",
    "5-4-3": "2",
    "5-4-4": "2",
    "5-4-5": "2",
    "5-4-6": "2",
    "5-4-7": "2",
    "5-4-8": "2",
    "5-4-9": "2",
    "5-4-10": "2",
    "5-4-11": "10",
    "5-4-12": "2",
    "6-0-0": "12",
    "6-0-1": "10",
    "6-0-2": "6",
    "6-0-3": "16",
    "6-0-4": "2",
    "6-0-5": "2",
    "6-0-6": "2",
    "6-0-7": "2",
    "6-0-8": "2",
    "6-0-9": "17",
    "6-0-10": "8",
    "6-0-11": "10",
    "6-0-12": "12",
    "6-1-0": "a",
    "6-1-1": "15",
    "6-1-2": "a",
    "6-1-3": "a",
    "6-1-4": "a",
    "6-1-5": "a",
    "6-1-6": "a",
    "6-1-7": "a",
    "6-1-8": "a",
    "6-1-9": "a",
    "6-1-10": "a",
    "6-1-11": "15",
    "6-1-12": "a",
    "6-2-0": "a",
    "6-2-1": "15",
    "6-2-2": "a",
    "6-2-3": "a",
    "6-2-4": "a",
    "6-2-5": "a",
    "6-2-6": "a",
    "6-2-7": "a",
    "6-2-8": "a",
    "6-2-9": "a",
    "6-2-10": "a",
    "6-2-11": "15",
    "6-2-12": "a",
    "6-3-0": "a",
    "6-3-1": "15",
    "6-3-2": "a",
    "6-3-3": "a",
    "6-3-4": "a",
    "6-3-5": "a",
    "6-3-6": "a",
    "6-3-7": "a",
    "6-3-8": "a",
    "6-3-9": "a",
    "6-3-10": "a",
    "6-3-11": "15",
    "6-3-12": "a",
    "6-4-0": "12",
    "6-4-1": "10",
    "6-4-2": "6",
    "6-4-3": "16",
    "6-4-4": "2",
    "6-4-5": "2",
    "6-4-6": "2",
    "6-4-7": "2",
    "6-4-8": "2",
    "6-4-9": "17",
    "6-4-10": "8",
    "6-4-11": "10",
    "6-4-12": "12",
    "7-0-0": "1",
    "7-0-1": "10",
    "7-0-2": "1",
    "7-0-3": "11",
    "7-0-4": "2",
    "7-0-5": "2",
    "7-0-6": "2",
    "7-0-7": "2",
    "7-0-8": "2",
    "7-0-9": "11",
    "7-0-10": "1",
    "7-0-11": "10",
    "7-0-12": "1",
    "7-1-0": "1",
    "7-1-1": "10",
    "7-1-2": "1",
    "7-1-3": "a",
    "7-1-4": "a",
    "7-1-5": "a",
    "7-1-6": "a",
    "7-1-7": "a",
    "7-1-8": "a",
    "7-1-9": "a",
    "7-1-10": "1",
    "7-1-11": "10",
    "7-1-12": "1",
    "7-2-0": "4",
    "7-2-1": "10",
    "7-2-2": "4",
    "7-2-3": "a",
    "7-2-4": "a",
    "7-2-5": "a",
    "7-2-6": "a",
    "7-2-7": "a",
    "7-2-8": "a",
    "7-2-9": "a",
    "7-2-10": "4",
    "7-2-11": "10",
    "7-2-12": "4",
    "7-3-0": "1",
    "7-3-1": "10",
    "7-3-2": "1",
    "7-3-3": "a",
    "7-3-4": "a",
    "7-3-5": "a",
    "7-3-6": "a",
    "7-3-7": "a",
    "7-3-8": "a",
    "7-3-9": "a",
    "7-3-10": "1",
    "7-3-11": "10",
    "7-3-12": "1",
    "7-4-0": "1",
    "7-4-1": "10",
    "7-4-2": "1",
    "7-4-3": "11",
    "7-4-4": "2",
    "7-4-5": "2",
    "7-4-6": "2",
    "7-4-7": "2",
    "7-4-8": "2",
    "7-4-9": "11",
    "7-4-10": "1",
    "7-4-11": "10",
    "7-4-12": "1",
    "8-0-2": "1",
    "8-0-3": "18",
    "8-0-4": "2",
    "8-0-5": "6",
    "8-0-6": "7",
    "8-0-7": "8",
    "8-0-8": "2",
    "8-0-9": "18",
    "8-0-10": "1",
    "8-1-2": "1",
    "8-1-3": "19",
    "8-1-4": "a",
    "8-1-5": "19",
    "8-1-6": "1a",
    "8-1-7": "19",
    "8-1-8": "a",
    "8-1-9": "19",
    "8-1-10": "1",
    "8-2-2": "4",
    "8-2-3": "a",
    "8-2-4": "a",
    "8-2-5": "a",
    "8-2-6": "1b",
    "8-2-7": "a",
    "8-2-8": "a",
    "8-2-9": "a",
    "8-2-10": "4",
    "8-3-2": "1",
    "8-3-3": "1c",
    "8-3-4": "a",
    "8-3-5": "1c",
    "8-3-6": "1d",
    "8-3-7": "1c",
    "8-3-8": "a",
    "8-3-9": "1c",
    "8-3-10": "1",
    "8-4-2": "1",
    "8-4-3": "18",
    "8-4-4": "2",
    "8-4-5": "6",
    "8-4-6": "f",
    "8-4-7": "8",
    "8-4-8": "2",
    "8-4-9": "18",
    "8-4-10": "1",
    "9-0-2": "1",
    "9-0-3": "1",
    "9-0-4": "2",
    "9-0-5": "1",
    "9-0-6": "1",
    "9-0-7": "1",
    "9-0-8": "2",
    "9-0-9": "1",
    "9-0-10": "1",
    "9-1-2": "1",
    "9-1-3": "1",
    "9-1-4": "3",
    "9-1-5": "1",
    "9-1-6": "1",
    "9-1-7": "1",
    "9-1-8": "3",
    "9-1-9": "1",
    "9-1-10": "1",
    "9-2-2": "4",
    "9-2-3": "2",
    "9-2-4": "3",
    "9-2-5": "2",
    "9-2-6": "4",
    "9-2-7": "2",
    "9-2-8": "3",
    "9-2-9": "2",
    "9-2-10": "4",
    "9-3-2": "1",
    "9-3-3": "1",
    "9-3-4": "3",
    "9-3-5": "1",
    "9-3-6": "1",
    "9-3-7": "1",
    "9-3-8": "3",
    "9-3-9": "1",
    "9-3-10": "1",
    "9-4-2": "1",
    "9-4-3": "1",
    "9-4-4": "2",
    "9-4-5": "1",
    "9-4-6": "1",
    "9-4-7": "1",
    "9-4-8": "2",
    "9-4-9": "1",
    "9-4-10": "1",
    "10-1-4": "0",
    "10-1-8": "0",
    "10-2-4": "0",
    "10-2-8": "0",
    "10-3-4": "0",
    "10-3-8": "0"
  },
  "inventorys": [],
  "doors": [
    {
      "facing": 2,
      "w": 3,
      "h": 3,
      "d": 1,
      "start": "4,1,0"
    },
    {
      "facing": 3,
      "w": 3,
      "h": 3,
      "d": 1,
      "start": "4,1,12"
    }
  ],
  "stateMap": {
    "0": "futurepack:wakurium_brick:",
    "1": "futurepack:color_iron_gray:",
    "10": "futurepack:neon_brick:",
    "11": "futurepack:quantanium:down\u003dfalse;east\u003dtrue;glowing\u003dfalse;north\u003dfalse;south\u003dfalse;up\u003dfalse;west\u003dtrue",
    "12": "futurepack:quantanium:down\u003dfalse;east\u003dfalse;glowing\u003dfalse;north\u003dfalse;south\u003dfalse;up\u003dfalse;west\u003dfalse",
    "13": "futurepack:quantanium:down\u003dfalse;east\u003dfalse;glowing\u003dfalse;north\u003dtrue;south\u003dfalse;up\u003dfalse;west\u003dtrue",
    "14": "futurepack:quantanium:down\u003dfalse;east\u003dfalse;glowing\u003dfalse;north\u003dfalse;south\u003dtrue;up\u003dfalse;west\u003dtrue",
    "15": "futurepack:force_field:",
    "16": "futurepack:quantanium:down\u003dfalse;east\u003dtrue;glowing\u003dfalse;north\u003dtrue;south\u003dfalse;up\u003dfalse;west\u003dfalse",
    "17": "futurepack:quantanium:down\u003dfalse;east\u003dtrue;glowing\u003dfalse;north\u003dfalse;south\u003dtrue;up\u003dfalse;west\u003dfalse",
    "18": "futurepack:quantanium:down\u003dfalse;east\u003dfalse;glowing\u003dfalse;north\u003dfalse;south\u003dfalse;up\u003dfalse;west\u003dtrue",
    "19": "futurepack:color_iron_stair_black:facing\u003deast;half\u003dbottom;shape\u003dstraight;waterlogged\u003dfalse",
    "1a": "futurepack:quantanium:down\u003dtrue;east\u003dfalse;glowing\u003dfalse;north\u003dfalse;south\u003dfalse;up\u003dfalse;west\u003dfalse",
    "1b": "futurepack:dungeon_checkpoint:facing\u003dwest",
    "1c": "futurepack:color_iron_stair_black:facing\u003deast;half\u003dtop;shape\u003dstraight;waterlogged\u003dfalse",
    "1d": "futurepack:quantanium:down\u003dfalse;east\u003dfalse;glowing\u003dfalse;north\u003dfalse;south\u003dfalse;up\u003dtrue;west\u003dfalse",
    "2": "futurepack:color_iron_black:",
    "3": "futurepack:color_gitter_black:",
    "4": "futurepack:color_iron_purple:",
    "5": "futurepack:quantanium:down\u003dfalse;east\u003dtrue;glowing\u003dfalse;north\u003dfalse;south\u003dfalse;up\u003dfalse;west\u003dfalse",
    "6": "futurepack:quantanium:down\u003dfalse;east\u003dfalse;glowing\u003dfalse;north\u003dfalse;south\u003dtrue;up\u003dfalse;west\u003dfalse",
    "7": "futurepack:quantanium:down\u003dfalse;east\u003dfalse;glowing\u003dfalse;north\u003dtrue;south\u003dtrue;up\u003dtrue;west\u003dfalse",
    "8": "futurepack:quantanium:down\u003dfalse;east\u003dfalse;glowing\u003dfalse;north\u003dtrue;south\u003dfalse;up\u003dfalse;west\u003dfalse",
    "9": "futurepack:color_iron_stair_black:facing\u003dwest;half\u003dbottom;shape\u003dstraight;waterlogged\u003dfalse",
    "a": "minecraft:air:",
    "b": "futurepack:quantanium:down\u003dtrue;east\u003dfalse;glowing\u003dfalse;north\u003dfalse;south\u003dfalse;up\u003dtrue;west\u003dfalse",
    "c": "futurepack:fp_lever:face\u003dwall;facing\u003deast;powered\u003dfalse",
    "d": "futurepack:dungeon_core:",
    "e": "futurepack:color_iron_stair_black:facing\u003dwest;half\u003dtop;shape\u003dstraight;waterlogged\u003dfalse",
    "f": "futurepack:quantanium:down\u003dtrue;east\u003dfalse;glowing\u003dfalse;north\u003dtrue;south\u003dtrue;up\u003dfalse;west\u003dfalse"
  }
}