{
  "data": {
    "0-2-4": "0",
    "0-3-4": "1",
    "0-4-4": "1",
    "0-5-4": "2",
    "1-2-4": "3",
    "1-5-4": "4",
    "2-0-1": "0",
    "2-0-8": "0",
    "2-1-1": "1",
    "2-1-3": "5",
    "2-1-6": "5",
    "2-1-8": "1",
    "2-2-1": "6",
    "2-2-2": "7",
    "2-2-3": "8",
    "2-2-4": "7",
    "2-2-6": "8",
    "2-2-7": "7",
    "2-2-8": "6",
    "2-3-2": "9",
    "2-3-4": "9",
    "2-3-7": "a",
    "2-5-4": "b",
    "2-5-5": "c",
    "2-5-6": "c",
    "2-5-7": "c",
    "2-5-8": "c",
    "2-5-9": "d",
    "2-6-9": "2",
    "3-0-1": "4",
    "3-0-8": "4",
    "3-1-0": "7",
    "3-1-1": "7",
    "3-1-2": "e",
    "3-1-3": "7",
    "3-1-4": "e",
    "3-1-5": "7",
    "3-1-6": "7",
    "3-1-7": "e",
    "3-1-8": "7",
    "3-1-9": "7",
    "3-2-0": "7",
    "3-2-1": "7",
    "3-2-2": "f",
    "3-2-3": "7",
    "3-2-4": "f",
    "3-2-5": "7",
    "3-2-6": "7",
    "3-2-7": "f",
    "3-2-8": "7",
    "3-2-9": "7",
    "3-3-0": "10",
    "3-3-1": "10",
    "3-3-2": "11",
    "3-3-3": "10",
    "3-3-4": "11",
    "3-3-5": "10",
    "3-3-6": "10",
    "3-3-7": "12",
    "3-3-8": "10",
    "3-3-9": "10",
    "3-4-0": "7",
    "3-4-1": "7",
    "3-4-2": "13",
    "3-4-3": "7",
    "3-4-4": "13",
    "3-4-5": "7",
    "3-4-6": "7",
    "3-4-7": "13",
    "3-4-8": "7",
    "3-4-9": "7",
    "3-5-0": "7",
    "3-5-1": "7",
    "3-5-2": "14",
    "3-5-3": "7",
    "3-5-4": "14",
    "3-5-5": "7",
    "3-5-6": "7",
    "3-5-7": "14",
    "3-5-8": "7",
    "3-5-9": "7",
    "3-6-9": "4",
    "4-0-1": "4",
    "4-0-8": "4",
    "4-1-0": "7",
    "4-1-1": "15",
    "4-1-2": "16",
    "4-1-3": "17",
    "4-1-4": "16",
    "4-1-5": "17",
    "4-1-6": "17",
    "4-1-7": "16",
    "4-1-8": "18",
    "4-1-9": "7",
    "4-2-0": "7",
    "4-2-1": "19",
    "4-2-2": "19",
    "4-2-3": "19",
    "4-2-4": "19",
    "4-2-5": "19",
    "4-2-6": "19",
    "4-2-7": "19",
    "4-2-8": "19",
    "4-2-9": "7",
    "4-3-0": "10",
    "4-3-1": "19",
    "4-3-2": "1a",
    "4-3-3": "19",
    "4-3-4": "1a",
    "4-3-5": "19",
    "4-3-6": "19",
    "4-3-7": "1b",
    "4-3-8": "19",
    "4-3-9": "10",
    "4-4-0": "7",
    "4-4-1": "19",
    "4-4-2": "19",
    "4-4-3": "19",
    "4-4-4": "19",
    "4-4-5": "19",
    "4-4-6": "19",
    "4-4-7": "19",
    "4-4-8": "19",
    "4-4-9": "7",
    "4-5-0": "7",
    "4-5-1": "7",
    "4-5-2": "1c",
    "4-5-3": "7",
    "4-5-4": "1c",
    "4-5-5": "7",
    "4-5-6": "7",
    "4-5-7": "1c",
    "4-5-8": "7",
    "4-5-9": "7",
    "4-6-9": "4",
    "5-0-1": "4",
    "5-0-8": "4",
    "5-1-0": "7",
    "5-1-1": "1c",
    "5-1-2": "11",
    "5-1-3": "11",
    "5-1-4": "11",
    "5-1-5": "11",
    "5-1-6": "11",
    "5-1-7": "11",
    "5-1-8": "1c",
    "5-1-9": "7",
    "5-2-0": "7",
    "5-2-1": "19",
    "5-2-2": "19",
    "5-2-3": "19",
    "5-2-4": "19",
    "5-2-5": "19",
    "5-2-6": "19",
    "5-2-7": "19",
    "5-2-8": "19",
    "5-2-9": "7",
    "5-3-0": "10",
    "5-3-1": "19",
    "5-3-2": "19",
    "5-3-3": "19",
    "5-3-4": "19",
    "5-3-5": "19",
    "5-3-6": "19",
    "5-3-7": "19",
    "5-3-8": "19",
    "5-3-9": "10",
    "5-4-0": "7",
    "5-4-1": "19",
    "5-4-2": "19",
    "5-4-3": "19",
    "5-4-4": "19",
    "5-4-5": "19",
    "5-4-6": "19",
    "5-4-7": "19",
    "5-4-8": "19",
    "5-4-9": "7",
    "5-5-0": "7",
    "5-5-1": "7",
    "5-5-2": "1c",
    "5-5-3": "7",
    "5-5-4": "1c",
    "5-5-5": "7",
    "5-5-6": "7",
    "5-5-7": "1c",
    "5-5-8": "7",
    "5-5-9": "7",
    "5-6-9": "1d",
    "5-7-9": "2",
    "6-0-1": "4",
    "6-0-8": "4",
    "6-1-0": "1e",
    "6-1-1": "1f",
    "6-1-2": "11",
    "6-1-3": "11",
    "6-1-4": "11",
    "6-1-5": "11",
    "6-1-6": "11",
    "6-1-7": "11",
    "6-1-8": "20",
    "6-1-9": "21",
    "6-2-0": "19",
    "6-2-1": "19",
    "6-2-2": "19",
    "6-2-3": "19",
    "6-2-4": "19",
    "6-2-5": "19",
    "6-2-6": "19",
    "6-2-7": "19",
    "6-2-8": "19",
    "6-2-9": "19",
    "6-3-0": "19",
    "6-3-1": "19",
    "6-3-2": "19",
    "6-3-3": "19",
    "6-3-4": "19",
    "6-3-5": "19",
    "6-3-6": "19",
    "6-3-7": "19",
    "6-3-8": "19",
    "6-3-9": "19",
    "6-4-0": "19",
    "6-4-1": "19",
    "6-4-2": "19",
    "6-4-3": "19",
    "6-4-4": "19",
    "6-4-5": "19",
    "6-4-6": "19",
    "6-4-7": "19",
    "6-4-8": "19",
    "6-4-9": "19",
    "6-5-0": "15",
    "6-5-1": "17",
    "6-5-2": "16",
    "6-5-3": "17",
    "6-5-4": "16",
    "6-5-5": "17",
    "6-5-6": "17",
    "6-5-7": "16",
    "6-5-8": "17",
    "6-5-9": "18",
    "6-6-0": "11",
    "6-6-1": "11",
    "6-6-2": "11",
    "6-6-3": "11",
    "6-6-4": "11",
    "6-6-5": "11",
    "6-6-6": "11",
    "6-6-7": "11",
    "6-6-8": "11",
    "6-6-9": "11",
    "6-7-9": "4",
    "7-0-1": "4",
    "7-0-8": "4",
    "7-1-0": "11",
    "7-1-1": "11",
    "7-1-2": "11",
    "7-1-3": "11",
    "7-1-4": "11",
    "7-1-5": "11",
    "7-1-6": "11",
    "7-1-7": "11",
    "7-1-8": "11",
    "7-1-9": "11",
    "7-2-0": "19",
    "7-2-1": "19",
    "7-2-2": "19",
    "7-2-3": "19",
    "7-2-4": "19",
    "7-2-5": "19",
    "7-2-6": "19",
    "7-2-7": "19",
    "7-2-8": "19",
    "7-2-9": "19",
    "7-3-0": "19",
    "7-3-1": "19",
    "7-3-2": "19",
    "7-3-3": "19",
    "7-3-4": "19",
    "7-3-5": "19",
    "7-3-6": "19",
    "7-3-7": "19",
    "7-3-8": "19",
    "7-3-9": "19",
    "7-4-0": "19",
    "7-4-1": "19",
    "7-4-2": "19",
    "7-4-3": "19",
    "7-4-4": "19",
    "7-4-5": "19",
    "7-4-6": "19",
    "7-4-7": "19",
    "7-4-8": "19",
    "7-4-9": "19",
    "7-5-0": "1c",
    "7-5-1": "19",
    "7-5-2": "19",
    "7-5-3": "19",
    "7-5-4": "19",
    "7-5-5": "19",
    "7-5-6": "19",
    "7-5-7": "19",
    "7-5-8": "19",
    "7-5-9": "1c",
    "7-6-0": "11",
    "7-6-1": "22",
    "7-6-2": "22",
    "7-6-3": "22",
    "7-6-4": "22",
    "7-6-5": "22",
    "7-6-6": "22",
    "7-6-7": "22",
    "7-6-8": "22",
    "7-6-9": "11",
    "7-7-1": "11",
    "7-7-2": "11",
    "7-7-3": "11",
    "7-7-4": "11",
    "7-7-5": "11",
    "7-7-6": "11",
    "7-7-7": "11",
    "7-7-8": "11",
    "7-7-9": "1d",
    "7-8-9": "2",
    "8-0-1": "4",
    "8-0-8": "4",
    "8-1-0": "1e",
    "8-1-1": "18",
    "8-1-2": "11",
    "8-1-3": "11",
    "8-1-4": "11",
    "8-1-5": "11",
    "8-1-6": "11",
    "8-1-7": "11",
    "8-1-8": "15",
    "8-1-9": "21",
    "8-2-0": "19",
    "8-2-1": "19",
    "8-2-2": "19",
    "8-2-3": "19",
    "8-2-4": "19",
    "8-2-5": "19",
    "8-2-6": "19",
    "8-2-7": "19",
    "8-2-8": "19",
    "8-2-9": "19",
    "8-3-0": "19",
    "8-3-1": "19",
    "8-3-2": "19",
    "8-3-3": "19",
    "8-3-4": "19",
    "8-3-5": "19",
    "8-3-6": "19",
    "8-3-7": "19",
    "8-3-8": "19",
    "8-3-9": "19",
    "8-4-0": "19",
    "8-4-1": "19",
    "8-4-2": "19",
    "8-4-3": "19",
    "8-4-4": "19",
    "8-4-5": "19",
    "8-4-6": "19",
    "8-4-7": "19",
    "8-4-8": "19",
    "8-4-9": "19",
    "8-5-0": "1c",
    "8-5-1": "19",
    "8-5-2": "19",
    "8-5-3": "19",
    "8-5-4": "19",
    "8-5-5": "19",
    "8-5-6": "19",
    "8-5-7": "19",
    "8-5-8": "19",
    "8-5-9": "1c",
    "8-6-0": "11",
    "8-6-1": "19",
    "8-6-2": "19",
    "8-6-3": "19",
    "8-6-4": "19",
    "8-6-5": "19",
    "8-6-6": "19",
    "8-6-7": "19",
    "8-6-8": "19",
    "8-6-9": "11",
    "8-7-0": "11",
    "8-7-1": "22",
    "8-7-2": "22",
    "8-7-3": "22",
    "8-7-4": "22",
    "8-7-5": "22",
    "8-7-6": "22",
    "8-7-7": "22",
    "8-7-8": "22",
    "8-7-9": "11",
    "8-8-9": "4",
    "9-0-1": "4",
    "9-0-8": "4",
    "9-1-0": "7",
    "9-1-1": "1c",
    "9-1-2": "11",
    "9-1-3": "11",
    "9-1-4": "11",
    "9-1-5": "11",
    "9-1-6": "11",
    "9-1-7": "11",
    "9-1-8": "1c",
    "9-1-9": "7",
    "9-2-0": "7",
    "9-2-1": "19",
    "9-2-2": "19",
    "9-2-3": "19",
    "9-2-4": "19",
    "9-2-5": "19",
    "9-2-6": "19",
    "9-2-7": "19",
    "9-2-8": "19",
    "9-2-9": "7",
    "9-3-0": "10",
    "9-3-1": "19",
    "9-3-2": "19",
    "9-3-3": "19",
    "9-3-4": "19",
    "9-3-5": "19",
    "9-3-6": "19",
    "9-3-7": "19",
    "9-3-8": "19",
    "9-3-9": "10",
    "9-4-0": "7",
    "9-4-1": "19",
    "9-4-2": "19",
    "9-4-3": "19",
    "9-4-4": "19",
    "9-4-5": "19",
    "9-4-6": "19",
    "9-4-7": "19",
    "9-4-8": "19",
    "9-4-9": "7",
    "9-5-0": "1c",
    "9-5-1": "19",
    "9-5-2": "19",
    "9-5-3": "19",
    "9-5-4": "19",
    "9-5-5": "19",
    "9-5-6": "19",
    "9-5-7": "19",
    "9-5-8": "19",
    "9-5-9": "1c",
    "9-6-0": "11",
    "9-6-1": "19",
    "9-6-2": "19",
    "9-6-3": "19",
    "9-6-4": "19",
    "9-6-5": "19",
    "9-6-6": "19",
    "9-6-7": "19",
    "9-6-8": "19",
    "9-6-9": "11",
    "9-7-0": "11",
    "9-7-1": "19",
    "9-7-2": "19",
    "9-7-3": "19",
    "9-7-4": "19",
    "9-7-5": "19",
    "9-7-6": "19",
    "9-7-7": "19",
    "9-7-8": "19",
    "9-7-9": "11",
    "9-8-1": "11",
    "9-8-2": "11",
    "9-8-3": "11",
    "9-8-4": "11",
    "9-8-5": "11",
    "9-8-6": "11",
    "9-8-7": "11",
    "9-8-8": "11",
    "9-8-9": "4",
    "10-0-1": "4",
    "10-0-8": "4",
    "10-1-0": "7",
    "10-1-1": "20",
    "10-1-2": "23",
    "10-1-3": "17",
    "10-1-4": "17",
    "10-1-5": "17",
    "10-1-6": "17",
    "10-1-7": "23",
    "10-1-8": "1f",
    "10-1-9": "7",
    "10-2-0": "7",
    "10-2-1": "19",
    "10-2-2": "19",
    "10-2-3": "19",
    "10-2-4": "19",
    "10-2-5": "19",
    "10-2-6": "19",
    "10-2-7": "19",
    "10-2-8": "19",
    "10-2-9": "7",
    "10-3-0": "10",
    "10-3-1": "19",
    "10-3-2": "19",
    "10-3-3": "19",
    "10-3-4": "19",
    "10-3-5": "19",
    "10-3-6": "19",
    "10-3-7": "19",
    "10-3-8": "19",
    "10-3-9": "10",
    "10-4-0": "7",
    "10-4-1": "19",
    "10-4-2": "19",
    "10-4-3": "19",
    "10-4-4": "19",
    "10-4-5": "19",
    "10-4-6": "19",
    "10-4-7": "19",
    "10-4-8": "19",
    "10-4-9": "7",
    "10-5-0": "1c",
    "10-5-1": "19",
    "10-5-2": "19",
    "10-5-3": "19",
    "10-5-4": "19",
    "10-5-5": "19",
    "10-5-6": "19",
    "10-5-7": "19",
    "10-5-8": "19",
    "10-5-9": "1c",
    "10-6-0": "11",
    "10-6-1": "19",
    "10-6-2": "19",
    "10-6-3": "19",
    "10-6-4": "19",
    "10-6-5": "19",
    "10-6-6": "19",
    "10-6-7": "19",
    "10-6-8": "19",
    "10-6-9": "11",
    "10-7-0": "11",
    "10-7-1": "19",
    "10-7-2": "19",
    "10-7-3": "19",
    "10-7-4": "19",
    "10-7-5": "19",
    "10-7-6": "19",
    "10-7-7": "19",
    "10-7-8": "19",
    "10-7-9": "11",
    "10-8-1": "11",
    "10-8-2": "11",
    "10-8-3": "11",
    "10-8-4": "11",
    "10-8-5": "11",
    "10-8-6": "11",
    "10-8-7": "11",
    "10-8-8": "11",
    "10-8-9": "4",
    "11-0-1": "4",
    "11-0-8": "4",
    "11-1-0": "7",
    "11-1-1": "7",
    "11-1-2": "24",
    "11-1-3": "7",
    "11-1-4": "7",
    "11-1-5": "7",
    "11-1-6": "7",
    "11-1-7": "24",
    "11-1-8": "7",
    "11-1-9": "7",
    "11-2-0": "7",
    "11-2-1": "7",
    "11-2-2": "25",
    "11-2-3": "19",
    "11-2-4": "26",
    "11-2-5": "26",
    "11-2-6": "26",
    "11-2-7": "25",
    "11-2-8": "7",
    "11-2-9": "7",
    "11-3-0": "10",
    "11-3-1": "10",
    "11-3-2": "25",
    "11-3-3": "27",
    "11-3-4": "7",
    "11-3-5": "7",
    "11-3-6": "26",
    "11-3-7": "25",
    "11-3-8": "10",
    "11-3-9": "10",
    "11-4-0": "7",
    "11-4-1": "7",
    "11-4-2": "25",
    "11-4-3": "26",
    "11-4-4": "26",
    "11-4-5": "26",
    "11-4-6": "26",
    "11-4-7": "25",
    "11-4-8": "7",
    "11-4-9": "7",
    "11-5-0": "20",
    "11-5-1": "17",
    "11-5-2": "28",
    "11-5-3": "26",
    "11-5-4": "7",
    "11-5-5": "7",
    "11-5-6": "7",
    "11-5-7": "29",
    "11-5-8": "17",
    "11-5-9": "1f",
    "11-6-0": "11",
    "11-6-1": "11",
    "11-6-2": "25",
    "11-6-3": "26",
    "11-6-4": "26",
    "11-6-5": "26",
    "11-6-6": "26",
    "11-6-7": "25",
    "11-6-8": "2a",
    "11-6-9": "11",
    "11-7-0": "11",
    "11-7-1": "11",
    "11-7-2": "2b",
    "11-7-3": "17",
    "11-7-4": "17",
    "11-7-5": "17",
    "11-7-6": "17",
    "11-7-7": "2c",
    "11-7-8": "11",
    "11-7-9": "11",
    "11-8-1": "11",
    "11-8-2": "11",
    "11-8-3": "11",
    "11-8-4": "11",
    "11-8-5": "2d",
    "11-8-6": "c",
    "11-8-7": "c",
    "11-8-8": "c",
    "11-8-9": "2e",
    "12-0-1": "1d",
    "12-0-3": "2f",
    "12-0-4": "c",
    "12-0-5": "c",
    "12-0-6": "30",
    "12-0-7": "c",
    "12-0-8": "2e",
    "12-1-1": "1",
    "12-1-3": "31",
    "12-1-4": "7",
    "12-1-5": "7",
    "12-1-6": "31",
    "12-1-7": "7",
    "12-2-1": "1",
    "12-2-2": "32",
    "12-2-3": "33",
    "12-2-4": "33",
    "12-2-5": "33",
    "12-2-6": "19",
    "12-2-7": "7",
    "12-3-1": "1",
    "12-3-3": "7",
    "12-3-4": "7",
    "12-3-5": "7",
    "12-3-6": "19",
    "12-3-7": "7",
    "12-4-1": "1",
    "12-4-2": "7",
    "12-4-3": "19",
    "12-4-4": "33",
    "12-4-5": "33",
    "12-4-6": "19",
    "12-4-7": "34",
    "12-4-8": "35",
    "12-5-1": "1",
    "12-5-2": "7",
    "12-5-3": "19",
    "12-5-4": "7",
    "12-5-5": "36",
    "12-5-6": "36",
    "12-5-7": "7",
    "12-5-8": "37",
    "12-5-9": "38",
    "12-6-1": "6",
    "12-6-2": "32",
    "12-6-3": "19",
    "12-6-4": "33",
    "12-6-5": "33",
    "12-6-6": "33",
    "12-6-7": "7",
    "12-6-8": "7",
    "12-6-9": "19",
    "12-7-2": "7",
    "12-7-3": "36",
    "12-7-4": "7",
    "12-7-5": "7",
    "12-7-6": "39",
    "12-7-7": "19",
    "12-7-8": "3a",
    "12-7-9": "19",
    "12-8-5": "4",
    "12-8-6": "11",
    "13-0-6": "1d",
    "13-1-6": "6",
    "13-2-3": "7",
    "13-2-4": "7",
    "13-2-5": "7",
    "13-2-6": "31",
    "13-3-3": "7",
    "13-3-4": "7",
    "13-3-5": "7",
    "13-3-6": "7",
    "13-4-3": "7",
    "13-4-4": "7",
    "13-4-5": "7",
    "13-4-6": "7",
    "13-5-3": "7",
    "13-5-4": "7",
    "13-5-5": "7",
    "13-5-6": "7",
    "13-5-9": "4",
    "13-6-3": "7",
    "13-6-4": "7",
    "13-6-5": "7",
    "13-6-6": "7",
    "13-6-8": "7",
    "13-7-3": "7",
    "13-7-6": "3b",
    "13-7-8": "3c",
    "13-8-4": "2d",
    "13-8-5": "2e",
    "14-4-5": "3d",
    "14-4-6": "c",
    "14-4-7": "c",
    "14-4-8": "c",
    "14-4-9": "d",
    "14-5-4": "3d",
    "14-5-5": "3e",
    "14-5-6": "7",
    "14-5-7": "7",
    "14-5-8": "7",
    "14-5-9": "3f",
    "14-6-4": "1",
    "14-6-6": "7",
    "14-6-7": "40",
    "14-6-8": "41",
    "14-7-4": "1",
    "14-7-6": "42",
    "14-7-8": "19",
    "14-8-4": "3f"
  },
  "inventorys": [
    "12-7-6"
  ],
  "doors": [
    {
      "facing": 2,
      "w": 3,
      "h": 3,
      "d": 1,
      "start": "6,2,0"
    },
    {
      "facing": 3,
      "w": 3,
      "h": 3,
      "d": 1,
      "start": "6,2,9"
    }
  ],
  "stateMap": {
    "0": "futurepack:wire_redstone:down\u003dfalse;east\u003dtrue;hologram\u003dfalse;north\u003dfalse;redstone\u003dfalse;redstone_dust\u003dfalse;south\u003dfalse;state\u003doff;up\u003dtrue;west\u003dfalse",
    "1": "futurepack:wire_redstone:down\u003dtrue;east\u003dfalse;hologram\u003dfalse;north\u003dfalse;redstone\u003dfalse;redstone_dust\u003dfalse;south\u003dfalse;state\u003doff;up\u003dtrue;west\u003dfalse",
    "10": "futurepack:color_iron_purple:",
    "11": "futurepack:color_iron_black:",
    "12": "minecraft:observer:facing\u003deast;powered\u003dfalse",
    "13": "futurepack:quantanium:down\u003dfalse;east\u003dfalse;glowing\u003dfalse;north\u003dfalse;south\u003dfalse;up\u003dtrue;west\u003dfalse",
    "14": "futurepack:quantanium:down\u003dtrue;east\u003dtrue;glowing\u003dfalse;north\u003dfalse;south\u003dfalse;up\u003dfalse;west\u003dfalse",
    "15": "futurepack:quantanium:down\u003dfalse;east\u003dtrue;glowing\u003dfalse;north\u003dfalse;south\u003dtrue;up\u003dfalse;west\u003dfalse",
    "16": "futurepack:quantanium:down\u003dfalse;east\u003dfalse;glowing\u003dfalse;north\u003dtrue;south\u003dtrue;up\u003dfalse;west\u003dtrue",
    "17": "futurepack:quantanium:down\u003dfalse;east\u003dfalse;glowing\u003dfalse;north\u003dtrue;south\u003dtrue;up\u003dfalse;west\u003dfalse",
    "18": "futurepack:quantanium:down\u003dfalse;east\u003dtrue;glowing\u003dfalse;north\u003dtrue;south\u003dfalse;up\u003dfalse;west\u003dfalse",
    "19": "minecraft:air:",
    "1a": "futurepack:button:face\u003dwall;facing\u003deast;powered\u003dfalse",
    "1b": "futurepack:fp_lever:face\u003dwall;facing\u003deast;powered\u003dfalse",
    "1c": "futurepack:quantanium:down\u003dfalse;east\u003dtrue;glowing\u003dfalse;north\u003dfalse;south\u003dfalse;up\u003dfalse;west\u003dtrue",
    "1d": "futurepack:wire_redstone:down\u003dfalse;east\u003dfalse;hologram\u003dfalse;north\u003dfalse;redstone\u003dfalse;redstone_dust\u003dfalse;south\u003dfalse;state\u003doff;up\u003dtrue;west\u003dtrue",
    "1e": "futurepack:quantanium:down\u003dfalse;east\u003dfalse;glowing\u003dfalse;north\u003dfalse;south\u003dtrue;up\u003dfalse;west\u003dfalse",
    "1f": "futurepack:quantanium:down\u003dfalse;east\u003dfalse;glowing\u003dfalse;north\u003dtrue;south\u003dfalse;up\u003dfalse;west\u003dtrue",
    "2": "futurepack:wire_redstone:down\u003dtrue;east\u003dtrue;hologram\u003dfalse;north\u003dfalse;redstone\u003dfalse;redstone_dust\u003dfalse;south\u003dfalse;state\u003doff;up\u003dfalse;west\u003dfalse",
    "20": "futurepack:quantanium:down\u003dfalse;east\u003dfalse;glowing\u003dfalse;north\u003dfalse;south\u003dtrue;up\u003dfalse;west\u003dtrue",
    "21": "futurepack:quantanium:down\u003dfalse;east\u003dfalse;glowing\u003dfalse;north\u003dtrue;south\u003dfalse;up\u003dfalse;west\u003dfalse",
    "22": "futurepack:color_iron_stair_black:facing\u003dwest;half\u003dtop;shape\u003dstraight;waterlogged\u003dfalse",
    "23": "futurepack:quantanium:down\u003dfalse;east\u003dtrue;glowing\u003dfalse;north\u003dtrue;south\u003dtrue;up\u003dfalse;west\u003dfalse",
    "24": "futurepack:quantanium:down\u003dfalse;east\u003dfalse;glowing\u003dfalse;north\u003dfalse;south\u003dfalse;up\u003dtrue;west\u003dtrue",
    "25": "futurepack:quantanium:down\u003dtrue;east\u003dfalse;glowing\u003dfalse;north\u003dfalse;south\u003dfalse;up\u003dtrue;west\u003dfalse",
    "26": "minecraft:glass:",
    "27": "futurepack:color_iron_stair_gray:facing\u003deast;half\u003dtop;shape\u003dstraight;waterlogged\u003dfalse",
    "28": "futurepack:quantanium:down\u003dtrue;east\u003dfalse;glowing\u003dfalse;north\u003dtrue;south\u003dfalse;up\u003dtrue;west\u003dfalse",
    "29": "futurepack:quantanium:down\u003dtrue;east\u003dfalse;glowing\u003dfalse;north\u003dfalse;south\u003dtrue;up\u003dtrue;west\u003dfalse",
    "2a": "futurepack:color_plasma_lamp_black:lit\u003dtrue",
    "2b": "futurepack:quantanium:down\u003dtrue;east\u003dfalse;glowing\u003dfalse;north\u003dfalse;south\u003dtrue;up\u003dfalse;west\u003dfalse",
    "2c": "futurepack:quantanium:down\u003dtrue;east\u003dfalse;glowing\u003dfalse;north\u003dtrue;south\u003dfalse;up\u003dfalse;west\u003dfalse",
    "2d": "futurepack:wire_redstone:down\u003dfalse;east\u003dtrue;hologram\u003dfalse;north\u003dfalse;redstone\u003dfalse;redstone_dust\u003dfalse;south\u003dtrue;state\u003doff;up\u003dfalse;west\u003dfalse",
    "2e": "futurepack:wire_redstone:down\u003dfalse;east\u003dfalse;hologram\u003dfalse;north\u003dtrue;redstone\u003dfalse;redstone_dust\u003dfalse;south\u003dfalse;state\u003doff;up\u003dfalse;west\u003dtrue",
    "2f": "futurepack:wire_redstone:down\u003dfalse;east\u003dfalse;hologram\u003dfalse;north\u003dfalse;redstone\u003dfalse;redstone_dust\u003dfalse;south\u003dtrue;state\u003doff;up\u003dfalse;west\u003dfalse",
    "3": "futurepack:wire_redstone:down\u003dfalse;east\u003dfalse;hologram\u003dfalse;north\u003dfalse;redstone\u003dfalse;redstone_dust\u003dfalse;south\u003dfalse;state\u003doff;up\u003dfalse;west\u003dtrue",
    "30": "futurepack:wire_redstone:down\u003dfalse;east\u003dtrue;hologram\u003dfalse;north\u003dtrue;redstone\u003dfalse;redstone_dust\u003dfalse;south\u003dtrue;state\u003doff;up\u003dfalse;west\u003dfalse",
    "31": "futurepack:gravity_pulser:facing\u003dup",
    "32": "futurepack:gravity_pulser:facing\u003dsouth",
    "33": "minecraft:rail:shape\u003dnorth_south",
    "34": "futurepack:gravity_pulser:facing\u003dnorth",
    "35": "futurepack:wire_redstone:down\u003dfalse;east\u003dfalse;hologram\u003dfalse;north\u003dfalse;redstone\u003dfalse;redstone_dust\u003dfalse;south\u003dfalse;state\u003doff;up\u003dtrue;west\u003dfalse",
    "36": "futurepack:color_iron_slab_gray:type\u003dtop;waterlogged\u003dfalse",
    "37": "futurepack:wire_redstone:down\u003dtrue;east\u003dfalse;hologram\u003dfalse;north\u003dfalse;redstone\u003dfalse;redstone_dust\u003dfalse;south\u003dtrue;state\u003doff;up\u003dfalse;west\u003dfalse",
    "38": "futurepack:wire_redstone:down\u003dfalse;east\u003dtrue;hologram\u003dfalse;north\u003dtrue;redstone\u003dfalse;redstone_dust\u003dfalse;south\u003dfalse;state\u003doff;up\u003dfalse;west\u003dfalse",
    "39": "minecraft:hopper:enabled\u003dtrue;facing\u003ddown",
    "3a": "minecraft:repeater:delay\u003d1;facing\u003deast;locked\u003dfalse;powered\u003dfalse",
    "3b": "minecraft:comparator:facing\u003dwest;mode\u003dcompare;powered\u003dtrue",
    "3c": "minecraft:redstone_wire:east\u003dside;north\u003dnone;power\u003d0;south\u003dnone;west\u003dside",
    "3d": "futurepack:wire_redstone:down\u003dfalse;east\u003dfalse;hologram\u003dfalse;north\u003dfalse;redstone\u003dfalse;redstone_dust\u003dfalse;south\u003dtrue;state\u003doff;up\u003dtrue;west\u003dfalse",
    "3e": "futurepack:wire_redstone:down\u003dtrue;east\u003dfalse;hologram\u003dfalse;north\u003dtrue;redstone\u003dfalse;redstone_dust\u003dfalse;south\u003dfalse;state\u003doff;up\u003dfalse;west\u003dfalse",
    "3f": "futurepack:wire_redstone:down\u003dtrue;east\u003dfalse;hologram\u003dfalse;north\u003dfalse;redstone\u003dfalse;redstone_dust\u003dfalse;south\u003dfalse;state\u003doff;up\u003dfalse;west\u003dtrue",
    "4": "futurepack:wire_redstone:down\u003dfalse;east\u003dtrue;hologram\u003dfalse;north\u003dfalse;redstone\u003dfalse;redstone_dust\u003dfalse;south\u003dfalse;state\u003doff;up\u003dfalse;west\u003dtrue",
    "40": "minecraft:redstone_wall_torch:facing\u003dsouth;lit\u003dfalse",
    "41": "minecraft:redstone_wire:east\u003dnone;north\u003dside;power\u003d0;south\u003dnone;west\u003dup",
    "42": "minecraft:redstone_wire:east\u003dnone;north\u003dnone;power\u003d15;south\u003dnone;west\u003dside",
    "5": "minecraft:jungle_log:axis\u003dx",
    "6": "futurepack:wire_redstone:down\u003dtrue;east\u003dfalse;hologram\u003dfalse;north\u003dfalse;redstone\u003dfalse;redstone_dust\u003dfalse;south\u003dfalse;state\u003doff;up\u003dfalse;west\u003dfalse",
    "7": "futurepack:color_iron_gray:",
    "8": "minecraft:note_block:instrument\u003dbass;note\u003d0;powered\u003dfalse",
    "9": "minecraft:redstone_wire:east\u003dnone;north\u003dnone;power\u003d0;south\u003dnone;west\u003dnone",
    "a": "minecraft:redstone_wire:east\u003dside;north\u003dnone;power\u003d0;south\u003dnone;west\u003dnone",
    "b": "futurepack:wire_redstone:down\u003dfalse;east\u003dfalse;hologram\u003dfalse;north\u003dfalse;redstone\u003dfalse;redstone_dust\u003dfalse;south\u003dtrue;state\u003doff;up\u003dfalse;west\u003dtrue",
    "c": "futurepack:wire_redstone:down\u003dfalse;east\u003dfalse;hologram\u003dfalse;north\u003dtrue;redstone\u003dfalse;redstone_dust\u003dfalse;south\u003dtrue;state\u003doff;up\u003dfalse;west\u003dfalse",
    "d": "futurepack:wire_redstone:down\u003dfalse;east\u003dfalse;hologram\u003dfalse;north\u003dtrue;redstone\u003dfalse;redstone_dust\u003dfalse;south\u003dfalse;state\u003doff;up\u003dtrue;west\u003dfalse",
    "e": "futurepack:quantanium:down\u003dfalse;east\u003dtrue;glowing\u003dfalse;north\u003dfalse;south\u003dfalse;up\u003dtrue;west\u003dfalse",
    "f": "futurepack:quantanium:down\u003dtrue;east\u003dfalse;glowing\u003dfalse;north\u003dfalse;south\u003dfalse;up\u003dfalse;west\u003dfalse"
  }
}