{
  "data": {
    "0-1-0": "0",
    "0-1-1": "0",
    "0-1-2": "0",
    "0-1-3": "1",
    "0-1-4": "2",
    "0-1-5": "1",
    "0-1-6": "0",
    "0-1-7": "0",
    "0-1-8": "0",
    "0-2-0": "0",
    "0-2-1": "0",
    "0-2-2": "0",
    "0-2-3": "3",
    "0-2-4": "3",
    "0-2-5": "3",
    "0-2-6": "0",
    "0-2-7": "0",
    "0-2-8": "0",
    "0-3-0": "4",
    "0-3-1": "4",
    "0-3-2": "4",
    "0-3-3": "3",
    "0-3-4": "3",
    "0-3-5": "3",
    "0-3-6": "4",
    "0-3-7": "4",
    "0-3-8": "4",
    "0-4-0": "0",
    "0-4-1": "0",
    "0-4-2": "0",
    "0-4-3": "3",
    "0-4-4": "3",
    "0-4-5": "3",
    "0-4-6": "0",
    "0-4-7": "0",
    "0-4-8": "0",
    "0-5-0": "0",
    "0-5-1": "0",
    "0-5-2": "0",
    "0-5-3": "5",
    "0-5-4": "2",
    "0-5-5": "5",
    "0-5-6": "0",
    "0-5-7": "0",
    "0-5-8": "0",
    "0-6-0": "0",
    "0-6-1": "0",
    "0-6-2": "0",
    "0-6-3": "6",
    "0-6-4": "2",
    "0-6-5": "6",
    "0-6-6": "0",
    "0-6-7": "0",
    "0-6-8": "0",
    "0-7-0": "4",
    "0-7-1": "4",
    "0-7-2": "0",
    "0-7-3": "3",
    "0-7-4": "3",
    "0-7-5": "3",
    "0-7-6": "0",
    "0-7-7": "4",
    "0-7-8": "4",
    "0-8-0": "0",
    "0-8-1": "0",
    "0-8-2": "4",
    "0-8-3": "3",
    "0-8-4": "3",
    "0-8-5": "3",
    "0-8-6": "4",
    "0-8-7": "0",
    "0-8-8": "0",
    "0-9-0": "0",
    "0-9-1": "0",
    "0-9-2": "0",
    "0-9-3": "3",
    "0-9-4": "3",
    "0-9-5": "3",
    "0-9-6": "0",
    "0-9-7": "0",
    "0-9-8": "0",
    "0-10-0": "0",
    "0-10-1": "0",
    "0-10-2": "0",
    "0-10-3": "1",
    "0-10-4": "2",
    "0-10-5": "1",
    "0-10-6": "0",
    "0-10-7": "0",
    "0-10-8": "0",
    "1-1-0": "0",
    "1-1-1": "7",
    "1-1-2": "8",
    "1-1-3": "9",
    "1-1-4": "2",
    "1-1-5": "a",
    "1-1-6": "8",
    "1-1-7": "b",
    "1-1-8": "0",
    "1-2-0": "0",
    "1-2-1": "3",
    "1-2-2": "3",
    "1-2-3": "3",
    "1-2-4": "3",
    "1-2-5": "3",
    "1-2-6": "3",
    "1-2-7": "3",
    "1-2-8": "0",
    "1-3-0": "4",
    "1-3-1": "3",
    "1-3-2": "3",
    "1-3-3": "3",
    "1-3-4": "3",
    "1-3-5": "3",
    "1-3-6": "3",
    "1-3-7": "3",
    "1-3-8": "4",
    "1-4-0": "0",
    "1-4-1": "3",
    "1-4-2": "3",
    "1-4-3": "3",
    "1-4-4": "3",
    "1-4-5": "3",
    "1-4-6": "3",
    "1-4-7": "3",
    "1-4-8": "0",
    "1-5-0": "0",
    "1-5-1": "7",
    "1-5-2": "8",
    "1-5-3": "9",
    "1-5-4": "2",
    "1-5-5": "a",
    "1-5-6": "8",
    "1-5-7": "b",
    "1-5-8": "0",
    "1-6-0": "0",
    "1-6-1": "3",
    "1-6-2": "3",
    "1-6-3": "c",
    "1-6-4": "d",
    "1-6-5": "c",
    "1-6-6": "3",
    "1-6-7": "3",
    "1-6-8": "0",
    "1-7-0": "4",
    "1-7-1": "3",
    "1-7-2": "3",
    "1-7-3": "3",
    "1-7-4": "3",
    "1-7-5": "3",
    "1-7-6": "3",
    "1-7-7": "3",
    "1-7-8": "4",
    "1-8-0": "0",
    "1-8-1": "3",
    "1-8-2": "3",
    "1-8-3": "3",
    "1-8-4": "3",
    "1-8-5": "3",
    "1-8-6": "3",
    "1-8-7": "3",
    "1-8-8": "0",
    "1-9-0": "0",
    "1-9-1": "3",
    "1-9-2": "3",
    "1-9-3": "3",
    "1-9-4": "3",
    "1-9-5": "3",
    "1-9-6": "3",
    "1-9-7": "3",
    "1-9-8": "0",
    "1-10-0": "0",
    "1-10-1": "7",
    "1-10-2": "8",
    "1-10-3": "9",
    "1-10-4": "2",
    "1-10-5": "a",
    "1-10-6": "8",
    "1-10-7": "b",
    "1-10-8": "0",
    "2-1-0": "0",
    "2-1-1": "e",
    "2-1-2": "2",
    "2-1-3": "2",
    "2-1-4": "2",
    "2-1-5": "2",
    "2-1-6": "2",
    "2-1-7": "e",
    "2-1-8": "0",
    "2-2-0": "0",
    "2-2-1": "3",
    "2-2-2": "3",
    "2-2-3": "3",
    "2-2-4": "3",
    "2-2-5": "3",
    "2-2-6": "3",
    "2-2-7": "3",
    "2-2-8": "0",
    "2-3-0": "4",
    "2-3-1": "3",
    "2-3-2": "3",
    "2-3-3": "3",
    "2-3-4": "3",
    "2-3-5": "3",
    "2-3-6": "3",
    "2-3-7": "3",
    "2-3-8": "4",
    "2-4-0": "0",
    "2-4-1": "3",
    "2-4-2": "3",
    "2-4-3": "3",
    "2-4-4": "3",
    "2-4-5": "3",
    "2-4-6": "3",
    "2-4-7": "3",
    "2-4-8": "0",
    "2-5-0": "0",
    "2-5-1": "e",
    "2-5-2": "2",
    "2-5-3": "2",
    "2-5-4": "2",
    "2-5-5": "2",
    "2-5-6": "2",
    "2-5-7": "e",
    "2-5-8": "0",
    "2-6-0": "0",
    "2-6-1": "3",
    "2-6-2": "3",
    "2-6-3": "3",
    "2-6-4": "3",
    "2-6-5": "3",
    "2-6-6": "3",
    "2-6-7": "3",
    "2-6-8": "0",
    "2-7-0": "0",
    "2-7-1": "3",
    "2-7-2": "3",
    "2-7-3": "3",
    "2-7-4": "3",
    "2-7-5": "3",
    "2-7-6": "3",
    "2-7-7": "3",
    "2-7-8": "0",
    "2-8-0": "4",
    "2-8-1": "3",
    "2-8-2": "3",
    "2-8-3": "3",
    "2-8-4": "3",
    "2-8-5": "3",
    "2-8-6": "3",
    "2-8-7": "3",
    "2-8-8": "4",
    "2-9-0": "0",
    "2-9-1": "3",
    "2-9-2": "3",
    "2-9-3": "3",
    "2-9-4": "3",
    "2-9-5": "3",
    "2-9-6": "3",
    "2-9-7": "3",
    "2-9-8": "0",
    "2-10-0": "0",
    "2-10-1": "e",
    "2-10-2": "2",
    "2-10-3": "2",
    "2-10-4": "2",
    "2-10-5": "2",
    "2-10-6": "2",
    "2-10-7": "e",
    "2-10-8": "0",
    "3-1-0": "f",
    "3-1-1": "9",
    "3-1-2": "2",
    "3-1-3": "7",
    "3-1-4": "8",
    "3-1-5": "b",
    "3-1-6": "2",
    "3-1-7": "a",
    "3-1-8": "10",
    "3-2-0": "3",
    "3-2-1": "3",
    "3-2-2": "3",
    "3-2-3": "3",
    "3-2-4": "3",
    "3-2-5": "3",
    "3-2-6": "3",
    "3-2-7": "3",
    "3-2-8": "3",
    "3-3-0": "3",
    "3-3-1": "3",
    "3-3-2": "3",
    "3-3-3": "3",
    "3-3-4": "3",
    "3-3-5": "3",
    "3-3-6": "3",
    "3-3-7": "3",
    "3-3-8": "3",
    "3-4-0": "3",
    "3-4-1": "3",
    "3-4-2": "3",
    "3-4-3": "3",
    "3-4-4": "3",
    "3-4-5": "3",
    "3-4-6": "3",
    "3-4-7": "3",
    "3-4-8": "3",
    "3-5-0": "11",
    "3-5-1": "9",
    "3-5-2": "2",
    "3-5-3": "7",
    "3-5-4": "8",
    "3-5-5": "b",
    "3-5-6": "2",
    "3-5-7": "a",
    "3-5-8": "12",
    "3-6-0": "6",
    "3-6-1": "c",
    "3-6-2": "3",
    "3-6-3": "13",
    "3-6-4": "14",
    "3-6-5": "15",
    "3-6-6": "3",
    "3-6-7": "c",
    "3-6-8": "6",
    "3-7-0": "3",
    "3-7-1": "3",
    "3-7-2": "3",
    "3-7-3": "3",
    "3-7-4": "3",
    "3-7-5": "3",
    "3-7-6": "3",
    "3-7-7": "3",
    "3-7-8": "3",
    "3-8-0": "3",
    "3-8-1": "3",
    "3-8-2": "3",
    "3-8-3": "3",
    "3-8-4": "3",
    "3-8-5": "3",
    "3-8-6": "3",
    "3-8-7": "3",
    "3-8-8": "3",
    "3-9-0": "3",
    "3-9-1": "3",
    "3-9-2": "3",
    "3-9-3": "3",
    "3-9-4": "3",
    "3-9-5": "3",
    "3-9-6": "3",
    "3-9-7": "3",
    "3-9-8": "3",
    "3-10-0": "f",
    "3-10-1": "9",
    "3-10-2": "2",
    "3-10-3": "2",
    "3-10-4": "2",
    "3-10-5": "2",
    "3-10-6": "2",
    "3-10-7": "a",
    "3-10-8": "10",
    "4-0-4": "2",
    "4-1-0": "2",
    "4-1-1": "2",
    "4-1-2": "2",
    "4-1-3": "e",
    "4-1-4": "16",
    "4-1-5": "e",
    "4-1-6": "2",
    "4-1-7": "2",
    "4-1-8": "2",
    "4-2-0": "3",
    "4-2-1": "3",
    "4-2-2": "3",
    "4-2-3": "3",
    "4-2-4": "3",
    "4-2-5": "3",
    "4-2-6": "3",
    "4-2-7": "3",
    "4-2-8": "3",
    "4-3-0": "3",
    "4-3-1": "3",
    "4-3-2": "3",
    "4-3-3": "3",
    "4-3-4": "3",
    "4-3-5": "3",
    "4-3-6": "3",
    "4-3-7": "3",
    "4-3-8": "3",
    "4-4-0": "3",
    "4-4-1": "3",
    "4-4-2": "3",
    "4-4-3": "3",
    "4-4-4": "3",
    "4-4-5": "3",
    "4-4-6": "3",
    "4-4-7": "3",
    "4-4-8": "3",
    "4-5-0": "2",
    "4-5-1": "2",
    "4-5-2": "2",
    "4-5-3": "e",
    "4-5-4": "3",
    "4-5-5": "e",
    "4-5-6": "2",
    "4-5-7": "2",
    "4-5-8": "2",
    "4-6-0": "2",
    "4-6-1": "17",
    "4-6-2": "3",
    "4-6-3": "18",
    "4-6-4": "3",
    "4-6-5": "18",
    "4-6-6": "3",
    "4-6-7": "19",
    "4-6-8": "2",
    "4-7-0": "3",
    "4-7-1": "3",
    "4-7-2": "3",
    "4-7-3": "3",
    "4-7-4": "3",
    "4-7-5": "3",
    "4-7-6": "3",
    "4-7-7": "3",
    "4-7-8": "3",
    "4-8-0": "3",
    "4-8-1": "3",
    "4-8-2": "3",
    "4-8-3": "3",
    "4-8-4": "3",
    "4-8-5": "3",
    "4-8-6": "3",
    "4-8-7": "3",
    "4-8-8": "3",
    "4-9-0": "3",
    "4-9-1": "3",
    "4-9-2": "3",
    "4-9-3": "3",
    "4-9-4": "3",
    "4-9-5": "3",
    "4-9-6": "3",
    "4-9-7": "3",
    "4-9-8": "3",
    "4-10-0": "2",
    "4-10-1": "2",
    "4-10-2": "2",
    "4-10-3": "2",
    "4-10-4": "2",
    "4-10-5": "2",
    "4-10-6": "2",
    "4-10-7": "2",
    "4-10-8": "2",
    "5-1-0": "f",
    "5-1-1": "b",
    "5-1-2": "2",
    "5-1-3": "a",
    "5-1-4": "8",
    "5-1-5": "9",
    "5-1-6": "2",
    "5-1-7": "7",
    "5-1-8": "10",
    "5-2-0": "3",
    "5-2-1": "3",
    "5-2-2": "3",
    "5-2-3": "3",
    "5-2-4": "3",
    "5-2-5": "3",
    "5-2-6": "3",
    "5-2-7": "3",
    "5-2-8": "3",
    "5-3-0": "3",
    "5-3-1": "3",
    "5-3-2": "3",
    "5-3-3": "3",
    "5-3-4": "3",
    "5-3-5": "3",
    "5-3-6": "3",
    "5-3-7": "3",
    "5-3-8": "3",
    "5-4-0": "3",
    "5-4-1": "3",
    "5-4-2": "3",
    "5-4-3": "3",
    "5-4-4": "3",
    "5-4-5": "3",
    "5-4-6": "3",
    "5-4-7": "3",
    "5-4-8": "3",
    "5-5-0": "11",
    "5-5-1": "b",
    "5-5-2": "2",
    "5-5-3": "a",
    "5-5-4": "8",
    "5-5-5": "9",
    "5-5-6": "2",
    "5-5-7": "7",
    "5-5-8": "12",
    "5-6-0": "6",
    "5-6-1": "c",
    "5-6-2": "3",
    "5-6-3": "1a",
    "5-6-4": "14",
    "5-6-5": "1b",
    "5-6-6": "3",
    "5-6-7": "c",
    "5-6-8": "6",
    "5-7-0": "3",
    "5-7-1": "3",
    "5-7-2": "3",
    "5-7-3": "3",
    "5-7-4": "3",
    "5-7-5": "3",
    "5-7-6": "3",
    "5-7-7": "3",
    "5-7-8": "3",
    "5-8-0": "3",
    "5-8-1": "3",
    "5-8-2": "3",
    "5-8-3": "3",
    "5-8-4": "3",
    "5-8-5": "3",
    "5-8-6": "3",
    "5-8-7": "3",
    "5-8-8": "3",
    "5-9-0": "3",
    "5-9-1": "3",
    "5-9-2": "3",
    "5-9-3": "3",
    "5-9-4": "3",
    "5-9-5": "3",
    "5-9-6": "3",
    "5-9-7": "3",
    "5-9-8": "3",
    "5-10-0": "f",
    "5-10-1": "b",
    "5-10-2": "2",
    "5-10-3": "2",
    "5-10-4": "2",
    "5-10-5": "2",
    "5-10-6": "2",
    "5-10-7": "7",
    "5-10-8": "10",
    "6-1-0": "0",
    "6-1-1": "e",
    "6-1-2": "2",
    "6-1-3": "2",
    "6-1-4": "2",
    "6-1-5": "2",
    "6-1-6": "2",
    "6-1-7": "e",
    "6-1-8": "0",
    "6-2-0": "0",
    "6-2-1": "3",
    "6-2-2": "3",
    "6-2-3": "3",
    "6-2-4": "3",
    "6-2-5": "3",
    "6-2-6": "3",
    "6-2-7": "3",
    "6-2-8": "0",
    "6-3-0": "4",
    "6-3-1": "3",
    "6-3-2": "3",
    "6-3-3": "3",
    "6-3-4": "3",
    "6-3-5": "3",
    "6-3-6": "3",
    "6-3-7": "3",
    "6-3-8": "4",
    "6-4-0": "0",
    "6-4-1": "3",
    "6-4-2": "3",
    "6-4-3": "3",
    "6-4-4": "3",
    "6-4-5": "3",
    "6-4-6": "3",
    "6-4-7": "3",
    "6-4-8": "0",
    "6-5-0": "0",
    "6-5-1": "e",
    "6-5-2": "2",
    "6-5-3": "2",
    "6-5-4": "2",
    "6-5-5": "2",
    "6-5-6": "2",
    "6-5-7": "e",
    "6-5-8": "0",
    "6-6-0": "0",
    "6-6-1": "3",
    "6-6-2": "3",
    "6-6-3": "3",
    "6-6-4": "3",
    "6-6-5": "3",
    "6-6-6": "3",
    "6-6-7": "3",
    "6-6-8": "0",
    "6-7-0": "0",
    "6-7-1": "3",
    "6-7-2": "3",
    "6-7-3": "3",
    "6-7-4": "3",
    "6-7-5": "3",
    "6-7-6": "3",
    "6-7-7": "3",
    "6-7-8": "0",
    "6-8-0": "4",
    "6-8-1": "3",
    "6-8-2": "3",
    "6-8-3": "3",
    "6-8-4": "3",
    "6-8-5": "3",
    "6-8-6": "3",
    "6-8-7": "3",
    "6-8-8": "4",
    "6-9-0": "0",
    "6-9-1": "3",
    "6-9-2": "3",
    "6-9-3": "3",
    "6-9-4": "3",
    "6-9-5": "3",
    "6-9-6": "3",
    "6-9-7": "3",
    "6-9-8": "0",
    "6-10-0": "0",
    "6-10-1": "e",
    "6-10-2": "2",
    "6-10-3": "2",
    "6-10-4": "2",
    "6-10-5": "2",
    "6-10-6": "2",
    "6-10-7": "e",
    "6-10-8": "0",
    "7-1-0": "0",
    "7-1-1": "a",
    "7-1-2": "8",
    "7-1-3": "b",
    "7-1-4": "2",
    "7-1-5": "7",
    "7-1-6": "8",
    "7-1-7": "9",
    "7-1-8": "0",
    "7-2-0": "0",
    "7-2-1": "3",
    "7-2-2": "3",
    "7-2-3": "3",
    "7-2-4": "3",
    "7-2-5": "3",
    "7-2-6": "3",
    "7-2-7": "3",
    "7-2-8": "0",
    "7-3-0": "4",
    "7-3-1": "3",
    "7-3-2": "3",
    "7-3-3": "3",
    "7-3-4": "3",
    "7-3-5": "3",
    "7-3-6": "3",
    "7-3-7": "3",
    "7-3-8": "4",
    "7-4-0": "0",
    "7-4-1": "3",
    "7-4-2": "3",
    "7-4-3": "3",
    "7-4-4": "3",
    "7-4-5": "3",
    "7-4-6": "3",
    "7-4-7": "3",
    "7-4-8": "0",
    "7-5-0": "0",
    "7-5-1": "a",
    "7-5-2": "8",
    "7-5-3": "b",
    "7-5-4": "2",
    "7-5-5": "7",
    "7-5-6": "8",
    "7-5-7": "9",
    "7-5-8": "0",
    "7-6-0": "0",
    "7-6-1": "3",
    "7-6-2": "3",
    "7-6-3": "c",
    "7-6-4": "1c",
    "7-6-5": "c",
    "7-6-6": "3",
    "7-6-7": "3",
    "7-6-8": "0",
    "7-7-0": "4",
    "7-7-1": "3",
    "7-7-2": "3",
    "7-7-3": "3",
    "7-7-4": "3",
    "7-7-5": "3",
    "7-7-6": "3",
    "7-7-7": "3",
    "7-7-8": "4",
    "7-8-0": "0",
    "7-8-1": "3",
    "7-8-2": "3",
    "7-8-3": "3",
    "7-8-4": "3",
    "7-8-5": "3",
    "7-8-6": "3",
    "7-8-7": "3",
    "7-8-8": "0",
    "7-9-0": "0",
    "7-9-1": "3",
    "7-9-2": "3",
    "7-9-3": "3",
    "7-9-4": "3",
    "7-9-5": "3",
    "7-9-6": "3",
    "7-9-7": "3",
    "7-9-8": "0",
    "7-10-0": "0",
    "7-10-1": "a",
    "7-10-2": "8",
    "7-10-3": "b",
    "7-10-4": "2",
    "7-10-5": "7",
    "7-10-6": "8",
    "7-10-7": "9",
    "7-10-8": "0",
    "8-1-0": "0",
    "8-1-1": "0",
    "8-1-2": "0",
    "8-1-3": "1d",
    "8-1-4": "2",
    "8-1-5": "1d",
    "8-1-6": "0",
    "8-1-7": "0",
    "8-1-8": "0",
    "8-2-0": "0",
    "8-2-1": "0",
    "8-2-2": "0",
    "8-2-3": "3",
    "8-2-4": "3",
    "8-2-5": "3",
    "8-2-6": "0",
    "8-2-7": "0",
    "8-2-8": "0",
    "8-3-0": "4",
    "8-3-1": "4",
    "8-3-2": "4",
    "8-3-3": "3",
    "8-3-4": "3",
    "8-3-5": "3",
    "8-3-6": "4",
    "8-3-7": "4",
    "8-3-8": "4",
    "8-4-0": "0",
    "8-4-1": "0",
    "8-4-2": "0",
    "8-4-3": "3",
    "8-4-4": "3",
    "8-4-5": "3",
    "8-4-6": "0",
    "8-4-7": "0",
    "8-4-8": "0",
    "8-5-0": "0",
    "8-5-1": "0",
    "8-5-2": "0",
    "8-5-3": "1e",
    "8-5-4": "2",
    "8-5-5": "1e",
    "8-5-6": "0",
    "8-5-7": "0",
    "8-5-8": "0",
    "8-6-0": "0",
    "8-6-1": "0",
    "8-6-2": "0",
    "8-6-3": "6",
    "8-6-4": "2",
    "8-6-5": "6",
    "8-6-6": "0",
    "8-6-7": "0",
    "8-6-8": "0",
    "8-7-0": "4",
    "8-7-1": "4",
    "8-7-2": "0",
    "8-7-3": "3",
    "8-7-4": "3",
    "8-7-5": "3",
    "8-7-6": "0",
    "8-7-7": "4",
    "8-7-8": "4",
    "8-8-0": "0",
    "8-8-1": "0",
    "8-8-2": "4",
    "8-8-3": "3",
    "8-8-4": "3",
    "8-8-5": "3",
    "8-8-6": "4",
    "8-8-7": "0",
    "8-8-8": "0",
    "8-9-0": "0",
    "8-9-1": "0",
    "8-9-2": "0",
    "8-9-3": "3",
    "8-9-4": "3",
    "8-9-5": "3",
    "8-9-6": "0",
    "8-9-7": "0",
    "8-9-8": "0",
    "8-10-0": "0",
    "8-10-1": "0",
    "8-10-2": "0",
    "8-10-3": "1d",
    "8-10-4": "2",
    "8-10-5": "1d",
    "8-10-6": "0",
    "8-10-7": "0",
    "8-10-8": "0"
  },
  "inventorys": [
    "4-1-4"
  ],
  "doors": [
    {
      "facing": 4,
      "w": 1,
      "h": 3,
      "d": 3,
      "start": "0,2,3"
    },
    {
      "facing": 4,
      "w": 1,
      "h": 3,
      "d": 3,
      "start": "0,7,3"
    },
    {
      "facing": 2,
      "w": 3,
      "h": 3,
      "d": 1,
      "start": "3,2,0"
    },
    {
      "facing": 3,
      "w": 3,
      "h": 3,
      "d": 1,
      "start": "3,2,8"
    },
    {
      "facing": 2,
      "w": 3,
      "h": 3,
      "d": 1,
      "start": "3,7,0"
    },
    {
      "facing": 3,
      "w": 3,
      "h": 3,
      "d": 1,
      "start": "3,7,8"
    },
    {
      "facing": 5,
      "w": 1,
      "h": 3,
      "d": 3,
      "start": "8,2,3"
    },
    {
      "facing": 5,
      "w": 1,
      "h": 3,
      "d": 3,
      "start": "8,7,3"
    }
  ],
  "stateMap": {
    "0": "futurepack:color_iron_gray:",
    "1": "futurepack:quantanium:down\u003dfalse;east\u003dtrue;glowing\u003dfalse;north\u003dfalse;south\u003dfalse;up\u003dfalse;west\u003dfalse",
    "10": "futurepack:quantanium:down\u003dfalse;east\u003dfalse;glowing\u003dfalse;north\u003dtrue;south\u003dfalse;up\u003dfalse;west\u003dfalse",
    "11": "futurepack:quantanium:down\u003dfalse;east\u003dfalse;glowing\u003dfalse;north\u003dfalse;south\u003dtrue;up\u003dtrue;west\u003dfalse",
    "12": "futurepack:quantanium:down\u003dfalse;east\u003dfalse;glowing\u003dfalse;north\u003dtrue;south\u003dfalse;up\u003dtrue;west\u003dfalse",
    "13": "futurepack:color_gitter_pane_purple:east\u003dtrue;north\u003dfalse;south\u003dtrue;waterlogged\u003dfalse;west\u003dfalse",
    "14": "futurepack:color_gitter_pane_purple:east\u003dfalse;north\u003dtrue;south\u003dtrue;waterlogged\u003dfalse;west\u003dfalse",
    "15": "futurepack:color_gitter_pane_purple:east\u003dtrue;north\u003dtrue;south\u003dfalse;waterlogged\u003dfalse;west\u003dfalse",
    "16": "futurepack:composite_chest:facing\u003dwest;type\u003dsingle;waterlogged\u003dfalse",
    "17": "futurepack:color_iron_stair_black:facing\u003dnorth;half\u003dbottom;shape\u003dstraight;waterlogged\u003dfalse",
    "18": "futurepack:color_gitter_pane_purple:east\u003dtrue;north\u003dfalse;south\u003dfalse;waterlogged\u003dfalse;west\u003dtrue",
    "19": "futurepack:color_iron_stair_black:facing\u003dsouth;half\u003dbottom;shape\u003dstraight;waterlogged\u003dfalse",
    "1a": "futurepack:color_gitter_pane_purple:east\u003dfalse;north\u003dfalse;south\u003dtrue;waterlogged\u003dfalse;west\u003dtrue",
    "1b": "futurepack:color_gitter_pane_purple:east\u003dfalse;north\u003dtrue;south\u003dfalse;waterlogged\u003dfalse;west\u003dtrue",
    "1c": "futurepack:color_iron_stair_black:facing\u003deast;half\u003dbottom;shape\u003dstraight;waterlogged\u003dfalse",
    "1d": "futurepack:quantanium:down\u003dfalse;east\u003dfalse;glowing\u003dfalse;north\u003dfalse;south\u003dfalse;up\u003dfalse;west\u003dtrue",
    "1e": "futurepack:quantanium:down\u003dfalse;east\u003dfalse;glowing\u003dfalse;north\u003dfalse;south\u003dfalse;up\u003dtrue;west\u003dtrue",
    "2": "futurepack:color_iron_black:",
    "3": "minecraft:air:",
    "4": "futurepack:color_iron_purple:",
    "5": "futurepack:quantanium:down\u003dfalse;east\u003dtrue;glowing\u003dfalse;north\u003dfalse;south\u003dfalse;up\u003dtrue;west\u003dfalse",
    "6": "futurepack:quantanium:down\u003dtrue;east\u003dfalse;glowing\u003dfalse;north\u003dfalse;south\u003dfalse;up\u003dfalse;west\u003dfalse",
    "7": "futurepack:quantanium:down\u003dfalse;east\u003dtrue;glowing\u003dfalse;north\u003dfalse;south\u003dtrue;up\u003dfalse;west\u003dfalse",
    "8": "futurepack:quantanium:down\u003dfalse;east\u003dfalse;glowing\u003dfalse;north\u003dtrue;south\u003dtrue;up\u003dfalse;west\u003dfalse",
    "9": "futurepack:quantanium:down\u003dfalse;east\u003dfalse;glowing\u003dfalse;north\u003dtrue;south\u003dfalse;up\u003dfalse;west\u003dtrue",
    "a": "futurepack:quantanium:down\u003dfalse;east\u003dfalse;glowing\u003dfalse;north\u003dfalse;south\u003dtrue;up\u003dfalse;west\u003dtrue",
    "b": "futurepack:quantanium:down\u003dfalse;east\u003dtrue;glowing\u003dfalse;north\u003dtrue;south\u003dfalse;up\u003dfalse;west\u003dfalse",
    "c": "futurepack:color_iron_slab_black:type\u003dbottom;waterlogged\u003dfalse",
    "d": "futurepack:color_iron_stair_black:facing\u003dwest;half\u003dbottom;shape\u003dstraight;waterlogged\u003dfalse",
    "e": "futurepack:quantanium:down\u003dfalse;east\u003dtrue;glowing\u003dfalse;north\u003dfalse;south\u003dfalse;up\u003dfalse;west\u003dtrue",
    "f": "futurepack:quantanium:down\u003dfalse;east\u003dfalse;glowing\u003dfalse;north\u003dfalse;south\u003dtrue;up\u003dfalse;west\u003dfalse"
  }
}