{
  "data": {
    "0-0-0": "0",
    "0-0-1": "0",
    "0-0-2": "1",
    "0-0-3": "0",
    "0-0-4": "0",
    "0-1-0": "0",
    "0-1-1": "0",
    "0-1-2": "2",
    "0-1-3": "0",
    "0-1-4": "0",
    "0-2-0": "3",
    "0-2-1": "3",
    "0-2-2": "2",
    "0-2-3": "3",
    "0-2-4": "3",
    "0-3-0": "0",
    "0-3-1": "0",
    "0-3-2": "2",
    "0-3-3": "0",
    "0-3-4": "0",
    "0-4-0": "0",
    "0-4-1": "0",
    "0-4-2": "4",
    "0-4-3": "0",
    "0-4-4": "0",
    "0-5-0": "0",
    "0-5-1": "0",
    "0-5-2": "4",
    "0-5-3": "0",
    "0-5-4": "0",
    "0-6-0": "0",
    "0-6-1": "0",
    "0-6-2": "5",
    "0-6-3": "0",
    "0-6-4": "0",
    "1-0-0": "0",
    "1-0-1": "6",
    "1-0-2": "7",
    "1-0-3": "8",
    "1-0-4": "0",
    "1-1-0": "0",
    "1-1-1": "9",
    "1-1-2": "a",
    "1-1-3": "b",
    "1-1-4": "0",
    "1-2-0": "3",
    "1-2-1": "9",
    "1-2-2": "a",
    "1-2-3": "b",
    "1-2-4": "3",
    "1-3-0": "0",
    "1-3-1": "9",
    "1-3-2": "c",
    "1-3-3": "b",
    "1-3-4": "0",
    "1-4-0": "0",
    "1-4-1": "d",
    "1-4-2": "d",
    "1-4-3": "d",
    "1-4-4": "0",
    "1-5-0": "0",
    "1-5-1": "d",
    "1-5-2": "d",
    "1-5-3": "d",
    "1-5-4": "0",
    "1-6-0": "0",
    "1-6-1": "d",
    "1-6-2": "d",
    "1-6-3": "d",
    "1-6-4": "0",
    "2-0-0": "0",
    "2-0-1": "e",
    "2-0-2": "f",
    "2-0-3": "e",
    "2-0-4": "0",
    "2-1-0": "0",
    "2-1-1": "d",
    "2-1-2": "d",
    "2-1-3": "d",
    "2-1-4": "0",
    "2-2-0": "3",
    "2-2-1": "d",
    "2-2-2": "d",
    "2-2-3": "d",
    "2-2-4": "3",
    "2-3-0": "0",
    "2-3-1": "d",
    "2-3-2": "d",
    "2-3-3": "d",
    "2-3-4": "0",
    "2-4-0": "0",
    "2-4-1": "d",
    "2-4-2": "f",
    "2-4-3": "d",
    "2-4-4": "0",
    "2-5-0": "10",
    "2-5-1": "d",
    "2-5-2": "d",
    "2-5-3": "d",
    "2-5-4": "10",
    "2-6-0": "5",
    "2-6-1": "d",
    "2-6-2": "d",
    "2-6-3": "d",
    "2-6-4": "5",
    "3-0-0": "0",
    "3-0-1": "e",
    "3-0-2": "f",
    "3-0-3": "e",
    "3-0-4": "0",
    "3-1-0": "0",
    "3-1-1": "d",
    "3-1-2": "d",
    "3-1-3": "d",
    "3-1-4": "0",
    "3-2-0": "3",
    "3-2-1": "d",
    "3-2-2": "d",
    "3-2-3": "d",
    "3-2-4": "3",
    "3-3-0": "0",
    "3-3-1": "d",
    "3-3-2": "d",
    "3-3-3": "d",
    "3-3-4": "0",
    "3-4-0": "0",
    "3-4-1": "d",
    "3-4-2": "d",
    "3-4-3": "d",
    "3-4-4": "0",
    "3-5-0": "0",
    "3-5-1": "11",
    "3-5-2": "d",
    "3-5-3": "11",
    "3-5-4": "0",
    "3-6-0": "0",
    "3-6-1": "d",
    "3-6-2": "d",
    "3-6-3": "d",
    "3-6-4": "0",
    "4-0-0": "0",
    "4-0-1": "12",
    "4-0-2": "f",
    "4-0-3": "12",
    "4-0-4": "0",
    "4-1-0": "0",
    "4-1-1": "d",
    "4-1-2": "d",
    "4-1-3": "d",
    "4-1-4": "0",
    "4-2-0": "3",
    "4-2-1": "d",
    "4-2-2": "d",
    "4-2-3": "d",
    "4-2-4": "3",
    "4-3-0": "0",
    "4-3-1": "d",
    "4-3-2": "d",
    "4-3-3": "d",
    "4-3-4": "0",
    "4-4-0": "0",
    "4-4-1": "11",
    "4-4-2": "f",
    "4-4-3": "11",
    "4-4-4": "0",
    "4-5-0": "0",
    "4-5-1": "0",
    "4-5-2": "10",
    "4-5-3": "0",
    "4-5-4": "0",
    "4-6-0": "0",
    "4-6-1": "0",
    "4-6-2": "5",
    "4-6-3": "0",
    "4-6-4": "0"
  },
  "inventorys": [],
  "doors": [
    {
      "facing": 1,
      "w": 3,
      "h": 1,
      "d": 3,
      "start": "1,6,1",
      "type": "water"
    },
    {
      "facing": 5,
      "w": 1,
      "h": 3,
      "d": 3,
      "start": "4,1,1",
      "type": "water"
    }
  ],
  "stateMap": {
    "0": "futurepack:color_iron_gray:",
    "1": "futurepack:quantanium:down\u003dfalse;east\u003dtrue;glowing\u003dfalse;north\u003dfalse;south\u003dfalse;up\u003dtrue;west\u003dfalse",
    "10": "futurepack:quantanium:down\u003dfalse;east\u003dfalse;glowing\u003dfalse;north\u003dfalse;south\u003dfalse;up\u003dtrue;west\u003dfalse",
    "11": "futurepack:quantanium:down\u003dfalse;east\u003dfalse;glowing\u003dfalse;north\u003dfalse;south\u003dfalse;up\u003dfalse;west\u003dfalse",
    "12": "futurepack:quantanium:down\u003dfalse;east\u003dfalse;glowing\u003dfalse;north\u003dfalse;south\u003dfalse;up\u003dfalse;west\u003dtrue",
    "2": "futurepack:quantanium:down\u003dtrue;east\u003dtrue;glowing\u003dfalse;north\u003dfalse;south\u003dfalse;up\u003dtrue;west\u003dfalse",
    "3": "futurepack:color_iron_purple:",
    "4": "futurepack:quantanium:down\u003dtrue;east\u003dfalse;glowing\u003dfalse;north\u003dfalse;south\u003dfalse;up\u003dtrue;west\u003dfalse",
    "5": "futurepack:quantanium:down\u003dtrue;east\u003dfalse;glowing\u003dfalse;north\u003dfalse;south\u003dfalse;up\u003dfalse;west\u003dfalse",
    "6": "futurepack:quantanium:down\u003dfalse;east\u003dtrue;glowing\u003dfalse;north\u003dfalse;south\u003dtrue;up\u003dfalse;west\u003dfalse",
    "7": "futurepack:quantanium:down\u003dfalse;east\u003dfalse;glowing\u003dfalse;north\u003dtrue;south\u003dtrue;up\u003dtrue;west\u003dtrue",
    "8": "futurepack:quantanium:down\u003dfalse;east\u003dtrue;glowing\u003dfalse;north\u003dtrue;south\u003dfalse;up\u003dfalse;west\u003dfalse",
    "9": "futurepack:ironladder:facing\u003dnorth;waterlogged\u003dtrue",
    "a": "futurepack:quantanium:down\u003dtrue;east\u003dfalse;glowing\u003dfalse;north\u003dfalse;south\u003dfalse;up\u003dtrue;west\u003dtrue",
    "b": "futurepack:ironladder:facing\u003dsouth;waterlogged\u003dtrue",
    "c": "futurepack:quantanium:down\u003dtrue;east\u003dfalse;glowing\u003dfalse;north\u003dfalse;south\u003dfalse;up\u003dfalse;west\u003dtrue",
    "d": "minecraft:water:level\u003d0",
    "e": "futurepack:quantanium:down\u003dfalse;east\u003dtrue;glowing\u003dfalse;north\u003dfalse;south\u003dfalse;up\u003dfalse;west\u003dtrue",
	"f": "futurepack:color_iron_black:"
  }
}