{
  "data": {
    "0-0-0": "0",
    "0-0-1": "1",
    "0-0-2": "2",
    "0-0-3": "1",
    "0-0-4": "0",
    "0-1-0": "0",
    "0-1-1": "3",
    "0-1-2": "3",
    "0-1-3": "3",
    "0-1-4": "0",
    "0-2-0": "4",
    "0-2-1": "3",
    "0-2-2": "3",
    "0-2-3": "3",
    "0-2-4": "4",
    "0-3-0": "0",
    "0-3-1": "3",
    "0-3-2": "3",
    "0-3-3": "3",
    "0-3-4": "0",
    "0-4-0": "0",
    "0-4-1": "1",
    "0-4-2": "2",
    "0-4-3": "1",
    "0-4-4": "0",
    "1-0-0": "0",
    "1-0-1": "5",
    "1-0-2": "2",
    "1-0-3": "5",
    "1-0-4": "0",
    "1-1-0": "0",
    "1-1-1": "6",
    "1-1-2": "7",
    "1-1-3": "6",
    "1-1-4": "0",
    "1-2-0": "4",
    "1-2-1": "3",
    "1-2-2": "3",
    "1-2-3": "3",
    "1-2-4": "4",
    "1-3-0": "0",
    "1-3-1": "8",
    "1-3-2": "8",
    "1-3-3": "8",
    "1-3-4": "0",
    "1-4-0": "0",
    "1-4-1": "5",
    "1-4-2": "2",
    "1-4-3": "5",
    "1-4-4": "0",
    "2-0-0": "0",
    "2-0-1": "9",
    "2-0-2": "2",
    "2-0-3": "9",
    "2-0-4": "0",
    "2-1-0": "0",
    "2-1-1": "a",
    "2-1-2": "2",
    "2-1-3": "a",
    "2-1-4": "0",
    "2-2-0": "4",
    "2-2-1": "a",
    "2-2-2": "2",
    "2-2-3": "a",
    "2-2-4": "4",
    "2-3-0": "0",
    "2-3-1": "a",
    "2-3-2": "2",
    "2-3-3": "a",
    "2-3-4": "0",
    "2-4-0": "0",
    "2-4-1": "b",
    "2-4-2": "2",
    "2-4-3": "b",
    "2-4-4": "0"
  },
  "inventorys": [
    {"pos": "1-1-1", "loot": "futurepack:chests/ld_craft"},
	{"pos": "1-1-3", "loot": "futurepack:chests/ld_craft"}
  ],

  "doors": [
    {
      "facing": 4,
      "w": 1,
      "h": 3,
      "d": 3,
      "start": "0,1,1"
    }
  ],
  "stateMap": {
    "0": "futurepack:color_iron_gray:",
    "1": "futurepack:quantanium:down\u003dfalse;east\u003dtrue;north\u003dfalse;south\u003dfalse;up\u003dfalse;west\u003dfalse",
    "2": "futurepack:color_iron_black:",
    "3": "minecraft:air:",
    "4": "futurepack:color_iron_purple:",
    "5": "futurepack:quantanium:down\u003dfalse;east\u003dtrue;north\u003dfalse;south\u003dfalse;up\u003dfalse;west\u003dtrue",
    "6": "futurepack:techtable:facing\u003dnorth",
    "7": "futurepack:color_iron_slab_gray:type\u003dtop;waterlogged\u003dfalse",
    "8": "futurepack:color_iron_stair_black:facing\u003deast;half\u003dtop;shape\u003dstraight;waterlogged\u003dfalse",
    "9": "futurepack:quantanium:down\u003dfalse;east\u003dfalse;north\u003dfalse;south\u003dfalse;up\u003dtrue;west\u003dtrue",
    "a": "futurepack:quantanium:down\u003dtrue;east\u003dfalse;north\u003dfalse;south\u003dfalse;up\u003dtrue;west\u003dfalse",
    "b": "futurepack:quantanium:down\u003dtrue;east\u003dfalse;north\u003dfalse;south\u003dfalse;up\u003dfalse;west\u003dtrue"
  }
}