{
  "data": {
    "0-0-0": "0",
    "0-0-1": "0",
    "0-0-2": "0",
    "0-0-3": "0",
    "0-0-4": "0",
    "0-0-5": "0",
    "0-0-6": "0",
    "0-0-7": "0",
    "0-0-8": "0",
    "0-1-0": "0",
    "0-1-1": "0",
    "0-1-2": "0",
    "0-1-3": "0",
    "0-1-4": "0",
    "0-1-5": "0",
    "0-1-6": "0",
    "0-1-7": "0",
    "0-1-8": "0",
    "0-2-0": "1",
    "0-2-1": "1",
    "0-2-2": "1",
    "0-2-3": "1",
    "0-2-4": "1",
    "0-2-5": "1",
    "0-2-6": "1",
    "0-2-7": "1",
    "0-2-8": "1",
    "0-3-0": "0",
    "0-3-1": "0",
    "0-3-2": "0",
    "0-3-3": "0",
    "0-3-4": "0",
    "0-3-5": "0",
    "0-3-6": "0",
    "0-3-7": "0",
    "0-3-8": "0",
    "0-4-0": "0",
    "0-4-1": "0",
    "0-4-2": "0",
    "0-4-3": "0",
    "0-4-4": "0",
    "0-4-5": "0",
    "0-4-6": "0",
    "0-4-7": "0",
    "0-4-8": "0",
    "0-5-0": "0",
    "0-5-1": "0",
    "0-5-2": "0",
    "0-5-3": "0",
    "0-5-4": "0",
    "0-5-5": "0",
    "0-5-6": "0",
    "0-5-7": "0",
    "0-5-8": "0",
    "0-6-0": "0",
    "0-6-1": "0",
    "0-6-2": "0",
    "0-6-3": "0",
    "0-6-4": "0",
    "0-6-5": "0",
    "0-6-6": "0",
    "0-6-7": "0",
    "0-6-8": "0",
    "0-7-0": "1",
    "0-7-1": "1",
    "0-7-2": "1",
    "0-7-3": "1",
    "0-7-4": "1",
    "0-7-5": "1",
    "0-7-6": "1",
    "0-7-7": "1",
    "0-7-8": "1",
    "0-8-0": "0",
    "0-8-1": "0",
    "0-8-2": "0",
    "0-8-3": "0",
    "0-8-4": "0",
    "0-8-5": "0",
    "0-8-6": "0",
    "0-8-7": "0",
    "0-8-8": "0",
    "0-9-0": "0",
    "0-9-1": "0",
    "0-9-2": "0",
    "0-9-3": "0",
    "0-9-4": "0",
    "0-9-5": "0",
    "0-9-6": "0",
    "0-9-7": "0",
    "0-9-8": "0",
    "0-10-0": "0",
    "0-10-1": "0",
    "0-10-2": "0",
    "0-10-3": "0",
    "0-10-4": "0",
    "0-10-5": "0",
    "0-10-6": "0",
    "0-10-7": "0",
    "0-10-8": "0",
    "1-0-0": "0",
    "1-0-1": "2",
    "1-0-2": "3",
    "1-0-3": "3",
    "1-0-4": "3",
    "1-0-5": "3",
    "1-0-6": "4",
    "1-0-7": "5",
    "1-0-8": "0",
    "1-1-0": "0",
    "1-1-1": "6",
    "1-1-2": "6",
    "1-1-3": "7",
    "1-1-4": "0",
    "1-1-5": "7",
    "1-1-6": "8",
    "1-1-7": "9",
    "1-1-8": "0",
    "1-2-0": "1",
    "1-2-1": "6",
    "1-2-2": "6",
    "1-2-3": "a",
    "1-2-4": "1",
    "1-2-5": "a",
    "1-2-6": "b",
    "1-2-7": "6",
    "1-2-8": "1",
    "1-3-0": "0",
    "1-3-1": "c",
    "1-3-2": "6",
    "1-3-3": "6",
    "1-3-4": "c",
    "1-3-5": "6",
    "1-3-6": "6",
    "1-3-7": "6",
    "1-3-8": "0",
    "1-4-0": "0",
    "1-4-1": "6",
    "1-4-2": "6",
    "1-4-3": "6",
    "1-4-4": "6",
    "1-4-5": "6",
    "1-4-6": "6",
    "1-4-7": "6",
    "1-4-8": "0",
    "1-5-0": "0",
    "1-5-1": "6",
    "1-5-2": "6",
    "1-5-3": "6",
    "1-5-4": "b",
    "1-5-5": "6",
    "1-5-6": "6",
    "1-5-7": "c",
    "1-5-8": "0",
    "1-6-0": "0",
    "1-6-1": "6",
    "1-6-2": "b",
    "1-6-3": "6",
    "1-6-4": "6",
    "1-6-5": "6",
    "1-6-6": "6",
    "1-6-7": "6",
    "1-6-8": "0",
    "1-7-0": "1",
    "1-7-1": "6",
    "1-7-2": "6",
    "1-7-3": "6",
    "1-7-4": "6",
    "1-7-5": "6",
    "1-7-6": "6",
    "1-7-7": "6",
    "1-7-8": "1",
    "1-8-0": "0",
    "1-8-1": "6",
    "1-8-2": "6",
    "1-8-3": "6",
    "1-8-4": "6",
    "1-8-5": "6",
    "1-8-6": "6",
    "1-8-7": "6",
    "1-8-8": "0",
    "1-9-0": "0",
    "1-9-1": "6",
    "1-9-2": "6",
    "1-9-3": "6",
    "1-9-4": "0",
    "1-9-5": "6",
    "1-9-6": "6",
    "1-9-7": "6",
    "1-9-8": "0",
    "1-10-0": "0",
    "1-10-1": "2",
    "1-10-2": "3",
    "1-10-3": "3",
    "1-10-4": "3",
    "1-10-5": "3",
    "1-10-6": "3",
    "1-10-7": "d",
    "1-10-8": "0",
    "2-0-0": "0",
    "2-0-1": "e",
    "2-0-2": "f",
    "2-0-3": "f",
    "2-0-4": "f",
    "2-0-5": "f",
    "2-0-6": "f",
    "2-0-7": "10",
    "2-0-8": "0",
    "2-1-0": "0",
    "2-1-1": "6",
    "2-1-2": "6",
    "2-1-3": "6",
    "2-1-4": "6",
    "2-1-5": "6",
    "2-1-6": "6",
    "2-1-7": "6",
    "2-1-8": "0",
    "2-2-0": "1",
    "2-2-1": "6",
    "2-2-2": "6",
    "2-2-3": "6",
    "2-2-4": "6",
    "2-2-5": "6",
    "2-2-6": "6",
    "2-2-7": "6",
    "2-2-8": "1",
    "2-3-0": "0",
    "2-3-1": "6",
    "2-3-2": "6",
    "2-3-3": "6",
    "2-3-4": "6",
    "2-3-5": "6",
    "2-3-6": "6",
    "2-3-7": "6",
    "2-3-8": "0",
    "2-4-0": "0",
    "2-4-1": "6",
    "2-4-2": "6",
    "2-4-3": "6",
    "2-4-4": "6",
    "2-4-5": "6",
    "2-4-6": "6",
    "2-4-7": "b",
    "2-4-8": "0",
    "2-5-0": "0",
    "2-5-1": "6",
    "2-5-2": "6",
    "2-5-3": "6",
    "2-5-4": "6",
    "2-5-5": "6",
    "2-5-6": "6",
    "2-5-7": "6",
    "2-5-8": "0",
    "2-6-0": "0",
    "2-6-1": "6",
    "2-6-2": "6",
    "2-6-3": "6",
    "2-6-4": "6",
    "2-6-5": "6",
    "2-6-6": "6",
    "2-6-7": "6",
    "2-6-8": "0",
    "2-7-0": "1",
    "2-7-1": "6",
    "2-7-2": "6",
    "2-7-3": "6",
    "2-7-4": "6",
    "2-7-5": "b",
    "2-7-6": "b",
    "2-7-7": "b",
    "2-7-8": "1",
    "2-8-0": "0",
    "2-8-1": "6",
    "2-8-2": "6",
    "2-8-3": "6",
    "2-8-4": "0",
    "2-8-5": "11",
    "2-8-6": "11",
    "2-8-7": "11",
    "2-8-8": "0",
    "2-9-0": "0",
    "2-9-1": "6",
    "2-9-2": "6",
    "2-9-3": "6",
    "2-9-4": "0",
    "2-9-5": "11",
    "2-9-6": "11",
    "2-9-7": "11",
    "2-9-8": "0",
    "2-10-0": "0",
    "2-10-1": "e",
    "2-10-2": "f",
    "2-10-3": "f",
    "2-10-4": "f",
    "2-10-5": "f",
    "2-10-6": "f",
    "2-10-7": "e",
    "2-10-8": "0",
    "3-0-0": "0",
    "3-0-1": "e",
    "3-0-2": "f",
    "3-0-3": "f",
    "3-0-4": "f",
    "3-0-5": "f",
    "3-0-6": "f",
    "3-0-7": "12",
    "3-0-8": "4",
    "3-1-0": "0",
    "3-1-1": "6",
    "3-1-2": "13",
    "3-1-3": "6",
    "3-1-4": "6",
    "3-1-5": "6",
    "3-1-6": "6",
    "3-1-7": "6",
    "3-1-8": "6",
    "3-2-0": "1",
    "3-2-1": "6",
    "3-2-2": "13",
    "3-2-3": "6",
    "3-2-4": "6",
    "3-2-5": "6",
    "3-2-6": "6",
    "3-2-7": "6",
    "3-2-8": "6",
    "3-3-0": "0",
    "3-3-1": "6",
    "3-3-2": "13",
    "3-3-3": "6",
    "3-3-4": "6",
    "3-3-5": "6",
    "3-3-6": "6",
    "3-3-7": "6",
    "3-3-8": "6",
    "3-4-0": "0",
    "3-4-1": "6",
    "3-4-2": "c",
    "3-4-3": "6",
    "3-4-4": "6",
    "3-4-5": "6",
    "3-4-6": "6",
    "3-4-7": "c",
    "3-4-8": "14",
    "3-5-0": "0",
    "3-5-1": "6",
    "3-5-2": "6",
    "3-5-3": "6",
    "3-5-4": "15",
    "3-5-5": "6",
    "3-5-6": "6",
    "3-5-7": "6",
    "3-5-8": "16",
    "3-6-0": "0",
    "3-6-1": "6",
    "3-6-2": "6",
    "3-6-3": "6",
    "3-6-4": "6",
    "3-6-5": "6",
    "3-6-6": "6",
    "3-6-7": "6",
    "3-6-8": "16",
    "3-7-0": "1",
    "3-7-1": "6",
    "3-7-2": "6",
    "3-7-3": "6",
    "3-7-4": "15",
    "3-7-5": "17",
    "3-7-6": "17",
    "3-7-7": "1",
    "3-7-8": "18",
    "3-8-0": "0",
    "3-8-1": "6",
    "3-8-2": "6",
    "3-8-3": "6",
    "3-8-4": "6",
    "3-8-5": "6",
    "3-8-6": "6",
    "3-8-7": "6",
    "3-8-8": "19",
    "3-9-0": "0",
    "3-9-1": "6",
    "3-9-2": "6",
    "3-9-3": "6",
    "3-9-4": "6",
    "3-9-5": "6",
    "3-9-6": "6",
    "3-9-7": "6",
    "3-9-8": "19",
    "3-10-0": "0",
    "3-10-1": "e",
    "3-10-2": "f",
    "3-10-3": "1",
    "3-10-4": "1",
    "3-10-5": "1",
    "3-10-6": "f",
    "3-10-7": "e",
    "3-10-8": "0",
    "4-0-0": "0",
    "4-0-1": "e",
    "4-0-2": "f",
    "4-0-3": "f",
    "4-0-4": "f",
    "4-0-5": "f",
    "4-0-6": "f",
    "4-0-7": "f",
    "4-0-8": "f",
    "4-1-0": "0",
    "4-1-1": "6",
    "4-1-2": "6",
    "4-1-3": "6",
    "4-1-4": "6",
    "4-1-5": "6",
    "4-1-6": "6",
    "4-1-7": "6",
    "4-1-8": "6",
    "4-2-0": "1",
    "4-2-1": "6",
    "4-2-2": "6",
    "4-2-3": "6",
    "4-2-4": "6",
    "4-2-5": "6",
    "4-2-6": "6",
    "4-2-7": "6",
    "4-2-8": "6",
    "4-3-0": "0",
    "4-3-1": "6",
    "4-3-2": "6",
    "4-3-3": "6",
    "4-3-4": "6",
    "4-3-5": "6",
    "4-3-6": "6",
    "4-3-7": "6",
    "4-3-8": "6",
    "4-4-0": "0",
    "4-4-1": "6",
    "4-4-2": "c",
    "4-4-3": "6",
    "4-4-4": "6",
    "4-4-5": "6",
    "4-4-6": "6",
    "4-4-7": "c",
    "4-4-8": "f",
    "4-5-0": "0",
    "4-5-1": "6",
    "4-5-2": "6",
    "4-5-3": "6",
    "4-5-4": "0",
    "4-5-5": "6",
    "4-5-6": "6",
    "4-5-7": "6",
    "4-5-8": "f",
    "4-6-0": "0",
    "4-6-1": "6",
    "4-6-2": "6",
    "4-6-3": "6",
    "4-6-4": "13",
    "4-6-5": "6",
    "4-6-6": "6",
    "4-6-7": "6",
    "4-6-8": "f",
    "4-7-0": "1",
    "4-7-1": "6",
    "4-7-2": "6",
    "4-7-3": "6",
    "4-7-4": "0",
    "4-7-5": "17",
    "4-7-6": "17",
    "4-7-7": "1",
    "4-7-8": "f",
    "4-8-0": "0",
    "4-8-1": "6",
    "4-8-2": "6",
    "4-8-3": "6",
    "4-8-4": "13",
    "4-8-5": "6",
    "4-8-6": "6",
    "4-8-7": "6",
    "4-8-8": "1a",
    "4-9-0": "0",
    "4-9-1": "6",
    "4-9-2": "6",
    "4-9-3": "6",
    "4-9-4": "13",
    "4-9-5": "6",
    "4-9-6": "6",
    "4-9-7": "6",
    "4-9-8": "1a",
    "4-10-0": "0",
    "4-10-1": "e",
    "4-10-2": "f",
    "4-10-3": "1",
    "4-10-4": "1",
    "4-10-5": "1",
    "4-10-6": "f",
    "4-10-7": "e",
    "4-10-8": "0",
    "5-0-0": "0",
    "5-0-1": "e",
    "5-0-2": "f",
    "5-0-3": "f",
    "5-0-4": "f",
    "5-0-5": "f",
    "5-0-6": "f",
    "5-0-7": "2",
    "5-0-8": "4",
    "5-1-0": "0",
    "5-1-1": "6",
    "5-1-2": "13",
    "5-1-3": "6",
    "5-1-4": "6",
    "5-1-5": "6",
    "5-1-6": "6",
    "5-1-7": "6",
    "5-1-8": "6",
    "5-2-0": "1",
    "5-2-1": "6",
    "5-2-2": "13",
    "5-2-3": "6",
    "5-2-4": "6",
    "5-2-5": "6",
    "5-2-6": "6",
    "5-2-7": "6",
    "5-2-8": "6",
    "5-3-0": "0",
    "5-3-1": "6",
    "5-3-2": "13",
    "5-3-3": "6",
    "5-3-4": "6",
    "5-3-5": "6",
    "5-3-6": "6",
    "5-3-7": "6",
    "5-3-8": "6",
    "5-4-0": "0",
    "5-4-1": "6",
    "5-4-2": "c",
    "5-4-3": "6",
    "5-4-4": "6",
    "5-4-5": "6",
    "5-4-6": "6",
    "5-4-7": "c",
    "5-4-8": "14",
    "5-5-0": "0",
    "5-5-1": "6",
    "5-5-2": "6",
    "5-5-3": "6",
    "5-5-4": "15",
    "5-5-5": "6",
    "5-5-6": "6",
    "5-5-7": "6",
    "5-5-8": "16",
    "5-6-0": "0",
    "5-6-1": "6",
    "5-6-2": "6",
    "5-6-3": "6",
    "5-6-4": "6",
    "5-6-5": "6",
    "5-6-6": "6",
    "5-6-7": "6",
    "5-6-8": "16",
    "5-7-0": "1",
    "5-7-1": "b",
    "5-7-2": "6",
    "5-7-3": "6",
    "5-7-4": "15",
    "5-7-5": "17",
    "5-7-6": "17",
    "5-7-7": "1",
    "5-7-8": "18",
    "5-8-0": "0",
    "5-8-1": "6",
    "5-8-2": "6",
    "5-8-3": "6",
    "5-8-4": "6",
    "5-8-5": "6",
    "5-8-6": "6",
    "5-8-7": "6",
    "5-8-8": "19",
    "5-9-0": "0",
    "5-9-1": "6",
    "5-9-2": "6",
    "5-9-3": "6",
    "5-9-4": "6",
    "5-9-5": "6",
    "5-9-6": "6",
    "5-9-7": "6",
    "5-9-8": "19",
    "5-10-0": "0",
    "5-10-1": "e",
    "5-10-2": "f",
    "5-10-3": "1",
    "5-10-4": "1",
    "5-10-5": "1",
    "5-10-6": "f",
    "5-10-7": "e",
    "5-10-8": "0",
    "6-0-0": "0",
    "6-0-1": "e",
    "6-0-2": "f",
    "6-0-3": "f",
    "6-0-4": "f",
    "6-0-5": "f",
    "6-0-6": "f",
    "6-0-7": "e",
    "6-0-8": "0",
    "6-1-0": "0",
    "6-1-1": "6",
    "6-1-2": "6",
    "6-1-3": "6",
    "6-1-4": "6",
    "6-1-5": "6",
    "6-1-6": "6",
    "6-1-7": "6",
    "6-1-8": "0",
    "6-2-0": "1",
    "6-2-1": "6",
    "6-2-2": "6",
    "6-2-3": "6",
    "6-2-4": "6",
    "6-2-5": "6",
    "6-2-6": "6",
    "6-2-7": "6",
    "6-2-8": "1",
    "6-3-0": "0",
    "6-3-1": "6",
    "6-3-2": "6",
    "6-3-3": "6",
    "6-3-4": "6",
    "6-3-5": "6",
    "6-3-6": "6",
    "6-3-7": "6",
    "6-3-8": "0",
    "6-4-0": "0",
    "6-4-1": "6",
    "6-4-2": "6",
    "6-4-3": "6",
    "6-4-4": "1b",
    "6-4-5": "6",
    "6-4-6": "6",
    "6-4-7": "6",
    "6-4-8": "0",
    "6-5-0": "0",
    "6-5-1": "6",
    "6-5-2": "6",
    "6-5-3": "6",
    "6-5-4": "6",
    "6-5-5": "6",
    "6-5-6": "6",
    "6-5-7": "6",
    "6-5-8": "0",
    "6-6-0": "0",
    "6-6-1": "6",
    "6-6-2": "6",
    "6-6-3": "6",
    "6-6-4": "6",
    "6-6-5": "6",
    "6-6-6": "6",
    "6-6-7": "6",
    "6-6-8": "0",
    "6-7-0": "1",
    "6-7-1": "6",
    "6-7-2": "6",
    "6-7-3": "6",
    "6-7-4": "6",
    "6-7-5": "b",
    "6-7-6": "b",
    "6-7-7": "b",
    "6-7-8": "1",
    "6-8-0": "0",
    "6-8-1": "6",
    "6-8-2": "6",
    "6-8-3": "6",
    "6-8-4": "0",
    "6-8-5": "11",
    "6-8-6": "11",
    "6-8-7": "11",
    "6-8-8": "0",
    "6-9-0": "0",
    "6-9-1": "6",
    "6-9-2": "6",
    "6-9-3": "6",
    "6-9-4": "0",
    "6-9-5": "11",
    "6-9-6": "11",
    "6-9-7": "11",
    "6-9-8": "0",
    "6-10-0": "0",
    "6-10-1": "e",
    "6-10-2": "f",
    "6-10-3": "f",
    "6-10-4": "f",
    "6-10-5": "f",
    "6-10-6": "f",
    "6-10-7": "e",
    "6-10-8": "0",
    "7-0-0": "0",
    "7-0-1": "12",
    "7-0-2": "3",
    "7-0-3": "3",
    "7-0-4": "3",
    "7-0-5": "3",
    "7-0-6": "3",
    "7-0-7": "1c",
    "7-0-8": "0",
    "7-1-0": "0",
    "7-1-1": "6",
    "7-1-2": "6",
    "7-1-3": "1d",
    "7-1-4": "0",
    "7-1-5": "1d",
    "7-1-6": "6",
    "7-1-7": "1e",
    "7-1-8": "0",
    "7-2-0": "1",
    "7-2-1": "6",
    "7-2-2": "6",
    "7-2-3": "a",
    "7-2-4": "1",
    "7-2-5": "a",
    "7-2-6": "6",
    "7-2-7": "6",
    "7-2-8": "1",
    "7-3-0": "0",
    "7-3-1": "6",
    "7-3-2": "6",
    "7-3-3": "6",
    "7-3-4": "0",
    "7-3-5": "6",
    "7-3-6": "6",
    "7-3-7": "b",
    "7-3-8": "0",
    "7-4-0": "0",
    "7-4-1": "6",
    "7-4-2": "6",
    "7-4-3": "6",
    "7-4-4": "0",
    "7-4-5": "b",
    "7-4-6": "6",
    "7-4-7": "6",
    "7-4-8": "0",
    "7-5-0": "0",
    "7-5-1": "c",
    "7-5-2": "6",
    "7-5-3": "6",
    "7-5-4": "c",
    "7-5-5": "6",
    "7-5-6": "6",
    "7-5-7": "6",
    "7-5-8": "0",
    "7-6-0": "0",
    "7-6-1": "6",
    "7-6-2": "6",
    "7-6-3": "6",
    "7-6-4": "b",
    "7-6-5": "6",
    "7-6-6": "6",
    "7-6-7": "6",
    "7-6-8": "0",
    "7-7-0": "1",
    "7-7-1": "6",
    "7-7-2": "6",
    "7-7-3": "6",
    "7-7-4": "1",
    "7-7-5": "6",
    "7-7-6": "6",
    "7-7-7": "6",
    "7-7-8": "1",
    "7-8-0": "0",
    "7-8-1": "6",
    "7-8-2": "6",
    "7-8-3": "b",
    "7-8-4": "0",
    "7-8-5": "6",
    "7-8-6": "6",
    "7-8-7": "6",
    "7-8-8": "0",
    "7-9-0": "0",
    "7-9-1": "6",
    "7-9-2": "6",
    "7-9-3": "6",
    "7-9-4": "0",
    "7-9-5": "6",
    "7-9-6": "6",
    "7-9-7": "6",
    "7-9-8": "0",
    "7-10-0": "0",
    "7-10-1": "12",
    "7-10-2": "3",
    "7-10-3": "3",
    "7-10-4": "3",
    "7-10-5": "3",
    "7-10-6": "3",
    "7-10-7": "1c",
    "7-10-8": "0",
    "8-0-0": "0",
    "8-0-1": "0",
    "8-0-2": "0",
    "8-0-3": "0",
    "8-0-4": "0",
    "8-0-5": "0",
    "8-0-6": "0",
    "8-0-7": "0",
    "8-0-8": "0",
    "8-1-0": "0",
    "8-1-1": "0",
    "8-1-2": "0",
    "8-1-3": "0",
    "8-1-4": "0",
    "8-1-5": "0",
    "8-1-6": "0",
    "8-1-7": "0",
    "8-1-8": "0",
    "8-2-0": "1",
    "8-2-1": "1",
    "8-2-2": "1",
    "8-2-3": "1",
    "8-2-4": "1",
    "8-2-5": "1",
    "8-2-6": "1",
    "8-2-7": "1",
    "8-2-8": "1",
    "8-3-0": "0",
    "8-3-1": "0",
    "8-3-2": "0",
    "8-3-3": "0",
    "8-3-4": "0",
    "8-3-5": "0",
    "8-3-6": "0",
    "8-3-7": "0",
    "8-3-8": "0",
    "8-4-0": "0",
    "8-4-1": "0",
    "8-4-2": "0",
    "8-4-3": "0",
    "8-4-4": "0",
    "8-4-5": "0",
    "8-4-6": "0",
    "8-4-7": "0",
    "8-4-8": "0",
    "8-5-0": "0",
    "8-5-1": "0",
    "8-5-2": "0",
    "8-5-3": "0",
    "8-5-4": "0",
    "8-5-5": "0",
    "8-5-6": "0",
    "8-5-7": "0",
    "8-5-8": "0",
    "8-6-0": "0",
    "8-6-1": "0",
    "8-6-2": "0",
    "8-6-3": "0",
    "8-6-4": "0",
    "8-6-5": "0",
    "8-6-6": "0",
    "8-6-7": "0",
    "8-6-8": "0",
    "8-7-0": "1",
    "8-7-1": "1",
    "8-7-2": "1",
    "8-7-3": "1",
    "8-7-4": "1",
    "8-7-5": "1",
    "8-7-6": "1",
    "8-7-7": "1",
    "8-7-8": "1",
    "8-8-0": "0",
    "8-8-1": "0",
    "8-8-2": "0",
    "8-8-3": "0",
    "8-8-4": "0",
    "8-8-5": "0",
    "8-8-6": "0",
    "8-8-7": "0",
    "8-8-8": "0",
    "8-9-0": "0",
    "8-9-1": "0",
    "8-9-2": "0",
    "8-9-3": "0",
    "8-9-4": "0",
    "8-9-5": "0",
    "8-9-6": "0",
    "8-9-7": "0",
    "8-9-8": "0",
    "8-10-0": "0",
    "8-10-1": "0",
    "8-10-2": "0",
    "8-10-3": "0",
    "8-10-4": "0",
    "8-10-5": "0",
    "8-10-6": "0",
    "8-10-7": "0",
    "8-10-8": "0"
  },
    "inventorys": [
    {"pos": "3-8-8", "loot": "futurepack:chests/ld_special"},
	{"pos": "5-9-8", "loot": "futurepack:chests/ld_special"},
	{"pos": "3-9-8", "loot": "futurepack:chests/ld_common"},
	{"pos": "5-8-8", "loot": "futurepack:chests/ld_common"},
	{"pos": "4-8-8", "loot": "futurepack:chests/ld_battery"},
	{"pos": "4-9-8", "loot": "futurepack:chests/ld_battery"},	
	{"pos": "7-1-7", "loot": "futurepack:chests/ld_craft"}
  ],
  
  "doors": [
    {
      "facing": 3,
      "w": 3,
      "h": 3,
      "d": 1,
      "start": "3,1,8"
    }
  ],
  "stateMap": {
    "0": "futurepack:color_iron_gray:",
    "1": "futurepack:color_iron_purple:",
    "10": "futurepack:quantanium:down\u003dfalse;east\u003dtrue;north\u003dfalse;south\u003dfalse;up\u003dfalse;west\u003dfalse",
    "11": "futurepack:color_gitter_pane_purple:east\u003dfalse;north\u003dtrue;south\u003dtrue;waterlogged\u003dfalse;west\u003dfalse",
    "12": "futurepack:quantanium:down\u003dfalse;east\u003dfalse;north\u003dfalse;south\u003dtrue;up\u003dfalse;west\u003dtrue",
    "13": "futurepack:color_iron_fence_gray:east\u003dfalse;north\u003dfalse;south\u003dfalse;waterlogged\u003dfalse;west\u003dfalse",
    "14": "futurepack:quantanium:down\u003dfalse;east\u003dfalse;north\u003dfalse;south\u003dfalse;up\u003dtrue;west\u003dfalse",
    "15": "futurepack:color_plasma_lamp_orange:lit\u003dtrue",
    "16": "futurepack:quantanium:down\u003dtrue;east\u003dfalse;north\u003dfalse;south\u003dfalse;up\u003dtrue;west\u003dfalse",
    "17": "futurepack:color_iron_slab_purple:type\u003dtop;waterlogged\u003dfalse",
    "18": "futurepack:quantanium:down\u003dtrue;east\u003dfalse;north\u003dfalse;south\u003dfalse;up\u003dfalse;west\u003dfalse",
    "19": "futurepack:wardrobe_white_large_2:",
    "1a": "futurepack:modul_1_gray:facing\u003dnorth",
    "1b": "futurepack:ironladder:facing\u003dwest;waterlogged\u003dfalse",
    "1c": "futurepack:quantanium:down\u003dfalse;east\u003dfalse;north\u003dtrue;south\u003dfalse;up\u003dfalse;west\u003dtrue",
    "1d": "futurepack:industrial_furnace:facing\u003dwest;lit\u003dfalse",
    "1e": "futurepack:techtable:facing\u003dnorth",
    "2": "futurepack:quantanium:down\u003dfalse;east\u003dtrue;north\u003dfalse;south\u003dtrue;up\u003dfalse;west\u003dfalse",
    "3": "futurepack:quantanium:down\u003dfalse;east\u003dfalse;north\u003dtrue;south\u003dtrue;up\u003dfalse;west\u003dfalse",
    "4": "futurepack:quantanium:down\u003dfalse;east\u003dfalse;north\u003dtrue;south\u003dfalse;up\u003dfalse;west\u003dfalse",
    "5": "minecraft:sticky_piston:extended\u003dfalse;facing\u003dup",
    "6": "minecraft:air:",
    "7": "futurepack:industrial_furnace:facing\u003deast;lit\u003dfalse",
    "8": "minecraft:light_weighted_pressure_plate:power\u003d0",
    "9": "futurepack:color_iron_slab_blue:type\u003dbottom;waterlogged\u003dfalse",
    "a": "futurepack:extern_cooler:facing\u003dup;temp\u003d0;waterlogged\u003dfalse",
    "b": "futurepack:color_iron_slab_gray:type\u003dtop;waterlogged\u003dfalse",
    "c": "futurepack:color_iron_slab_gray:type\u003dbottom;waterlogged\u003dfalse",
    "d": "futurepack:quantanium:down\u003dfalse;east\u003dtrue;north\u003dtrue;south\u003dfalse;up\u003dfalse;west\u003dfalse",
    "e": "futurepack:quantanium:down\u003dfalse;east\u003dtrue;north\u003dfalse;south\u003dfalse;up\u003dfalse;west\u003dtrue",
    "f": "futurepack:color_iron_black:"
  }
}