{
  "data": {
    "0-0-2": "0",
    "0-0-3": "0",
    "0-0-4": "0",
    "0-0-5": "0",
    "0-0-6": "0",
    "0-1-2": "0",
    "0-1-3": "0",
    "0-1-4": "0",
    "0-1-5": "0",
    "0-1-6": "0",
    "0-2-2": "1",
    "0-2-3": "2",
    "0-2-4": "3",
    "0-2-5": "2",
    "0-2-6": "1",
    "0-3-2": "0",
    "0-3-3": "0",
    "0-3-4": "0",
    "0-3-5": "0",
    "0-3-6": "0",
    "0-4-2": "0",
    "0-4-3": "0",
    "0-4-4": "0",
    "0-4-5": "0",
    "0-4-6": "0",
    "1-0-2": "0",
    "1-0-3": "0",
    "1-0-4": "0",
    "1-0-5": "0",
    "1-0-6": "0",
    "1-1-2": "0",
    "1-1-3": "4",
    "1-1-4": "4",
    "1-1-5": "4",
    "1-1-6": "0",
    "1-2-2": "2",
    "1-2-3": "4",
    "1-2-4": "4",
    "1-2-5": "4",
    "1-2-6": "2",
    "1-3-2": "0",
    "1-3-3": "4",
    "1-3-4": "4",
    "1-3-5": "4",
    "1-3-6": "0",
    "1-4-2": "0",
    "1-4-3": "0",
    "1-4-4": "0",
    "1-4-5": "0",
    "1-4-6": "0",
    "2-0-0": "0",
    "2-0-1": "0",
    "2-0-2": "0",
    "2-0-3": "0",
    "2-0-4": "0",
    "2-0-5": "0",
    "2-0-6": "0",
    "2-0-7": "0",
    "2-0-8": "0",
    "2-1-0": "0",
    "2-1-1": "0",
    "2-1-2": "5",
    "2-1-3": "4",
    "2-1-4": "6",
    "2-1-5": "4",
    "2-1-6": "7",
    "2-1-7": "0",
    "2-1-8": "0",
    "2-2-0": "1",
    "2-2-1": "2",
    "2-2-2": "8",
    "2-2-3": "4",
    "2-2-4": "4",
    "2-2-5": "4",
    "2-2-6": "9",
    "2-2-7": "2",
    "2-2-8": "1",
    "2-3-0": "0",
    "2-3-1": "0",
    "2-3-2": "5",
    "2-3-3": "4",
    "2-3-4": "4",
    "2-3-5": "4",
    "2-3-6": "7",
    "2-3-7": "0",
    "2-3-8": "0",
    "2-4-0": "0",
    "2-4-1": "0",
    "2-4-2": "0",
    "2-4-3": "0",
    "2-4-4": "a",
    "2-4-5": "0",
    "2-4-6": "0",
    "2-4-7": "0",
    "2-4-8": "0",
    "2-5-0": "b",
    "2-5-1": "c",
    "2-5-2": "c",
    "2-5-3": "c",
    "2-5-4": "d",
    "2-5-5": "c",
    "2-5-6": "e",
    "3-0-0": "0",
    "3-0-1": "0",
    "3-0-2": "0",
    "3-0-3": "0",
    "3-0-4": "a",
    "3-0-5": "0",
    "3-0-6": "0",
    "3-0-7": "0",
    "3-0-8": "0",
    "3-1-0": "0",
    "3-1-1": "4",
    "3-1-2": "4",
    "3-1-3": "4",
    "3-1-4": "4",
    "3-1-5": "4",
    "3-1-6": "4",
    "3-1-7": "4",
    "3-1-8": "0",
    "3-2-0": "2",
    "3-2-1": "4",
    "3-2-2": "4",
    "3-2-3": "4",
    "3-2-4": "4",
    "3-2-5": "4",
    "3-2-6": "4",
    "3-2-7": "4",
    "3-2-8": "2",
    "3-3-0": "0",
    "3-3-1": "4",
    "3-3-2": "4",
    "3-3-3": "4",
    "3-3-4": "4",
    "3-3-5": "4",
    "3-3-6": "4",
    "3-3-7": "4",
    "3-3-8": "0",
    "3-4-0": "0",
    "3-4-1": "0",
    "3-4-2": "0",
    "3-4-3": "0",
    "3-4-4": "0",
    "3-4-5": "0",
    "3-4-6": "0",
    "3-4-7": "0",
    "3-4-8": "0",
    "3-5-0": "f",
    "3-5-3": "0",
    "3-5-4": "0",
    "3-5-5": "0",
    "3-5-6": "f",
    "3-6-3": "0",
    "3-6-4": "0",
    "3-6-5": "0",
    "3-7-3": "0",
    "3-7-4": "0",
    "3-7-5": "0",
    "4-0-0": "0",
    "4-0-1": "0",
    "4-0-2": "0",
    "4-0-3": "a",
    "4-0-4": "0",
    "4-0-5": "a",
    "4-0-6": "0",
    "4-0-7": "0",
    "4-0-8": "0",
    "4-1-0": "0",
    "4-1-1": "4",
    "4-1-2": "10",
    "4-1-3": "4",
    "4-1-4": "11",
    "4-1-5": "4",
    "4-1-6": "12",
    "4-1-7": "4",
    "4-1-8": "0",
    "4-2-0": "1",
    "4-2-1": "4",
    "4-2-2": "4",
    "4-2-3": "4",
    "4-2-4": "4",
    "4-2-5": "4",
    "4-2-6": "4",
    "4-2-7": "4",
    "4-2-8": "1",
    "4-3-0": "0",
    "4-3-1": "4",
    "4-3-2": "4",
    "4-3-3": "4",
    "4-3-4": "4",
    "4-3-5": "4",
    "4-3-6": "4",
    "4-3-7": "4",
    "4-3-8": "0",
    "4-4-0": "0",
    "4-4-1": "0",
    "4-4-2": "a",
    "4-4-3": "0",
    "4-4-4": "0",
    "4-4-5": "0",
    "4-4-6": "a",
    "4-4-7": "0",
    "4-4-8": "0",
    "4-5-0": "13",
    "4-5-3": "0",
    "4-5-4": "14",
    "4-5-5": "0",
    "4-5-6": "15",
    "4-5-7": "c",
    "4-5-8": "e",
    "4-6-0": "4",
    "4-6-3": "0",
    "4-6-4": "14",
    "4-6-5": "0",
    "4-7-3": "0",
    "4-7-4": "14",
    "4-7-5": "0",
    "5-0-0": "0",
    "5-0-1": "0",
    "5-0-2": "0",
    "5-0-3": "0",
    "5-0-4": "a",
    "5-0-5": "0",
    "5-0-6": "0",
    "5-0-7": "0",
    "5-0-8": "0",
    "5-1-0": "0",
    "5-1-1": "4",
    "5-1-2": "4",
    "5-1-3": "4",
    "5-1-4": "4",
    "5-1-5": "4",
    "5-1-6": "4",
    "5-1-7": "4",
    "5-1-8": "0",
    "5-2-0": "2",
    "5-2-1": "4",
    "5-2-2": "4",
    "5-2-3": "4",
    "5-2-4": "4",
    "5-2-5": "4",
    "5-2-6": "4",
    "5-2-7": "4",
    "5-2-8": "2",
    "5-3-0": "0",
    "5-3-1": "4",
    "5-3-2": "4",
    "5-3-3": "4",
    "5-3-4": "4",
    "5-3-5": "4",
    "5-3-6": "4",
    "5-3-7": "4",
    "5-3-8": "0",
    "5-4-0": "0",
    "5-4-1": "0",
    "5-4-2": "0",
    "5-4-3": "0",
    "5-4-4": "0",
    "5-4-5": "0",
    "5-4-6": "0",
    "5-4-7": "0",
    "5-4-8": "0",
    "5-5-0": "0",
    "5-5-1": "0",
    "5-5-2": "0",
    "5-5-3": "0",
    "5-5-4": "4",
    "5-5-5": "0",
    "5-5-8": "16",
    "5-6-0": "17",
    "5-6-1": "18",
    "5-6-2": "18",
    "5-6-3": "0",
    "5-6-4": "19",
    "5-6-5": "0",
    "5-7-3": "0",
    "5-7-4": "0",
    "5-7-5": "0",
    "6-0-0": "0",
    "6-0-1": "0",
    "6-0-2": "0",
    "6-0-3": "0",
    "6-0-4": "0",
    "6-0-5": "0",
    "6-0-6": "0",
    "6-0-7": "0",
    "6-0-8": "0",
    "6-1-0": "0",
    "6-1-1": "0",
    "6-1-2": "1a",
    "6-1-3": "4",
    "6-1-4": "1b",
    "6-1-5": "4",
    "6-1-6": "1c",
    "6-1-7": "0",
    "6-1-8": "0",
    "6-2-0": "1",
    "6-2-1": "2",
    "6-2-2": "1d",
    "6-2-3": "4",
    "6-2-4": "4",
    "6-2-5": "4",
    "6-2-6": "1e",
    "6-2-7": "2",
    "6-2-8": "1",
    "6-3-0": "0",
    "6-3-1": "0",
    "6-3-2": "1a",
    "6-3-3": "4",
    "6-3-4": "4",
    "6-3-5": "4",
    "6-3-6": "1c",
    "6-3-7": "0",
    "6-3-8": "0",
    "6-4-0": "0",
    "6-4-1": "0",
    "6-4-2": "0",
    "6-4-3": "0",
    "6-4-4": "a",
    "6-4-5": "0",
    "6-4-6": "0",
    "6-4-7": "0",
    "6-4-8": "0",
    "6-5-0": "0",
    "6-5-1": "0",
    "6-5-2": "0",
    "6-5-3": "0",
    "6-5-4": "0",
    "6-5-5": "1f",
    "6-5-6": "20",
    "6-5-7": "21",
    "6-5-8": "0",
    "6-6-0": "22",
    "6-6-1": "23",
    "6-6-2": "24",
    "6-6-3": "25",
    "6-6-4": "0",
    "6-6-5": "0",
    "6-6-7": "4",
    "6-7-3": "0",
    "6-7-4": "0",
    "6-7-5": "0",
    "7-0-2": "0",
    "7-0-3": "0",
    "7-0-4": "0",
    "7-0-5": "0",
    "7-0-6": "0",
    "7-1-2": "0",
    "7-1-3": "4",
    "7-1-4": "4",
    "7-1-5": "4",
    "7-1-6": "0",
    "7-2-2": "2",
    "7-2-3": "4",
    "7-2-4": "4",
    "7-2-5": "4",
    "7-2-6": "2",
    "7-3-2": "0",
    "7-3-3": "4",
    "7-3-4": "4",
    "7-3-5": "4",
    "7-3-6": "0",
    "7-4-0": "0",
    "7-4-1": "0",
    "7-4-2": "0",
    "7-4-3": "0",
    "7-4-4": "0",
    "7-4-5": "0",
    "7-4-6": "0",
    "7-5-0": "0",
    "7-5-1": "26",
    "7-5-3": "0",
    "7-5-4": "4",
    "7-5-5": "0",
    "7-6-0": "f",
    "7-6-3": "0",
    "7-6-4": "4",
    "7-6-5": "0",
    "7-7-3": "0",
    "7-7-4": "0",
    "7-7-5": "0",
    "8-0-2": "0",
    "8-0-3": "0",
    "8-0-4": "0",
    "8-0-5": "0",
    "8-0-6": "0",
    "8-1-2": "0",
    "8-1-3": "0",
    "8-1-4": "4",
    "8-1-5": "0",
    "8-1-6": "0",
    "8-2-2": "1",
    "8-2-3": "2",
    "8-2-4": "4",
    "8-2-5": "2",
    "8-2-6": "1",
    "8-3-2": "0",
    "8-3-3": "0",
    "8-3-4": "0",
    "8-3-5": "0",
    "8-3-6": "0",
    "8-4-0": "0",
    "8-4-1": "0",
    "8-4-2": "0",
    "8-4-3": "0",
    "8-4-4": "0",
    "8-4-5": "0",
    "8-4-6": "0",
    "8-5-0": "27",
    "8-5-1": "28",
    "8-5-3": "0",
    "8-5-4": "4",
    "8-5-5": "0",
    "8-6-0": "4",
    "8-6-3": "0",
    "8-6-4": "4",
    "8-6-5": "0",
    "8-7-3": "0",
    "8-7-4": "0",
    "8-7-5": "0",
    "9-0-3": "0",
    "9-0-4": "0",
    "9-0-5": "0",
    "9-1-3": "0",
    "9-1-4": "29",
    "9-1-5": "0",
    "9-2-3": "0",
    "9-2-4": "29",
    "9-2-5": "0",
    "9-3-3": "0",
    "9-3-4": "29",
    "9-3-5": "0",
    "9-4-3": "0",
    "9-4-4": "29",
    "9-4-5": "0",
    "9-5-3": "0",
    "9-5-4": "29",
    "9-5-5": "0",
    "9-6-3": "0",
    "9-6-4": "29",
    "9-6-5": "0",
    "9-7-3": "0",
    "9-7-4": "0",
    "9-7-5": "0",
    "10-0-3": "0",
    "10-0-4": "0",
    "10-0-5": "0",
    "10-1-3": "0",
    "10-1-4": "0",
    "10-1-5": "0",
    "10-2-3": "0",
    "10-2-4": "0",
    "10-2-5": "0",
    "10-3-3": "0",
    "10-3-4": "0",
    "10-3-5": "0",
    "10-4-3": "0",
    "10-4-4": "0",
    "10-4-5": "0",
    "10-5-3": "0",
    "10-5-4": "0",
    "10-5-5": "0",
    "10-6-3": "0",
    "10-6-4": "0",
    "10-6-5": "0",
    "10-7-3": "0",
    "10-7-4": "0",
    "10-7-5": "0"
  },
  "inventorys": [
    {
    	"pos":"2-1-4",
    	"loot":"futurepack:chests/tec_dungeon"
    },
    {
    	"pos":"4-1-2",
    	"loot":"futurepack:chests/tec_dungeon"
    },
    {
    	"pos":"4-1-6",
    	"loot":"futurepack:chests/tec_dungeon_escanner"
    },
    {
    	"pos":"6-1-4",
    	"loot":"futurepack:chests/tec_dungeon"
    }
  ],
  "doors": [
	{
      "facing": 1,
      "w": 1,
      "h": 1,
      "d": 1,
      "start": "4,7,4"
    }
  ],
  "stateMap": {
    "0": "futurepack:color_iron_magenta:",
    "1": "futurepack:color_iron_black:",
    "10": "futurepack:composite_chest:facing\u003dsouth;type\u003dsingle;waterlogged\u003dfalse",
    "11": "minecraft:stone_pressure_plate:powered\u003dfalse",
    "12": "futurepack:composite_chest:facing\u003dnorth;type\u003dsingle;waterlogged\u003dfalse",
    "13": "minecraft:redstone_wire:east\u003dup;north\u003dnone;power\u003d0;south\u003dnone;west\u003dside",
    "14": "futurepack:ironladder:facing\u003deast;waterlogged\u003dfalse",
    "15": "minecraft:redstone_wire:east\u003dnone;north\u003dnone;power\u003d0;south\u003dside;west\u003dside",
    "16": "minecraft:redstone_wire:east\u003dnone;north\u003dnone;power\u003d0;south\u003dnone;west\u003dside",
    "17": "minecraft:redstone_wire:east\u003dside;north\u003dnone;power\u003d0;south\u003dside;west\u003dside",
    "18": "minecraft:repeater:delay\u003d1;facing\u003dsouth;locked\u003dfalse;powered\u003dfalse",
    "19": "minecraft:lever:face\u003dwall;facing\u003dsouth;powered\u003dfalse",
    "1a": "futurepack:color_iron_fence_magenta:east\u003dtrue;north\u003dtrue;south\u003dfalse;waterlogged\u003dfalse;west\u003dfalse",
    "1b": "futurepack:composite_chest:facing\u003dwest;type\u003dsingle;waterlogged\u003dfalse",
    "1c": "futurepack:color_iron_fence_magenta:east\u003dtrue;north\u003dfalse;south\u003dtrue;waterlogged\u003dfalse;west\u003dfalse",
    "1d": "futurepack:color_iron_fence_black:east\u003dtrue;north\u003dtrue;south\u003dfalse;waterlogged\u003dfalse;west\u003dfalse",
    "1e": "futurepack:color_iron_fence_black:east\u003dtrue;north\u003dfalse;south\u003dtrue;waterlogged\u003dfalse;west\u003dfalse",
    "1f": "minecraft:piston_head:facing\u003dnorth;short\u003dfalse;type\u003dsticky",
    "2": "futurepack:color_iron_yellow:",
    "20": "minecraft:sticky_piston:extended\u003dtrue;facing\u003dnorth",
    "21": "minecraft:redstone_wall_torch:facing\u003dnorth;lit\u003dtrue",
    "22": "minecraft:repeater:delay\u003d1;facing\u003dwest;locked\u003dfalse;powered\u003dfalse",
    "23": "minecraft:redstone_torch:lit\u003dtrue",
    "24": "minecraft:sticky_piston:extended\u003dtrue;facing\u003dsouth",
    "25": "minecraft:piston_head:facing\u003dsouth;short\u003dfalse;type\u003dsticky",
    "26": "minecraft:repeater:delay\u003d1;facing\u003deast;locked\u003dfalse;powered\u003dfalse",
    "27": "minecraft:redstone_wire:east\u003dnone;north\u003dnone;power\u003d0;south\u003dside;west\u003dup",
    "28": "minecraft:redstone_wire:east\u003dnone;north\u003dside;power\u003d0;south\u003dnone;west\u003dside",
    "29": "futurepack:ironladder:facing\u003dwest;waterlogged\u003dfalse",
    "3": "futurepack:color_gitter_pane_black:east\u003dfalse;north\u003dtrue;south\u003dtrue;waterlogged\u003dfalse;west\u003dfalse",
    "4": "minecraft:air:",
    "5": "futurepack:color_iron_fence_magenta:east\u003dfalse;north\u003dtrue;south\u003dfalse;waterlogged\u003dfalse;west\u003dtrue",
    "6": "futurepack:composite_chest:facing\u003deast;type\u003dsingle;waterlogged\u003dfalse",
    "7": "futurepack:color_iron_fence_magenta:east\u003dfalse;north\u003dfalse;south\u003dtrue;waterlogged\u003dfalse;west\u003dtrue",
    "8": "futurepack:color_iron_fence_black:east\u003dfalse;north\u003dtrue;south\u003dfalse;waterlogged\u003dfalse;west\u003dtrue",
    "9": "futurepack:color_iron_fence_black:east\u003dfalse;north\u003dfalse;south\u003dtrue;waterlogged\u003dfalse;west\u003dtrue",
    "a": "futurepack:color_plasma_lamp_magenta:lit\u003dtrue",
    "b": "minecraft:redstone_wire:east\u003dside;north\u003dnone;power\u003d0;south\u003dside;west\u003dnone",
    "c": "minecraft:redstone_wire:east\u003dnone;north\u003dside;power\u003d0;south\u003dside;west\u003dnone",
    "d": "minecraft:repeater:delay\u003d1;facing\u003dnorth;locked\u003dfalse;powered\u003dfalse",
    "e": "minecraft:redstone_wire:east\u003dside;north\u003dside;power\u003d0;south\u003dnone;west\u003dnone",
    "f": "minecraft:redstone_wire:east\u003dside;north\u003dnone;power\u003d0;south\u003dnone;west\u003dside"
  }
}