{
  "data": {
    "0-0-0": "0",
    "0-0-1": "1",
    "0-0-2": "1",
    "0-0-3": "2",
    "0-0-4": "3",
    "0-0-5": "4",
    "0-0-6": "4",
    "0-0-7": "4",
    "0-0-8": "4",
    "0-0-9": "4",
    "0-0-10": "4",
    "0-0-11": "4",
    "0-0-12": "4",
    "0-0-13": "4",
    "0-1-0": "4",
    "0-1-1": "4",
    "0-1-2": "4",
    "0-1-3": "4",
    "0-1-4": "4",
    "0-1-5": "4",
    "0-1-6": "4",
    "0-1-7": "4",
    "0-1-8": "4",
    "0-1-9": "4",
    "0-1-10": "4",
    "0-1-11": "4",
    "0-1-12": "4",
    "0-1-13": "4",
    "0-2-0": "4",
    "0-2-1": "5",
    "0-2-2": "5",
    "0-2-3": "5",
    "0-2-4": "5",
    "0-2-5": "5",
    "0-2-6": "5",
    "0-2-7": "5",
    "0-2-8": "5",
    "0-2-9": "5",
    "0-2-10": "5",
    "0-2-11": "5",
    "0-2-12": "5",
    "0-2-13": "5",
    "0-3-0": "4",
    "0-3-1": "4",
    "0-3-2": "4",
    "0-3-3": "4",
    "0-3-4": "4",
    "0-3-5": "4",
    "0-3-6": "4",
    "0-3-7": "4",
    "0-3-8": "4",
    "0-3-9": "4",
    "0-3-10": "4",
    "0-3-11": "4",
    "0-3-12": "4",
    "0-3-13": "4",
    "0-4-0": "4",
    "0-4-1": "4",
    "0-4-2": "4",
    "0-4-3": "4",
    "0-4-4": "4",
    "0-4-5": "4",
    "0-4-6": "4",
    "0-4-7": "4",
    "0-4-8": "4",
    "0-4-9": "4",
    "0-4-10": "4",
    "0-4-11": "4",
    "0-4-12": "4",
    "0-4-13": "4",
    "1-0-0": "6",
    "1-0-1": "4",
    "1-0-2": "7",
    "1-0-3": "8",
    "1-0-4": "8",
    "1-0-5": "8",
    "1-0-6": "8",
    "1-0-7": "8",
    "1-0-8": "8",
    "1-0-9": "8",
    "1-0-10": "8",
    "1-0-11": "8",
    "1-0-12": "8",
    "1-0-13": "9",
    "1-0-14": "4",
    "1-0-15": "4",
    "1-1-0": "a",
    "1-1-1": "4",
    "1-1-2": "b",
    "1-1-3": "b",
    "1-1-4": "b",
    "1-1-5": "b",
    "1-1-6": "b",
    "1-1-7": "b",
    "1-1-8": "b",
    "1-1-9": "b",
    "1-1-10": "b",
    "1-1-11": "b",
    "1-1-12": "b",
    "1-1-13": "b",
    "1-1-14": "4",
    "1-1-15": "4",
    "1-2-0": "a",
    "1-2-1": "5",
    "1-2-2": "b",
    "1-2-3": "b",
    "1-2-4": "b",
    "1-2-5": "b",
    "1-2-6": "b",
    "1-2-7": "b",
    "1-2-8": "b",
    "1-2-9": "b",
    "1-2-10": "b",
    "1-2-11": "b",
    "1-2-12": "b",
    "1-2-13": "b",
    "1-2-14": "5",
    "1-2-15": "5",
    "1-3-0": "c",
    "1-3-1": "4",
    "1-3-2": "b",
    "1-3-3": "b",
    "1-3-4": "b",
    "1-3-5": "b",
    "1-3-6": "b",
    "1-3-7": "b",
    "1-3-8": "b",
    "1-3-9": "b",
    "1-3-10": "b",
    "1-3-11": "b",
    "1-3-12": "b",
    "1-3-13": "b",
    "1-3-14": "4",
    "1-3-15": "4",
    "1-4-0": "4",
    "1-4-1": "4",
    "1-4-2": "7",
    "1-4-3": "8",
    "1-4-4": "8",
    "1-4-5": "8",
    "1-4-6": "8",
    "1-4-7": "8",
    "1-4-8": "8",
    "1-4-9": "8",
    "1-4-10": "8",
    "1-4-11": "8",
    "1-4-12": "8",
    "1-4-13": "9",
    "1-4-14": "4",
    "1-4-15": "4",
    "2-0-0": "4",
    "2-0-1": "4",
    "2-0-2": "d",
    "2-0-3": "e",
    "2-0-4": "e",
    "2-0-5": "e",
    "2-0-6": "e",
    "2-0-7": "e",
    "2-0-8": "e",
    "2-0-9": "e",
    "2-0-10": "e",
    "2-0-11": "e",
    "2-0-12": "e",
    "2-0-13": "e",
    "2-0-14": "f",
    "2-0-15": "9",
    "2-0-16": "4",
    "2-0-17": "4",
    "2-1-0": "10",
    "2-1-1": "4",
    "2-1-2": "b",
    "2-1-3": "b",
    "2-1-4": "b",
    "2-1-5": "b",
    "2-1-6": "b",
    "2-1-7": "b",
    "2-1-8": "b",
    "2-1-9": "b",
    "2-1-10": "b",
    "2-1-11": "b",
    "2-1-12": "b",
    "2-1-13": "b",
    "2-1-14": "b",
    "2-1-15": "b",
    "2-1-16": "4",
    "2-1-17": "4",
    "2-2-0": "10",
    "2-2-1": "5",
    "2-2-2": "b",
    "2-2-3": "b",
    "2-2-4": "b",
    "2-2-5": "b",
    "2-2-6": "b",
    "2-2-7": "b",
    "2-2-8": "b",
    "2-2-9": "b",
    "2-2-10": "b",
    "2-2-11": "b",
    "2-2-12": "b",
    "2-2-13": "b",
    "2-2-14": "b",
    "2-2-15": "b",
    "2-2-16": "5",
    "2-2-17": "5",
    "2-3-0": "10",
    "2-3-1": "4",
    "2-3-2": "b",
    "2-3-3": "b",
    "2-3-4": "b",
    "2-3-5": "b",
    "2-3-6": "b",
    "2-3-7": "b",
    "2-3-8": "b",
    "2-3-9": "b",
    "2-3-10": "b",
    "2-3-11": "b",
    "2-3-12": "b",
    "2-3-13": "b",
    "2-3-14": "b",
    "2-3-15": "b",
    "2-3-16": "4",
    "2-3-17": "4",
    "2-4-0": "4",
    "2-4-1": "4",
    "2-4-2": "d",
    "2-4-3": "e",
    "2-4-4": "e",
    "2-4-5": "e",
    "2-4-6": "e",
    "2-4-7": "e",
    "2-4-8": "e",
    "2-4-9": "e",
    "2-4-10": "e",
    "2-4-11": "e",
    "2-4-12": "e",
    "2-4-13": "e",
    "2-4-14": "f",
    "2-4-15": "9",
    "2-4-16": "4",
    "2-4-17": "4",
    "3-0-0": "f",
    "3-0-1": "8",
    "3-0-2": "11",
    "3-0-3": "e",
    "3-0-4": "e",
    "3-0-5": "e",
    "3-0-6": "e",
    "3-0-7": "e",
    "3-0-8": "e",
    "3-0-9": "e",
    "3-0-10": "e",
    "3-0-11": "e",
    "3-0-12": "e",
    "3-0-13": "e",
    "3-0-14": "e",
    "3-0-15": "e",
    "3-0-16": "f",
    "3-0-17": "9",
    "3-1-0": "12",
    "3-1-1": "b",
    "3-1-2": "b",
    "3-1-3": "b",
    "3-1-4": "b",
    "3-1-5": "b",
    "3-1-6": "b",
    "3-1-7": "b",
    "3-1-8": "b",
    "3-1-9": "b",
    "3-1-10": "b",
    "3-1-11": "b",
    "3-1-12": "b",
    "3-1-13": "b",
    "3-1-14": "b",
    "3-1-15": "b",
    "3-1-16": "b",
    "3-1-17": "b",
    "3-2-0": "12",
    "3-2-1": "b",
    "3-2-2": "b",
    "3-2-3": "b",
    "3-2-4": "b",
    "3-2-5": "b",
    "3-2-6": "b",
    "3-2-7": "b",
    "3-2-8": "b",
    "3-2-9": "b",
    "3-2-10": "b",
    "3-2-11": "b",
    "3-2-12": "b",
    "3-2-13": "b",
    "3-2-14": "b",
    "3-2-15": "b",
    "3-2-16": "b",
    "3-2-17": "b",
    "3-3-0": "12",
    "3-3-1": "b",
    "3-3-2": "b",
    "3-3-3": "b",
    "3-3-4": "b",
    "3-3-5": "b",
    "3-3-6": "b",
    "3-3-7": "b",
    "3-3-8": "b",
    "3-3-9": "b",
    "3-3-10": "b",
    "3-3-11": "b",
    "3-3-12": "b",
    "3-3-13": "b",
    "3-3-14": "b",
    "3-3-15": "b",
    "3-3-16": "b",
    "3-3-17": "b",
    "3-4-0": "f",
    "3-4-1": "8",
    "3-4-2": "11",
    "3-4-3": "e",
    "3-4-4": "e",
    "3-4-5": "e",
    "3-4-6": "e",
    "3-4-7": "e",
    "3-4-8": "e",
    "3-4-9": "e",
    "3-4-10": "e",
    "3-4-11": "e",
    "3-4-12": "e",
    "3-4-13": "e",
    "3-4-14": "e",
    "3-4-15": "e",
    "3-4-16": "f",
    "3-4-17": "9",
    "4-0-0": "e",
    "4-0-1": "e",
    "4-0-2": "e",
    "4-0-3": "e",
    "4-0-4": "13",
    "4-0-5": "e",
    "4-0-6": "e",
    "4-0-7": "e",
    "4-0-8": "e",
    "4-0-9": "e",
    "4-0-10": "e",
    "4-0-11": "e",
    "4-0-12": "e",
    "4-0-13": "e",
    "4-0-14": "e",
    "4-0-15": "e",
    "4-0-16": "e",
    "4-0-17": "e",
    "4-1-0": "12",
    "4-1-1": "b",
    "4-1-2": "b",
    "4-1-3": "b",
    "4-1-4": "14",
    "4-1-5": "b",
    "4-1-6": "b",
    "4-1-7": "b",
    "4-1-8": "b",
    "4-1-9": "b",
    "4-1-10": "b",
    "4-1-11": "b",
    "4-1-12": "b",
    "4-1-13": "b",
    "4-1-14": "b",
    "4-1-15": "b",
    "4-1-16": "b",
    "4-1-17": "b",
    "4-2-0": "12",
    "4-2-1": "b",
    "4-2-2": "b",
    "4-2-3": "b",
    "4-2-4": "b",
    "4-2-5": "b",
    "4-2-6": "b",
    "4-2-7": "b",
    "4-2-8": "b",
    "4-2-9": "b",
    "4-2-10": "b",
    "4-2-11": "b",
    "4-2-12": "b",
    "4-2-13": "b",
    "4-2-14": "b",
    "4-2-15": "b",
    "4-2-16": "b",
    "4-2-17": "b",
    "4-3-0": "12",
    "4-3-1": "b",
    "4-3-2": "b",
    "4-3-3": "b",
    "4-3-4": "b",
    "4-3-5": "b",
    "4-3-6": "b",
    "4-3-7": "b",
    "4-3-8": "b",
    "4-3-9": "b",
    "4-3-10": "b",
    "4-3-11": "b",
    "4-3-12": "b",
    "4-3-13": "b",
    "4-3-14": "b",
    "4-3-15": "b",
    "4-3-16": "b",
    "4-3-17": "b",
    "4-4-0": "e",
    "4-4-1": "e",
    "4-4-2": "e",
    "4-4-3": "e",
    "4-4-4": "e",
    "4-4-5": "e",
    "4-4-6": "e",
    "4-4-7": "e",
    "4-4-8": "e",
    "4-4-9": "e",
    "4-4-10": "e",
    "4-4-11": "e",
    "4-4-12": "e",
    "4-4-13": "e",
    "4-4-14": "e",
    "4-4-15": "e",
    "4-4-16": "e",
    "4-4-17": "e",
    "5-0-0": "f",
    "5-0-1": "8",
    "5-0-2": "15",
    "5-0-3": "e",
    "5-0-4": "e",
    "5-0-5": "e",
    "5-0-6": "e",
    "5-0-7": "e",
    "5-0-8": "e",
    "5-0-9": "e",
    "5-0-10": "e",
    "5-0-11": "e",
    "5-0-12": "e",
    "5-0-13": "e",
    "5-0-14": "e",
    "5-0-15": "e",
    "5-0-16": "f",
    "5-0-17": "9",
    "5-1-0": "12",
    "5-1-1": "b",
    "5-1-2": "b",
    "5-1-3": "b",
    "5-1-4": "b",
    "5-1-5": "b",
    "5-1-6": "b",
    "5-1-7": "b",
    "5-1-8": "b",
    "5-1-9": "b",
    "5-1-10": "b",
    "5-1-11": "b",
    "5-1-12": "b",
    "5-1-13": "b",
    "5-1-14": "b",
    "5-1-15": "b",
    "5-1-16": "b",
    "5-1-17": "b",
    "5-2-0": "12",
    "5-2-1": "b",
    "5-2-2": "b",
    "5-2-3": "b",
    "5-2-4": "b",
    "5-2-5": "b",
    "5-2-6": "b",
    "5-2-7": "b",
    "5-2-8": "b",
    "5-2-9": "b",
    "5-2-10": "b",
    "5-2-11": "b",
    "5-2-12": "b",
    "5-2-13": "b",
    "5-2-14": "b",
    "5-2-15": "b",
    "5-2-16": "b",
    "5-2-17": "b",
    "5-3-0": "12",
    "5-3-1": "b",
    "5-3-2": "b",
    "5-3-3": "b",
    "5-3-4": "b",
    "5-3-5": "b",
    "5-3-6": "b",
    "5-3-7": "b",
    "5-3-8": "b",
    "5-3-9": "b",
    "5-3-10": "b",
    "5-3-11": "b",
    "5-3-12": "b",
    "5-3-13": "b",
    "5-3-14": "b",
    "5-3-15": "b",
    "5-3-16": "b",
    "5-3-17": "b",
    "5-4-0": "f",
    "5-4-1": "8",
    "5-4-2": "15",
    "5-4-3": "e",
    "5-4-4": "e",
    "5-4-5": "e",
    "5-4-6": "e",
    "5-4-7": "e",
    "5-4-8": "e",
    "5-4-9": "e",
    "5-4-10": "e",
    "5-4-11": "e",
    "5-4-12": "e",
    "5-4-13": "e",
    "5-4-14": "e",
    "5-4-15": "e",
    "5-4-16": "f",
    "5-4-17": "9",
    "6-0-0": "4",
    "6-0-1": "4",
    "6-0-2": "d",
    "6-0-3": "e",
    "6-0-4": "e",
    "6-0-5": "e",
    "6-0-6": "e",
    "6-0-7": "e",
    "6-0-8": "e",
    "6-0-9": "e",
    "6-0-10": "e",
    "6-0-11": "e",
    "6-0-12": "e",
    "6-0-13": "e",
    "6-0-14": "f",
    "6-0-15": "9",
    "6-0-16": "4",
    "6-0-17": "4",
    "6-1-0": "16",
    "6-1-1": "4",
    "6-1-2": "b",
    "6-1-3": "b",
    "6-1-4": "b",
    "6-1-5": "b",
    "6-1-6": "b",
    "6-1-7": "b",
    "6-1-8": "b",
    "6-1-9": "b",
    "6-1-10": "b",
    "6-1-11": "b",
    "6-1-12": "b",
    "6-1-13": "b",
    "6-1-14": "b",
    "6-1-15": "b",
    "6-1-16": "4",
    "6-1-17": "4",
    "6-2-0": "16",
    "6-2-1": "5",
    "6-2-2": "b",
    "6-2-3": "b",
    "6-2-4": "b",
    "6-2-5": "b",
    "6-2-6": "b",
    "6-2-7": "b",
    "6-2-8": "b",
    "6-2-9": "b",
    "6-2-10": "b",
    "6-2-11": "b",
    "6-2-12": "b",
    "6-2-13": "b",
    "6-2-14": "b",
    "6-2-15": "b",
    "6-2-16": "5",
    "6-2-17": "5",
    "6-3-0": "16",
    "6-3-1": "4",
    "6-3-2": "b",
    "6-3-3": "b",
    "6-3-4": "b",
    "6-3-5": "b",
    "6-3-6": "b",
    "6-3-7": "b",
    "6-3-8": "b",
    "6-3-9": "b",
    "6-3-10": "b",
    "6-3-11": "b",
    "6-3-12": "b",
    "6-3-13": "b",
    "6-3-14": "b",
    "6-3-15": "b",
    "6-3-16": "4",
    "6-3-17": "4",
    "6-4-0": "4",
    "6-4-1": "4",
    "6-4-2": "d",
    "6-4-3": "e",
    "6-4-4": "e",
    "6-4-5": "e",
    "6-4-6": "e",
    "6-4-7": "e",
    "6-4-8": "e",
    "6-4-9": "e",
    "6-4-10": "e",
    "6-4-11": "e",
    "6-4-12": "e",
    "6-4-13": "e",
    "6-4-14": "f",
    "6-4-15": "9",
    "6-4-16": "4",
    "6-4-17": "4",
    "7-0-0": "17",
    "7-0-1": "4",
    "7-0-2": "18",
    "7-0-3": "8",
    "7-0-4": "8",
    "7-0-5": "8",
    "7-0-6": "8",
    "7-0-7": "8",
    "7-0-8": "8",
    "7-0-9": "8",
    "7-0-10": "8",
    "7-0-11": "8",
    "7-0-12": "8",
    "7-0-13": "9",
    "7-0-14": "4",
    "7-0-15": "4",
    "7-1-0": "a",
    "7-1-1": "4",
    "7-1-2": "b",
    "7-1-3": "b",
    "7-1-4": "b",
    "7-1-5": "b",
    "7-1-6": "b",
    "7-1-7": "b",
    "7-1-8": "b",
    "7-1-9": "b",
    "7-1-10": "b",
    "7-1-11": "b",
    "7-1-12": "b",
    "7-1-13": "b",
    "7-1-14": "4",
    "7-1-15": "4",
    "7-2-0": "a",
    "7-2-1": "5",
    "7-2-2": "b",
    "7-2-3": "b",
    "7-2-4": "b",
    "7-2-5": "b",
    "7-2-6": "b",
    "7-2-7": "b",
    "7-2-8": "b",
    "7-2-9": "b",
    "7-2-10": "b",
    "7-2-11": "b",
    "7-2-12": "b",
    "7-2-13": "b",
    "7-2-14": "5",
    "7-2-15": "5",
    "7-3-0": "19",
    "7-3-1": "4",
    "7-3-2": "b",
    "7-3-3": "b",
    "7-3-4": "b",
    "7-3-5": "b",
    "7-3-6": "b",
    "7-3-7": "b",
    "7-3-8": "b",
    "7-3-9": "b",
    "7-3-10": "b",
    "7-3-11": "b",
    "7-3-12": "b",
    "7-3-13": "b",
    "7-3-14": "4",
    "7-3-15": "4",
    "7-4-0": "4",
    "7-4-1": "4",
    "7-4-2": "18",
    "7-4-3": "8",
    "7-4-4": "8",
    "7-4-5": "8",
    "7-4-6": "8",
    "7-4-7": "8",
    "7-4-8": "8",
    "7-4-9": "8",
    "7-4-10": "8",
    "7-4-11": "8",
    "7-4-12": "8",
    "7-4-13": "9",
    "7-4-14": "4",
    "7-4-15": "4",
    "8-0-0": "1a",
    "8-0-1": "1",
    "8-0-2": "1",
    "8-0-3": "2",
    "8-0-4": "3",
    "8-0-5": "4",
    "8-0-6": "4",
    "8-0-7": "4",
    "8-0-8": "4",
    "8-0-9": "4",
    "8-0-10": "4",
    "8-0-11": "4",
    "8-0-12": "4",
    "8-0-13": "4",
    "8-1-0": "4",
    "8-1-1": "4",
    "8-1-2": "4",
    "8-1-3": "4",
    "8-1-4": "4",
    "8-1-5": "4",
    "8-1-6": "4",
    "8-1-7": "4",
    "8-1-8": "4",
    "8-1-9": "4",
    "8-1-10": "4",
    "8-1-11": "4",
    "8-1-12": "4",
    "8-1-13": "4",
    "8-2-0": "4",
    "8-2-1": "5",
    "8-2-2": "5",
    "8-2-3": "5",
    "8-2-4": "5",
    "8-2-5": "5",
    "8-2-6": "5",
    "8-2-7": "5",
    "8-2-8": "5",
    "8-2-9": "5",
    "8-2-10": "5",
    "8-2-11": "5",
    "8-2-12": "5",
    "8-2-13": "5",
    "8-3-0": "4",
    "8-3-1": "4",
    "8-3-2": "4",
    "8-3-3": "4",
    "8-3-4": "4",
    "8-3-5": "4",
    "8-3-6": "4",
    "8-3-7": "4",
    "8-3-8": "4",
    "8-3-9": "4",
    "8-3-10": "4",
    "8-3-11": "4",
    "8-3-12": "4",
    "8-3-13": "4",
    "8-4-0": "4",
    "8-4-1": "4",
    "8-4-2": "4",
    "8-4-3": "4",
    "8-4-4": "4",
    "8-4-5": "4",
    "8-4-6": "4",
    "8-4-7": "4",
    "8-4-8": "4",
    "8-4-9": "4",
    "8-4-10": "4",
    "8-4-11": "4",
    "8-4-12": "4",
    "8-4-13": "4"
  },
  "inventorys": [],
  "doors": [
    {
      "facing": 3,
      "w": 3,
      "h": 3,
      "d": 1,
      "start": "3,1,17"
    },
    {
      "facing": 2,
      "w": 3,
      "h": 3,
      "d": 1,
      "start": "3,1,0"
    }
  ],
  "stateMap": {
    "0": "futurepack:wire_redstone:down\u003dfalse;east\u003dtrue;hologram\u003dfalse;north\u003dfalse;redstone\u003dfalse;south\u003dtrue;state\u003doff;up\u003dfalse;west\u003dfalse",
    "1": "futurepack:wire_redstone:down\u003dfalse;east\u003dfalse;hologram\u003dfalse;north\u003dtrue;redstone\u003dfalse;south\u003dtrue;state\u003doff;up\u003dfalse;west\u003dfalse",
    "10": "futurepack:airlock_door:direction\u003deast;extended\u003dtrue",
    "11": "futurepack:quantanium:down\u003dfalse;east\u003dfalse;north\u003dtrue;south\u003dfalse;up\u003dfalse;west\u003dtrue",
    "12": "minecraft:barrier:",
    "13": "futurepack:wr_transmitter:power\u003d0",
    "14": "futurepack:dungeon_spawner:facing\u003dup;rot\u003d2",
    "15": "futurepack:quantanium:down\u003dfalse;east\u003dtrue;north\u003dtrue;south\u003dfalse;up\u003dfalse;west\u003dfalse",
    "16": "futurepack:airlock_door:direction\u003dwest;extended\u003dtrue",
    "17": "futurepack:wire_redstone:down\u003dfalse;east\u003dtrue;hologram\u003dfalse;north\u003dfalse;redstone\u003dfalse;south\u003dfalse;state\u003doff;up\u003dtrue;west\u003dfalse",
    "18": "futurepack:quantanium:down\u003dfalse;east\u003dfalse;north\u003dfalse;south\u003dtrue;up\u003dfalse;west\u003dtrue",
    "19": "futurepack:wire_redstone:down\u003dtrue;east\u003dfalse;hologram\u003dfalse;north\u003dfalse;redstone\u003dfalse;south\u003dtrue;state\u003doff;up\u003dfalse;west\u003dfalse",
    "1a": "futurepack:wire_redstone:down\u003dfalse;east\u003dfalse;hologram\u003dfalse;north\u003dfalse;redstone\u003dfalse;south\u003dtrue;state\u003doff;up\u003dfalse;west\u003dtrue",
    "2": "futurepack:wire_redstone:down\u003dfalse;east\u003dfalse;hologram\u003dfalse;north\u003dtrue;redstone\u003dtrue;south\u003dfalse;state\u003doff;up\u003dfalse;west\u003dfalse",
    "3": "futurepack:wr_receiver:power\u003d0",
    "4": "futurepack:color_iron_gray:",
    "5": "futurepack:color_iron_purple:",
    "6": "futurepack:wire_redstone:down\u003dfalse;east\u003dfalse;hologram\u003dfalse;north\u003dfalse;redstone\u003dfalse;south\u003dfalse;state\u003doff;up\u003dtrue;west\u003dtrue",
    "7": "futurepack:quantanium:down\u003dfalse;east\u003dtrue;north\u003dfalse;south\u003dtrue;up\u003dfalse;west\u003dfalse",
    "8": "futurepack:quantanium:down\u003dfalse;east\u003dfalse;north\u003dtrue;south\u003dtrue;up\u003dfalse;west\u003dfalse",
    "9": "futurepack:quantanium:down\u003dfalse;east\u003dfalse;north\u003dtrue;south\u003dfalse;up\u003dfalse;west\u003dfalse",
    "a": "futurepack:wire_redstone:down\u003dtrue;east\u003dfalse;hologram\u003dfalse;north\u003dfalse;redstone\u003dfalse;south\u003dfalse;state\u003doff;up\u003dtrue;west\u003dfalse",
    "b": "minecraft:air:",
    "c": "futurepack:wire_redstone:down\u003dtrue;east\u003dfalse;hologram\u003dfalse;north\u003dfalse;redstone\u003dfalse;south\u003dfalse;state\u003doff;up\u003dfalse;west\u003dfalse",
    "d": "futurepack:quantanium:down\u003dfalse;east\u003dtrue;north\u003dfalse;south\u003dfalse;up\u003dfalse;west\u003dtrue",
    "e": "futurepack:color_iron_black:",
    "f": "futurepack:quantanium:down\u003dfalse;east\u003dfalse;north\u003dfalse;south\u003dtrue;up\u003dfalse;west\u003dfalse"
  }
}