{
  "parent": "block/block",
  "elements": [
    {
      "from": [
        0,
        0,
        0
      ],
      "to": [
        16,
        16,
        16
      ],
      "faces": {
        "east": {
          "texture": "#east",
          "cullface": "east",
          "rotation": 0
        },
        "south": {
          "texture": "#south",
          "cullface": "south",
          "rotation": 0
        },
        "north": {
          "texture": "#north",
          "cullface": "north",
          "rotation": 0
        },
        "west": {
          "texture": "#west",
          "cullface": "west",
          "rotation": 0
        },
        "up": {
          "texture": "#up",
          "cullface": "up",
          "rotation": 0
        },
        "down": {
          "texture": "#down",
          "cullface": "down",
          "rotation": 0
        }
      }
    }
  ],
  "textures": {
    "east": "futurepack:blocks/quantanium/one",
    "south": "futurepack:blocks/quantanium/one",
    "north": "futurepack:blocks/quantanium/one",
    "west": "futurepack:blocks/quantanium/one",
    "particle": "futurepack:blocks/quantanium/single",
    "up": "futurepack:blocks/quantanium/single",
    "down": "futurepack:blocks/quantanium/single"
  }
}