{
  "type": "tconstruct:alloy",
  "conditions": [
        {
            "type": "forge:mod_loaded",
            "modid": "tconstruct"
        }
  ],
  "inputs": [
    {
      "name": "tconstruct:molten_copper",
      "amount": 144
    },
    {
      "name": "tconstruct:molten_iron",
      "amount": 144
    },
    {
      "name": "tconstruct:molten_zinc",
      "amount": 144
    }
  ],
  "result": {
    "fluid": "futurepack:molten_composite_metal",
    "amount": 432
  },
  "temperature": 900
}