{
  "replace": false,
  "values": [
    "minecraft:sandstone",
    "minecraft:cut_sandstone",
    "minecraft:chiseled_sandstone",
    "minecraft:smooth_sandstone",
    "minecraft:red_sandstone",
    "minecraft:cut_red_sandstone",
    "minecraft:chiseled_red_sandstone",
    "minecraft:smooth_red_sandstone",
    "futurepack:sandstone_m",
    "futurepack:sandstone_smooth_m",
    "futurepack:sandstone_chiseled_m"
  ]
}