{
  "config" : {
    "tries" : 64,
    "xz_spread" : 7,
    "y_spread" : 3,
    "feature" : {
      "feature" : {
        "config" : {
          "to_place" : {
            "entries" : [ {
              "weight" : 1,
              "data" : {
                "Name" : "futurepack:mendel_berry",
                "Properties" : {
                  "age" : "1"
                }
              }
            }, {
              "weight" : 1,
              "data" : {
                "Name" : "futurepack:mendel_berry",
                "Properties" : {
                  "age" : "2"
                }
              }
            }, {
              "weight" : 1,
              "data" : {
                "Name" : "futurepack:mendel_berry",
                "Properties" : {
                  "age" : "3"
                }
              }
            } ],
            "type" : "minecraft:weighted_state_provider"
          }
        },
        "type" : "minecraft:simple_block"
      },
      "placement" : [ {
        "predicate" : {
          "blocks" : "minecraft:air",
          "type" : "minecraft:matching_blocks"
        },
        "type" : "minecraft:block_predicate_filter"
      } ]
    }
  },
  "type" : "minecraft:flower"
}